0,29,24,546705,27867,8541,20048,19430,5213,2097,139317
0,35,48,423562,40940,63201,32150,11978,9775,14997,409296
0,24,48,1139579,886773,36521,37866,38026,5869,4643,448461
0,13,48,505809,548195,58182,7359,70817,10447,21419,603704
0,3,54,1733960,164970,414370,65327,58603,14909,5006,757265
0,4,47,681013,47629,57337,8880,6946,8092,1416,218687
0,17,75,296540,36072,8892,18038,5854,2222,463,56142
0,24,88,993092,79132,20133,8461,5218,3969,1926,189606
0,23,61,119712,40820,4954,6431,1562,853,631,55567
0,13,43,1436728,734574,84870,118803,28058,23871,13363,766739
0,8,38,3502657,611644,134166,177996,87945,16020,9746,691672
0,10,41,1836302,255077,20676,94830,10519,19201,6602,834333
0,13,53,1075441,353574,95294,134971,24343,12721,5083,278248
0,20,57,2253465,161783,34919,48527,43546,14778,5754,255619
0,26,70,850218,14355,11606,9647,1544,1366,902,60952
0,35,78,910484,81638,69599,10844,10217,24257,2313,225251
0,37,67,809615,198815,24941,44039,13061,7904,3457,254411
0,35,66,1907306,758788,183182,81780,38920,46098,23124,1001172
0,30,41,405395,136215,14396,14549,38110,4642,5134,239651
0,23,50,2357072,38063,41591,53853,32404,7551,7559,205141
0,34,44,1003480,64760,7203,11734,16852,7356,1647,226072
0,38,51,1133868,47892,22997,13459,7290,7989,2730,221355
0,51,64,123355,9338,1639,8604,9443,2718,645,61609
0,47,38,624867,158198,13923,16554,22609,4991,7281,237746
0,24,24,1325366,1653368,59923,99829,66614,7587,10204,858882
0,24,13,1342834,99399,22814,5643,8444,12181,2677,215002
0,10,10,1823033,157928,52306,12773,34811,3379,1393,209693
0,20,10,464906,82254,13622,6676,23148,8149,2362,225121
0,41,48,534511,13640,15057,31907,12339,3923,1512,230286
0,38,53,428011,63820,5166,18831,2564,5054,1142,238628
0,43,47,483019,162894,26610,10363,13654,7120,1611,227620
0,43,54,857242,86085,11153,27822,10237,11125,2040,211515
0,47,40,1130574,149675,31230,83281,63256,32159,18862,45232
26,47,40,221467,43885,2243,18613,12544,8242,3917,8470
26,47,40,767514,148251,74021,63134,102683,91614,57885,28263
0,53,30,81952,15278,974,2912,4050,2238,2071,10814
0,53,27,413945,208834,34456,9275,30210,11253,7506,52864
0,56,26,2117520,507303,114891,90483,89895,77154,49245,961912
0,38,10,1614661,275453,21513,22674,37596,3350,2602,241662
0,26,21,258893,42850,20470,1913,4249,1396,435,62338
0,35,41,757113,63385,52550,11212,17243,16490,5124,207325
0,38,24,830630,55766,2233,2208,3661,11217,6386,60027
26,38,24,612133,294847,31498,228794,161441,106923,26042,33026
26,38,24,695531,611452,75078,58020,37499,29834,39316,70540
0,50,44,1084816,80944,25302,33594,11027,6843,1672,190963
0,57,47,83518,2897,298,1510,400,305,108,11950
0,54,47,674818,24874,6883,19457,4049,5511,2276,168104
0,50,61,1998658,303171,33842,50917,61984,31798,21764,653633
0,51,50,1602764,134389,24262,19611,37766,10045,4091,677118
0,44,30,77108,20991,1472,1288,2130,664,422,51176
0,41,14,128216,61572,8556,5037,9127,4142,1425,200235
0,37,26,1825578,151708,39161,43533,5240,12358,6969,689828
0,35,35,287342,63169,22910,10568,4348,3547,3926,171453
0,35,43,1263024,183830,34289,14425,8446,7488,3121,701692
0,30,50,710024,72091,2795,21388,3955,3431,1839,180456
0,35,48,793813,89665,47265,16534,29999,12486,6917,710120
0,29,60,596374,92710,92394,27527,8082,3704,4320,782651
0,41,66,175296,53584,9172,23255,15359,11693,9737,772132
0,43,77,749980,120334,35108,78013,30384,12078,12526,746683
0,38,69,975376,247654,24605,53135,33789,13666,5533,742621
0,37,35,137765,608520,7997,8369,25214,9410,5371,708546
0,24,35,1057411,309705,53969,48565,21632,10287,13059,687249
0,20,44,1172496,42389,40455,45328,12759,3417,2557,176890
0,23,64,243036,5398,6506,2710,1759,1006,572,52003
0,27,81,82157,62223,5734,4537,7145,2277,946,191965
0,29,81,1665674,233346,76447,26440,76962,10957,20255,815665
0,35,74,90242,13895,3970,6747,3015,1461,695,45674
0,30,53,603852,569842,49117,63493,127943,30497,4973,792338
0,27,51,1176158,411648,14030,37785,27595,7848,8432,686826
0,30,50,1587395,478749,114237,47469,43134,27879,9249,764042
0,35,47,812596,42931,13409,12710,4287,6546,1492,196236
0,30,54,1493526,76222,18137,9489,6011,2402,1359,196277
0,37,66,938263,33656,5281,11273,5992,1729,881,193001
0,35,69,1046426,40081,11650,6857,9960,2444,1464,174815
0,29,61,288176,192157,21666,19683,21010,9857,8513,709766
0,30,43,1087154,137773,168,7125,15480,4760,2237,181549
0,34,44,69804,18296,7029,4003,1863,1133,678,47212
0,30,48,3131397,306793,43263,146585,35024,17296,8460,688262
0,27,54,2231394,243079,72131,37976,44567,8405,6216,754587
0,17,69,1656046,1030637,130331,125868,23521,11588,10705,828107
0,27,61,1524968,373458,63836,39636,54478,62097,12129,910287
0,35,64,927055,392596,230012,222820,45713,70339,24798,139446
0,47,74,1484006,178574,99800,159885,76652,44288,20529,330435
0,67,83,1158001,64088,43776,18235,29515,19455,2167,225216
0,50,80,62607,62202,9537,1573,4963,976,536,56630
0,38,64,168588,57822,7533,5770,3031,1409,727,53289
0,37,63,151638,68559,34075,29788,22160,11337,657,230934
0,21,57,410327,52663,18211,3795,2533,1680,294,53097
0,34,77,258385,34143,32451,12792,10915,4682,1740,201831
0,38,80,516675,72313,23333,5279,14340,3698,1940,219519
0,43,81,402867,29500,27555,15550,13827,9937,2623,224633
0,43,81,1605694,96876,11017,31915,16820,3365,3256,212167
0,41,67,1063484,139751,4561,35039,13420,9125,1453,211585
0,47,64,1378016,376332,54407,46705,70460,30863,4815,895383
0,24,53,2156749,875647,176986,44770,51540,10772,4933,757131
0,26,57,960123,89581,18185,40761,6660,3854,1818,195404
0,26,57,1999671,531972,75631,56107,31193,34025,4852,805542
0,16,61,991978,422579,37249,104088,18696,11463,6119,781838
0,27,60,206530,198815,34009,7439,10896,8420,2304,209547
0,35,54,934619,50051,19789,5807,18441,5426,2716,187559
0,37,56,733978,32274,5202,15152,37618,2895,1855,188368
0,40,61,727727,204809,95504,41692,24534,10246,5157,775649
0,44,64,1161499,248646,4843,70700,14268,24951,8244,602117
0,43,67,249220,73988,17654,26468,13075,7082,4743,656045
0,37,61,536231,281335,2625,39842,17844,6750,11905,656385
0,38,56,2163383,299953,41283,72090,6564,16351,4572,604981
0,41,63,376919,65400,26149,27856,15307,13409,8144,642470
0,50,57,826568,92125,18383,15805,15830,25931,6883,670845
0,63,66,608576,157938,43500,21183,12981,27883,5345,641645
0,63,77,2028731,52990,49690,14229,12712,4480,3375,599842
0,51,74,354686,154508,50063,26108,21400,6211,7839,678116
0,38,69,891376,167258,27352,6770,27314,6754,5100,607638
0,35,70,477797,115458,24569,48513,35486,13589,4435,622863
0,30,69,2858599,158196,34229,107388,24567,8402,7544,624634
0,35,70,1018511,171513,71592,24948,9519,10525,5441,595060
0,30,77,371002,374993,68557,33869,8688,9305,7893,594858
0,20,67,1556583,438594,56238,38158,19826,9137,4633,632784
0,13,51,1008708,433590,10565,47651,7183,7170,11381,593339
0,17,48,241342,176723,24641,50832,13573,15593,4269,587518
0,34,44,842697,52787,7723,6211,8148,11385,3526,597598
0,48,53,555641,57228,16261,15992,7689,9118,6962,632259
0,53,64,339074,330694,39151,118886,5316,13108,2333,601661
0,48,60,335308,126426,25371,19774,58151,6432,7292,560216
0,41,77,243260,73857,58029,36641,13322,11872,4086,576436
0,34,64,177311,66503,1630,7737,7589,2792,965,138990
0,44,66,107656,50666,28085,12504,6175,10967,6331,572370
0,50,70,1772406,104427,34643,25958,16448,12773,10407,634018
0,44,57,1219798,268605,11980,57396,4414,10493,8416,590234
0,38,54,981198,490078,19793,27394,10393,8832,10451,545153
0,30,37,1214894,191699,16720,1553,20357,10061,6088,590383
0,30,27,432054,116094,11742,15144,13323,9844,7430,561408
0,40,27,213403,60962,11438,9913,8850,8821,7011,532728
0,48,43,84193,115802,32294,14881,7211,6283,4191,572919
0,53,51,1036333,47324,5689,6519,6395,5884,3699,513041
0,60,56,57357,8437,3426,1196,3984,2108,1316,145414
0,56,56,674135,49335,1234,17010,9085,4692,7229,563470
0,66,54,162652,28345,10530,4441,15560,5388,5042,625521
0,35,44,715254,114328,9058,16344,2205,2545,4390,173861
0,30,47,2411202,312149,41836,83854,44639,20977,6068,889541
0,29,40,744640,62691,7783,6472,16470,6882,2623,163805
0,40,51,354500,41013,11164,7749,13828,3889,882,185265
0,43,61,326611,66944,29642,8050,2105,2966,1605,193827
0,43,63,209293,13602,2519,5448,4476,1022,856,46268
0,37,70,1268582,230003,64890,40540,27093,12271,4636,766242
0,38,64,267772,82451,17979,1963,15267,8602,866,203223
0,34,60,453524,300271,83231,30291,29376,5700,6259,805173
0,35,50,2397073,242770,25959,28675,119852,17153,9175,798979
0,30,51,1901536,266697,91416,23785,31651,9608,6079,700430
0,16,51,159264,25291,3184,2817,1225,436,174,46573
0,26,51,1291281,187450,32235,33603,40088,12723,3348,799764
0,30,54,374846,22300,4626,4653,22930,3134,874,195161
0,30,63,71540,100152,54384,53877,4168,6079,2985,732500
0,48,64,700408,156228,27422,20754,34304,19946,4945,700180
0,56,70,764417,8124,7887,4056,9953,3187,3324,175831
0,57,78,281866,63725,23207,8108,6365,11231,8994,626497
0,70,67,467281,9542,1809,3840,3688,2296,1129,165102
0,64,69,3223653,156415,17551,33574,7110,9464,4331,622897
0,48,69,2511715,406940,101219,144041,24182,11077,5238,739328
0,47,70,515340,103732,35103,38602,22293,17939,4470,690866
0,30,64,658393,57098,8866,3577,2385,1356,879,52138
0,27,64,357854,43923,9334,7703,3997,2178,1906,195367
0,48,63,35956,21027,12661,4862,8943,7910,1989,607230
0,47,50,1423401,210105,17828,22099,63378,18772,4061,590610
0,56,74,617534,84396,114617,16969,3734,5502,9215,541444
0,50,63,82714,102146,3619,20206,15456,12677,2064,617703
0,53,75,332861,44469,20907,13937,22681,9178,4659,578466
0,54,70,12066,23849,5438,3974,4093,4213,3245,627620
0,63,47,1335421,153160,16069,7810,5317,11373,5401,648687
0,69,53,415662,25338,5115,10040,11619,10127,7313,617046
0,64,57,165722,71943,27827,35339,16553,7779,3256,567741
0,60,64,881690,49493,19058,23884,13587,6570,3393,510061
0,64,77,408216,86614,16509,37765,14107,19035,8418,541200
0,50,70,590125,88521,4229,15181,9524,3941,6602,568478
0,41,56,133627,247773,9899,38521,3805,6034,5708,587064
0,47,51,733560,43093,6689,16296,9620,9863,4136,587476
0,34,40,271824,128391,3102,17174,5216,3126,3201,151928
0,35,41,32490,60796,10478,7074,13272,3759,2809,632562
