26,0,0,282149,253765,9666,73697,6190,91340,2278,460240
26,0,0,337462,319313,6444,126464,7938,116245,2038,467452
26,0,0,1060549,900257,133485,316104,5366,344332,7820,1708189
26,0,0,236706,330697,10866,103593,9501,79612,7123,307000
26,0,0,756142,1235760,70315,618583,7379,236981,3146,1462087
26,0,0,1319670,1078305,30333,359706,12881,412565,10744,1820078
26,0,0,1743638,1057198,17368,495200,7164,319179,4368,1632379
26,0,0,144723,398896,3966,117060,4371,70263,1763,392950
26,0,0,1051691,939988,14431,429570,12225,311996,6300
26,0,0,923690,1354718,30173,521838,6129,421656,11381
26,0,0,275390,379830,4922,166210,2750,83980,1015,459580
26,0,0,351385,190274,6210,153073,1911,93593,1776,469969
26,0,0,956296,980071,41866,616046,4297,281282,4199
26,0,0,520432,1244906,20903,336028,34047,334601,6218,1633365
26,0,0,877504,1241826,30324,435827,5515,273862,5692,1468140
26,0,0,71619,124028,3867,92132,5407,75997,1844,346546
26,0,0,836244,220712,7578,144084,9442,83941,5537,414967
26,0,0,27256,139919,13647,21813,15653,13547,7195,31497
26,0,0,1682526,1292757,73445,696623,38510,358428,53041,2177021
26,0,0,150804,269569,6044,115462,3640,67495,1119,358988
26,0,0,467660,224871,3616,76352,2061,64938,1274,339828
26,0,0,1150226,2171631,31390,506351,5006,369292,7658,1837615
26,0,0,55344,188056,1093,79557,1350,63318,2299,293316
26,0,0,120475,108451,2180,95616,1521,51338,658,289292
0,0,0,302063,843286,95484,239080,3857,187836,2748,1043114
0,0,0,512209,1120365,37129,314944,1167,194196,4271,1064264
0,0,0,193989,678865,13928,254262,14321,179373,7970,1065516
26,0,0,953494,1243618,43575,287379,7134,221682,6002,1083710
26,0,0,92237,300255,1903,85844,2158,58289,2012,305610
26,0,0,1684953,811882,22370,390288,4757,229180,1811,1189787
0,47,56,252729,550891,6515,352509,7153,192829,1581,963024
0,60,56,1337754,520352,74058,233624,7404,178589,2562,978252
0,74,80,1091979,683563,18024,316186,15318,193776,4282,1112044
26,74,80,59874,297875,2592,92310,976,59720,2048,273976
26,74,80,652462,1223377,16237,392770,12578,263883,8320,1238679
26,74,80,493800,1364206,74053,363854,18836,261605,3388,1678362
26,74,80,1836333,614120,26439,690187,23790,328828,3385,1977864
26,74,80,250294,182186,10293,116546,5638,88155,3756,401658
26,74,80,341756,462096,600,228025,2451,75737,1190,477586
26,74,80,200585,209158,3144,122555,6103,90312,2305,443456
26,74,80,347438,303864,11439,130698,1773,99161,1891,450636
26,74,80,283207,411645,13933,152560,4717,81630,2889,431970
26,74,80,1062824,1058864,71654,294039,6662,372588,8256,1636885
26,74,80,181621,162110,4668,127723,1887,84685,1696,420585
26,74,80,262873,261503,5450,101996,2579,80978,1745,403520
26,74,80,129543,419749,1862,161637,2397,73549,2098,411985
26,74,80,376434,215823,3560,102588,3289,84424,1800,384641
26,74,80,131579,103883,4429,110766,1103,76645,1179,356889
26,74,80,344223,1036175,5158,485603,8248,327423,11263,1505660
26,74,80,146367,218944,7101,108601,3104,60357,823,343233
26,74,80,66694,225727,3454,83767,3112,66986,2157,322462
26,74,80,1215133,742426,14080,416678,6446,271375,2384,1281057
26,74,80,1344985,1431629,46744,471742,12513,193887,2884,1331775
26,74,80,1660600,442663,62529,240334,6249,259581,3052,1262835
26,74,80,1072140,817756,56470,412686,6289,265892,5427,1352333
26,74,80,538804,877725,4155,276122,5405,312158,2917,1317509
26,74,80,36186,232891,2919,113386,1536,52741,1824,315485
26,74,80,97560,254113,408,92682,1121,66727,2564,300764
26,74,80,103940,128331,4217,92403,1038,58092,1274,302763
26,74,80,192408,110698,1502,76980,1305,58578,973,300236
26,74,80,628229,1417746,21151,402917,1470,222023,5546
26,74,80,739465,1158785,11500,368522,9116,271370,7472,1261781
26,74,80,1217990,816245,25151,427573,8733,258280,4215,1288068
26,74,80,33062,209495,2008,105931,2072,58678,1326,294340
26,74,80,1350117,933057,6150,471032,2276,240923,2987
26,74,80,1721245,194907,9556,404020,7327,258472,6300
26,74,80,188910,341049,12432,131366,1423,87089,666,439527
26,74,80,156427,572490,1953,149171,3899,76115,1253,438259
26,74,80,243298,466765,13936,121247,3666,107182,3839,428123
26,74,80,352479,277059,44855,131417,62412,45004,38847,224781
26,74,80,24600,88471,4935,15241,11957,10019,7502,82364
26,74,80,163260,207358,11923,130864,6375,78747,5109,435107
26,74,80,400623,245423,1058,143428,3097,112535,2611,506513
0,94,100,397747,291389,27941,411939,2384,212290,3373,1100236
0,90,75,985112,977494,42427,228617,7145,232294,4418,1134350
0,100,66,976423,534005,51608,317253,4289,253381,3633,1160133
26,100,66,108227,207516,8290,76212,1913,56907,1602,279804
0,100,61,297596,478050,22879,240248,2293,218144,6484,1065671
26,100,61,129881,123688,2623,83642,1118,58508,853,280115
26,100,61,208785,92235,2143,97263,1508,51799,513,267789
0,100,48,314578,462364,9157,312698,6764,183422,4521,1050806
26,100,48,50392,228799,1107,78146,925,56499,1646,253892
26,100,48,107302,198809,1024,74130,1002,46369,1107,260847
26,100,48,53475,139643,6276,77150,456,56072,1106,262191
26,100,48,77085,294129,9168,99376,600,49917,1100,265263
26,100,48,62776,114828,1684,67798,949,60720,1535,265510
26,100,48,61113,157363,5484,82115,1179,60657,639,269432
26,100,48,1358578,400345,40437,172764,2167,231097,3653,1026865
0,97,61,983751,971001,98508,312620,10509,167466,3968,1010053
26,97,61,52233,146700,1179,66782,991,50132,1789,224229
26,97,61,153750,166828,2913,70594,1157,49250,728,221578
26,97,61,40894,329394,3900,82305,1073,49684,2080,212025
0,90,63,37388,123428,583,84699,1069,47085,573,222929
0,69,51,79621,214091,1603,65425,706,45491,1790,212295
26,69,51,38462,184115,4093,86878,1260,45925,702,225567
0,69,43,309104,395097,23399,200219,9475,155320,1558,862317
0,96,56,47112,91668,2790,74398,1348,44593,448,221012
0,100,66,115880,29095,2851,53582,882,44225,547,194971
0,100,66,570453,756287,8751,245916,5440,185355,3760,897478
0,81,64,162503,580892,13095,241429,5687,166646,2021,880768
0,81,75,175694,48660,4229,74960,1198,50447,304,225848
0,60,51,53251,127963,1834,55186,1179,38481,677,212478
0,81,70,745571,182798,50229,131234,2806,146811,1280,756010
0,83,78,518545,271061,120000,41479,4865,98571,2985,677463
0,57,53,73666,184303,2688,72108,885,37800,551,179780
0,43,47,110797,940281,6963,277309,4050,161801,4341,793785
0,29,35,1694981,591603,24041,275076,2806,207929,2160,844290
0,37,48,102791,62802,1183,67935,1470,44784,630,211734
0,48,57,559756,390958,47345,227614,4423,160170,1782,775419
0,70,69,88963,114819,306,60334,450,49660,934,191697
0,63,61,527918,715686,141097,111051,6586,157594,1999,770306
0,63,63,113349,56253,3071,60673,1234,33439,665,187299
0,57,56,639382,613765,23461,270268,4008,165387,2532,804971
0,54,66,59472,88728,2062,63320,966,41004,347,180022
0,66,56,696649,550917,69751,91913,5449,164889,1719,714237
0,37,23,314101,887099,19221,223859,12231,96846,2357,648131
0,40,10,469240,576355,153705,37009,13514,141127,2049,680293
0,35,1,308596,454693,17232,216881,1097,141881,2444,659558
0,35,20,548243,392384,10056,204852,1216,142289,1422,643320
0,70,47,111400,50777,2566,46338,1051,37107,401,157629
0,63,54,447677,759064,17757,264844,4705,133385,1645,649398
0,50,34,693629,1084981,12171,205449,3433,138616,4294,627729
0,26,14,693736,858416,70772,122155,5257,100323,1273,629428
0,16,1,1054460,415823,27637,128133,10950,134396,4004,646514
0,38,16,781041,153731,58690,149971,3320,126777,2390,630350
0,66,43,275321,239819,10419,201429,3590,158572,3587,694053
0,100,83,433047,146926,20248,259232,5995,164759,1332,780581
0,100,88,542775,341314,23943,155029,5580,156140,3100,727650
0,93,66,297331,536928,8005,210539,2784,162407,4057,726149
0,100,57,278321,244981,19688,136906,3969,184032,2632,768878
0,80,41,96904,135156,8248,67571,605,34477,585,189154
0,67,43,73001,149215,831,64241,1601,38603,614,201265
0,87,63,32390,44385,1943,58827,1142,46532,636,199863
0,70,53,99172,158756,3628,48003,518,52849,1067,202570
0,83,43,73927,121272,2875,53073,248,46344,660,191513
0,77,35,76239,213914,7234,57958,856,38892,1432,174098
0,63,23,531898,373284,4898,232804,2824,174907,3570,724980
0,70,43,955836,320309,22042,241985,5524,198126,878,770361
0,69,53,188898,359339,7210,226547,4825,148999,1462,702311
0,91,51,841177,465467,94731,60215,6728,201043,2775,733662
0,83,41,254481,569964,9801,189396,1478,146478,3068,696506
0,75,40,182078,109763,5396,70594,907,45523,610,187873
0,80,30,246161,303173,114546,62609,4990,162889,1608,693511
0,77,60,455925,247213,38760,198059,11903,128596,1518,719086
0,67,53,194260,737090,152607,57698,3010,124185,4301,674949
0,70,53,58182,72762,2491,52216,558,38180,518,175283
0,70,57,42424,68226,815,47964,823,39786,1461,173775
0,80,57,34542,49281,1384,54605,1469,37538,317,163326
0,94,64,1317970,459330,48086,132673,2452,152518,3620,609782
0,87,47,680512,491426,18401,133410,3178,124837,3179,576152
0,83,37,676133,376565,21806,152197,4494,161322,1218,670545
0,77,44,156143,45326,7871,62705,1800,33795,395,174317
26,77,44,23973,209527,7646,64216,348,38507,352,180059
0,67,47,63983,120094,3660,46439,2278,29594,891,166079
0,87,66,325907,164492,48376,135896,2348,173794,1695,691879
0,96,57,99388,346684,46918,73600,2685,205846,2427,692539
0,100,57,141108,44669,4513,62144,1237,38556,320,178378
0,100,77,122325,43965,4469,46230,592,34190,359,169064
0,93,64,430004,639866,34808,245045,10288,142240,845,718113
0,80,78,115548,88671,12291,34973,341,35151,1042,165735
0,84,78,40423,29648,1627,54871,788,34366,369,169807
0,75,63,312199,391979,11247,199296,4814,148184,4205,645671
0,91,70,1044360,298685,19101,196656,7248,149173,2974,665723
0,91,78,560208,322658,7395,207496,3693,139798,2741,652346
0,78,63,40256,86471,2817,54334,701,33862,574,158828
0,84,69,535730,255966,47297,136454,1155,138627,2703
0,78,60,626995,320647,136243,22522,2734,108187,1906,687369
0,57,48,521091,991524,31247,318513,7715,137056,3625,652425
0,70,54,1454656,152695,112670,95213,3995,172098,2955,719707
0,67,66,182230,65745,9375,58633,1113,39225,418,169521
0,83,69,252074,233548,6691,154174,1235,168680,1396,659420
0,100,81,964898,246162,49736,131507,4231,165746,3112,667683
0,91,64,407090,478485,24068,177252,5712,118825,3781,665220
0,100,48,633780,262648,91294,71690,2762,158195,1354,665636
0,87,41,1058585,436289,36700,140483,2242,147950,1906,646979
0,78,41,29735,74057,2743,48879,778,33742,533,159525
0,91,53,40887,65810,1831,48558,887,36784,983,163602
0,84,57,362004,280947,143985,46759,3006,131712,489,662907
0,91,66,102233,70517,1131,46725,976,37643,534,155999
0,100,64,161322,57657,2790,37865,235,40169,722,152118
0,91,51,187786,437089,2560,165098,756,130385,5693,573060
