7.9604,253.66,344.94,354.54,307.09,352.28,632.44,474.3,92.069,81.397,100.95,89.141,183.11,370.06,127.2,312.93,388.6,120.22,115.03,118.67,139.34,259.9,290.92,99.397,100.78,118.07,207.79,105.5,117.49,356.85,486,113.37,337.22,134.14,111.51,108.11,545.92,147.97,101.57,476.28,137.91,90.151,79.141,75.893,97.992,84.665,126.09,328.86,436.14,125.22,94.257,86.91,68.873,87.799,69.825,87.533,379.2,106.3,89.946,115.09,414.26,265.6,108.43,93.711,88.635,82.261,83.196,95.624,351.13,130.47,101.81,358.14,118.33,364.22,195.3,110.47,116.8,476.68,116.86,114.42,92.83,285.84,108.04,85.466,73.16,152.21,164.48,490.73,88.756,174.63,420.98,114.05,110.16,107.82,106.14,104.96,118.33,112.29,626.17,396.9,167.9,86.732,75.111,91.212,85.892,75.48,72.404,284.23,158.05,117.19,100.31,117.82,195.7549434,195.3823962,3
13.85,339.79,89.267,119.22,211.58,73.536,86.493,106.63,89.959,119.09,335.42,356.1,137.98,129.37,115.42,80.401,116.38,102.36,72.894,97.016,108.4,126.74,105.65,104.95,74.305,88.854,104.09,68.961,98.439,105.79,79.062,93.713,290.95,148.96,100.84,96.744,83.864,108.66,264.88,117.39,345.37,420.14,106.41,91.213,85.097,123.77,102.44,88.642,162.45,376.61,109.25,100.34,121.55,92.258,95.165,158.6,85.345,73.515,102.49,113.77,288.47,348.7,366.46,91.753,100.2,97.535,115.41,82.697,165.1,119.13,387.57,140.73,209.05,301.28,124.89,110.99,109.14,355.5,145.9,98.299,259.41,124.84,122.18,161.38,258.13,123.51,390.67,156.45,180.38,116.96,91.273,67.08,93.183,101.61,61.952,84.859,284.34,254.12,99.568,107.91,165.94,75.875,97.876,76.462,167.47,129.07,138.81,76.626,91.251,97.322,147.52,105.42,110.06,417.4,1
15.656,422.61,106.9,93.65,292.18,173.93,101.09,74.728,69.507,88.253,83.104,93.396,94.459,69.877,95.982,99.698,66.907,182.78,66.723,73.463,64.592,77.518,114.72,71.304,92.771,87.915,77.487,109.7,111.62,67.647,82.494,96.696,104.78,75.284,92.47,87.389,74.745,74.787,108.92,90.223,79.095,94.829,107.28,133.56,195.11,92.658,91.219,120.95,427.04,170.37,194.4,203.99,317.46,87.342,83.235,100.19,104.89,127.89,80.761,112.47,103.65,78.246,121.6,125.96,215.24,177.21,93.602,91.726,87.934,298.65,190.15,129.11,124.13,96.653,146,90.812,110.43,117.58,89.378,135.98,97.482,195.03,94.438,98.195,87.991,132.47,323.97,164.7,93.645,91.506,254.78,248.26,117.9,189.49,503.55,170,95,146.22,65.635,107.29,86.037,102.48,116.46,97.859,95.087,111.38,221.21,368.03,173.24,126.76,153.64,303.77,214.61,93.498,1
13.758,376.65,196.53,167.53,242.61,175.19,377.22,156.28,177.09,205.65,165.61,110.83,126.13,548.79,215.69,257.3,355.94,440.01,453.04,492.05,204.73,439.92,344.65,222.06,222.83,488.98,213.11,147.29,239.46,224.43,104.15,131.47,196.19,123.25,232.15,313.31,181.17,220.37,190.06,144.52,135.7,155.94,105.81,129.87,395.49,201.03,155.02,154.09,169.8,216.74,147.91,121.63,136.63,123.58,137.87,123.69,201.27,140.84,95.751,111.52,124.37,81.635,78.226,79.264,104.65,90.402,150.41,103.96,211.33,437.96,152.05,97.082,94.76,109.96,121.07,147.05,124.92,115.78,107.38,101.5,111.23,112.19,101.6,153.7,122.56,107.84,87.613,104.08,118.54,125.63,195.86,99.762,101.85,124.49,126.51,97.873,122.92,101.66,125.04,131.85,140.16,187.09,245.67,218.08,210.3231,187.3879828,182.0565965,235.1640877,209.1640909,179.9028545,178.9158,210.2649091,195.7549434,195.3823962,4
6.6466,339.25,122.11,214.34,633.49,191.6,467.22,234.79,205.05,301.38,113.49,342.88,226.21,152.35,124.08,148.52,206.9,129.09,194.74,178.68,293.89,206.39,141.86,113.09,140,122.77,166.51,124.9,97.843,181.43,226.77,162.39,492.02,111.69,138.01,117.88,196.63,430.37,248.88,121.66,104.87,476.95,137.77,84.83,114.33,193.58,331.34,402.41,158.6,92.196,85.644,116.63,133.69,108.64,106.48,82.782,193.65,312.65,100.17,72.072,129.74,179.45,118.8,81.321,83.276,80.063,105.96,120.37,229.26,183.87,228.3,153.12,136.77,86.766,128.38,83.851,68.398,71.582,67.225,77.934,70.437,78.657,85.386,188.03,206.14,75.081,73.726,77.558,75.608,79.856,77.366,86.054,72.895,92.343,72.364,84.385,106.55,135.17,103.97,141.77,183.12,106.16,88.793,116.79,338.69,115.53,100.93,70.054,87.334,109.9,90.115,75.444,195.7549434,195.3823962,2
6.3334,144.22,83.192,89.669,155.15,420.04,223.21,104.02,70.401,68.73,77.202,62.591,68.624,83.346,121.64,70.79,102.1,127.63,77.281,66.248,79.931,95.628,560.83,223.5,97.65,86.636,68.153,82.777,119.04,439.62,158.32,88.571,113.9,215.36,131.07,142.45,73.711,73.096,85.293,69.542,87.077,126.33,90.277,59.031,111.35,100.29,232.42,119.86,246.43,100.66,161.67,81.317,104.95,130.64,83.496,99.017,91.535,70.182,71.886,71.6,57.382,70.649,156.39,91.574,74.872,102.34,71.908,70.852,61.349,96.278,124.41,86.598,83.14,134.3,55.871,60.892,142.66,103.14,146.99,75.078,146.06,85.982,57.659,72.17,124.56,67.38,91.773,55.1,112.73,73.994,91.807,100.18,72.628,79.424,64.232,179.91,120.4,185.11,93.33,77.907,86.617,249.75,118.48,71.536,210.3231,187.3879828,182.0565965,235.1640877,209.1640909,179.9028545,178.9158,210.2649091,195.7549434,195.3823962,3
247.59,1349.2,500.6,182.26,238,242.07,362.79,465.35,183.7,594.32,275.73,211.3,176.16,134.15,110.38,183.63,135.97,248.23,144.13,157.35,240.29,213.98,630.88,532.22,214.29,401.36,450.7,399.21,214.8,155.86,143.82,219.65,906.85,1029.7,784.51,274.89,171.72,461.4,155.73,471.97,418.29,225.98,138.57,342.75,109.78,227.85,247.27,389.4,395.89,373.06,376.95,150.5,189.07,427.25,350.53,810.99,1187.4,232.39,212.25,308.92,451.02,426.09,528.59,180.18,174.18,282.36,517.15,177.72,216.55,254.98,160.05,119.99,197.11,128.46,228.28,296.17,277.08,108.62,101.11,191.23,81.771,139.36,119.8,339.17,336.37,251.13,311.62,211.95,350.12,541,164.32,119.73,97.308,147.31,180.68,387.05,206.76,132.62,124.74,282.54,212.96,243.26,278.07,422.01,210.3231,187.3879828,182.0565965,235.1640877,209.1640909,179.9028545,178.9158,210.2649091,195.7549434,195.3823962,2
30.04,606.33,275.09,120.21,145.35,106.08,103.39,147.9,269.75,173.55,210.1,142.2,188.99,312.75,419.23,670.38,182.3,193.79,228.35,456.68,837.89,485.35,204.02,182.79,165.62,495.49,350.26,506.64,784.51,471.66,531.73,271.48,293.16,194.17,163.77,178.23,177.3,117.62,155.59,138.97,317.01,271.84,124.16,97.87,91.778,89.907,87.629,152.29,97.769,113.93,132.54,122.83,167.44,209.87,132.01,173.54,159.14,116.13,124.89,265.68,279.17,155.55,264.78,362.42,174.89,164.99,140.44,135.03,344.17,207.33,149.21,127.37,122.14,146.63,417.86,693.13,477.59,249.59,163.77,298.94,281.58,136.41,109.5,103.08,136.75,217.02,119.09,100.65,80.098,91.518,112.26,89.153,167.14,183.92,193.22,317.92,164.76,139.42,125.8,142.18,364.87,183.46,124.63,234.25,210.3231,187.3879828,182.0565965,235.1640877,209.1640909,179.9028545,178.9158,210.2649091,195.7549434,195.3823962,1
107.29,471.94,360.3,517.03,366.6,525.58,757.96,1429.9,1626.7,3032.3,810.5,146.15,221,509.6,487.86,281.34,206.04,325.67,206.54,165.65,160.03,240.85,465.97,124.4,159.42,185.75,493.33,178.5,158.12,80.23,88.348,197.58,188.56,106.29,133.74,135.03,144.1,230.68,145.94,313.89,179.42,145.63,601.09,151.33,134.02,385.21,153.1,145.53,195.41,195.3,119.92,186.59,259.34,149,102.68,100.7,116.46,95.737,174.44,105.17,107.07,115.1,263.56,140.8,243.25,344.84,380.41,675.5,425.63,388.86,608.43,214.82,108.17,104.79,84.542,82.257,105.23,80.175,90.975,120.2,146.17,373.29,170.45,221.05,457.33,256.09,267.57,380.56,420.83,338.59,159.76,226.53,178.55,96.446,132.08,131.61,116.37,114.39,166.2,108.55,102.33,125.98,267.7,238.53,210.3231,187.3879828,182.0565965,235.1640877,209.1640909,179.9028545,178.9158,210.2649091,195.7549434,195.3823962,3
17.329,479.01,116.94,144.78,279.2,209.97,148.91,295.93,125.58,110.44,132.42,94.688,131.58,122.96,112.27,209.98,317.6,170.22,140.82,188.17,280.92,175.25,187.94,165.24,537.52,218.69,221.11,171.83,166.28,256.04,121.29,142.51,156.75,168.15,158.18,99.125,105.62,117.28,109.97,104.56,133,150.67,184.53,118.46,98.924,142.14,152.82,169.11,121.71,340.51,197.5,160.07,158.72,133.03,172.07,308,209.38,222.84,123.31,126.78,120.72,109.02,108.22,107.19,118.56,120.76,94.016,100.53,157.22,310.07,466.94,123.12,151.55,524,187.6,133.12,76.979,91.593,131.84,137.72,88.422,109.93,165.86,164.04,165.27,333.76,143.3,161.33,138.12,174.98,103.23,125.33,182.56,163.78,130.19,167.41,199.32,117.4,213.11,118.74,294.26,181.81,139.48,82.416,93.737,195.84,182.0565965,235.1640877,209.1640909,179.9028545,178.9158,210.2649091,195.7549434,195.3823962,3
19.351,421.95,157.89,342.71,157.44,121.89,122.69,317.08,198.24,145.12,296.84,139.4,101,132.48,106.94,118.92,151.68,486.38,222.26,177.94,231.97,140.17,112.55,122.31,135.5,128.87,113.71,109.6,92.325,114.14,204.31,335.96,237.76,196.14,230.28,364.84,147.03,298.57,112.23,117.23,138.39,157.53,190.86,374.62,139.63,123.22,151.93,313.41,187.52,121.68,118.09,131.15,157.2,113.24,419.68,174.13,146.37,174.2,267.79,130.96,110.86,403.88,160.3,153.29,146.28,111.28,85.694,106.62,152.69,127.71,99.336,92.128,210.78,205.33,158.05,167.34,148.77,112.67,116.92,145.31,216.18,369.5,124.28,104.95,105.52,138.01,159.31,159.92,127.74,340.8,171.26,157.63,176.21,130.29,151.25,112.91,387.98,223.36,125.8,120.04,97.592,111.24,237.4,409.7,146.08,110.98,115.93,163.85,209.1640909,179.9028545,178.9158,210.2649091,195.7549434,195.3823962,1
21.019,475.47,191.77,243.53,207.92,216.99,428.79,210.22,151.6,133.62,115.7,341.97,172.21,217.74,244.76,276.53,154.61,147.71,127.79,221.15,160.16,127.05,145.54,151.8,148.95,185.06,125.34,171.42,162.93,420.32,129.44,136.03,123.13,508.62,155.75,101.66,109.12,100.11,132.01,156.88,412.16,113.36,126.69,152.32,118.74,108.34,98.554,108.13,193.41,487.48,135.66,111.48,97.75,140.61,151.54,292.55,162.51,252.76,274.95,128.32,147.6,157.03,491.75,186.01,282.99,413.28,162.5,110.95,266.39,349.36,137.72,110.01,126.06,460.91,171.52,147.78,96.021,100.08,113.25,134.96,218.21,358.66,108.48,98.499,162.8,119.55,98.979,93.882,150.1,133.08,223.75,215.15,119.41,106.21,444.37,187.26,353.27,158.47,114.46,128.35,122.35,119.86,119.33,154.6,380.93,151.59,149.01,99.774,86.742,111.83,310.7,368.73,134.85,106.27,3
9.8738,244.3,211.65,332.83,884.79,212.07,207.35,350.2,271.2,215.02,148.3,178.32,374.11,145.34,158.05,279.55,101.03,301.06,232.69,451.41,214.27,218.91,332.16,285.48,1403,770.81,1812.7,805.44,1235.3,784.33,1804.6,204.55,472.4,597.68,404.02,598.17,1195.2,936.52,893.81,1674.1,1079.7,1529.5,1041.7,796.2,726.57,1414.1,262.08,1447.8,1868.1,1146.1,214.24,386.82,159.93,193.72,203.87,741.83,414.81,492.81,200.36,252.25,356.08,343.1,159.49,475.83,489.61,1246.7,600.72,783.46,313.31,489.15,253.22,309.51,935.45,827.67,1051,1821.9,1393.9,239.13,250.35,442.63,256.4,504.59,945.88,772.46,270.47,301.61,357.83,367.13,319.06,415.23,1173.8,340.87,186.8,199.27,312.84,380.7,184.23,358.73,255.26,223.28,210.39,1411.5,366.42,316.11,1451.1,400.91,507.72,322.7,209.1640909,179.9028545,178.9158,210.2649091,195.7549434,195.3823962,3
6.6275,181.13,155.11,184.45,110.24,146.72,151.91,153.17,120.9,141.08,127.53,160.72,133.84,179.62,249.82,334.43,569.86,189.13,171.09,229.58,286.93,453.67,289.42,311.08,315.31,250.1,120.64,359.43,262.5,203.95,245.14,168.08,370.16,323.98,184.32,188.71,206.18,312.11,158.43,407.52,335.55,119.45,102.39,539.52,183.86,106.71,116.42,131.35,424.59,109.26,91.619,135.87,169.45,444.59,282.58,171.5,203.78,377.72,240.41,180.04,127.79,146.25,413.99,180.15,121.77,162.41,149.9,228.5,591.75,138.2,110.81,126.13,447.76,138.76,305.2,252.07,129.8,97.852,133.41,135.38,512.09,140.01,138.27,159.21,119.76,112.89,139.35,416.7,198.06,157.53,109.92,165.86,516.92,473.52,305.25,148.68,155.43,164.48,141.59,165.38,675,397.36,523.57,198.16,210.3231,187.3879828,182.0565965,235.1640877,209.1640909,179.9028545,178.9158,210.2649091,195.7549434,195.3823962,4
10.756,243.89,128.74,303.65,111.72,117.76,295.85,179.34,614.19,181.82,117.3,122.16,133.66,154.43,115.91,628.18,167.72,193.11,86.945,162.67,163.47,155.55,202.41,112.1,95.948,118.56,409.29,244.41,117.96,139.04,126.52,179.49,329.25,363.23,114.48,139.41,160.19,127.14,108.35,186.3,186.05,121.02,89.051,239.26,328.88,167.75,145.86,174.88,100.46,155.61,116.97,125.99,235.5,334.5,128.55,175.95,137.54,180.43,96.693,129.1,124.48,238.47,272.9,126.06,126.11,148.1,120.28,150.34,104.96,155.12,107.8,132.01,228.7,270.73,147.78,119.07,96.752,144.18,115.9,164.68,292.01,232.18,118.34,178.68,160.91,140.65,185.56,136.96,134.29,389.47,151.31,133.43,118.38,134.82,114.07,155.07,112.94,163.5,88.293,491.37,155.81,222.76,1143.9,140.08,55.286,346.42,122.2,148.23,241.63,362.08,117.97,143.55,110.73,128.85,1
23.489,550.71,202.88,594.28,158.39,155.6,137.05,181.76,114.06,601.92,140.37,157.37,126.68,334.28,471.12,180.35,120.15,148.62,123.23,158.49,425.61,203.89,510.23,150.11,136.42,172.02,116.94,232.26,530.49,138.53,145.67,152.78,92.392,214.77,169.22,154.32,111.17,575.05,169.16,218.45,112.81,177.96,103.92,153.76,391.25,290.77,89.86,125.54,136.33,163.52,421.37,276.98,146.84,150.86,177.32,134.5,92.566,228.73,374.12,157.69,88.177,193.99,565.55,185.22,170.85,148.68,117.95,117.48,81.534,141.34,383.37,317.1,141.2,331.26,121.09,121.23,139.52,182.7,441.5,146.67,100.9,198.13,101.24,126.19,114.35,406.4,355.82,241.97,97.131,134.02,133.37,122.57,167.15,580.79,230.87,1038.9,325.69,782.09,431.12,163.67,182.81,210.94,173.68,130.02,128.03,172.02,482.38,165.59,112.16,137.83,129.13,213.69,99.853,178.76,3
23.973,353.06,299.67,470,121.13,232.49,386.47,434.98,226.56,194.11,181.14,130.03,229.53,509.1,152.21,148.26,99.445,153.56,360.34,287.3,132.6,116.66,83.212,141.71,108.25,320.58,315.25,140.49,107.34,133.87,161.75,316.16,376.06,312.8,434.16,196.74,206.19,377.69,143.84,148.54,162.85,243.41,525.89,179.96,148.58,150.44,123.54,148.02,323.1,301.35,95.371,137.46,111.4,121.41,116.67,173.55,204.92,355.72,185.18,181.43,380.64,668.35,189.13,150.41,105.02,202.69,148.81,136,96.457,193.85,109.96,180.55,75.888,122.2,143.91,137.29,93.369,137.64,122.59,138.12,147.96,161.57,344.13,237.7,405.37,299.87,673.31,519.71,345.02,312.74,240.79,197.98,210.28,235.42,483.35,350.71,227.23,159.95,190.97,145.59,229.62,389.25,130.83,211.64,145.58,262.2,217.66,409.23,259.52,135.6,90.34,111.23,156.26,117.86,2
18.512,448.99,114.82,111.12,95.16,134.56,125.59,213.86,509.92,229.58,413.94,185.33,112.03,224.92,170.48,92.641,124.65,165.14,687.09,159.68,94.834,109.04,139.55,231.64,210.89,94.731,123.43,125.15,89.68,100.56,130.7,104.2,100.48,124.08,91.589,100.66,159.11,97.073,76.537,116.54,89.918,98.948,95.844,123.43,124.31,120.44,118.84,125.74,88.191,96.869,141.32,123.63,89.391,96.101,122.56,120.74,130.31,105.97,91.65,112.62,121.83,103.14,75.5,95.997,84.859,100.54,96.88,162.62,109.07,135.26,82.687,87.398,90.629,92.126,101.01,96.013,76.037,67.89,75.779,97.852,76.95,73.93,80.737,83.883,71.389,89.588,85.627,79.106,96.539,84.665,78.853,101.12,95.347,98.207,97.195,93.011,75.774,97.637,81.962,91.242,106.82,98.769,188.74,227.65,124.45,120.03,187.55,164.61,152.1,227.49,276.29,110.3,184.41,102.91,4
8.2016,206.92,98.887,75.109,69.95,93.368,121.84,106.93,96.024,133.35,505.9,204.76,118.73,81.814,100.18,93.478,98.056,133.78,119.29,95.769,116.86,123.01,76.783,82.362,109.37,98.005,85.664,81.932,123.07,103.83,99.7,233.61,149.16,129.24,110.08,84.453,81.759,102.1,112.84,442.02,165.74,430.68,126.85,84.239,88.582,100.45,89.832,76.035,78.377,77.639,114.29,83.125,102.46,101.66,137.03,100.98,73.014,92.07,84.582,126.64,117.83,79.742,101.99,82.534,93.049,82.935,71.699,116.72,100.15,97.486,96.71,157.8,80.203,104.32,102.5,81.863,96.315,98.999,135.81,111.5,88.528,104.96,157.62,95.517,138.54,115.43,96.056,125.42,94.051,90.588,96.551,208.68,141.17,99.379,102.87,69.016,75.903,69.506,95.648,149.52,130.32,108.39,105.77,111.6,75.261,76.86,106.73,141.13,88.401,81.118,96.805,81.969,106.74,112.79,3
13.469,473.47,89.507,104,91.283,92.368,122.33,83.236,126.33,131.82,126.75,87.593,97.932,109.28,86.089,124.51,103.84,97.313,98.83,107.07,111.51,108.91,80.476,79.777,173.48,109.77,123.61,115.34,119.14,106.13,151.28,117.73,100.2,98.707,97.311,103.53,146.74,92.67,100.54,140.34,85.147,102.38,74.73,90.665,97.895,180.42,136.86,119.53,134.27,112.93,89.839,87.772,165.78,107.69,90.917,103.03,115.34,88.704,99.113,112.54,88.062,77.368,88.93,116.08,85.142,111.76,97.76,156.16,89.509,96.453,97.715,102.47,82.695,155.07,115.26,115.71,128.4,162.9,112.97,111.61,132.21,124.87,113.31,99.324,105.44,78.293,68.328,88.163,79.357,84.498,107.31,167.44,90.023,95.1,113.22,105.37,85.097,81.708,75.963,104.94,86.968,103.96,191.85,104.12,101.62,101.01,129.09,112.45,96.716,90.662,115.36,196.59,98.767,102.51,3
18.594,483.62,249.28,265.43,133.52,117.47,106.98,105.38,103.15,128.28,246.43,209.21,95.853,134.75,112.8,226.58,413.75,363.3,241.4,406.84,145.63,395.05,155.38,383.39,151.71,272.46,247.72,125.31,221.13,339.85,133.2,333.7,137.16,116.86,161.67,124.34,117.65,99.401,108.75,293.68,194.88,231.66,303.15,126.78,134.05,236.89,308.69,151.32,139.3,89.748,98.613,111.74,252.02,182.21,109.02,156.3,151.33,121.72,145.17,222.87,248.93,352,218.5,179.41,153.86,263.79,252.1,201.09,116.57,207.81,110.54,151.71,360.26,172.36,102.59,97.723,303.93,186.55,149.1,390.11,199.1,144.22,116.31,269.19,340.77,154.3,120.07,133.65,132.59,338.1,178.53,151.77,292.78,204.2,148.46,130.57,137.37,234.08,187.79,125.45,121.7,115.6,198.45,155.16,261.3,143.91,454.22,193.78,178.97,143.64,297.86,188.12,148.65,124.48,3
7.4589,195.73,145.68,485.83,218.35,302.31,173.49,178.33,567.4,180.94,145.94,185.84,121.4,132.41,105,82.697,98.246,92.981,80.652,96.427,123.07,222.41,1100.3,2039,1581.9,1546.4,925.22,410.5,1605.2,1271.8,2587.7,985.78,2061.8,2554.6,1958,1488.7,764.17,332.82,495.13,272.5,313.23,454.36,132.28,182.95,243.06,444.98,177.83,147,133.34,145.59,150.12,172.05,176.27,207.9,482.31,305.59,304.05,163.05,222.3,329,273.76,172.46,141.67,208.64,161.08,171.3,197.59,288.77,329.41,304.98,163.8,168.02,154.9,163.31,140.03,166.34,326.61,275.46,282.87,122.04,110.43,139.91,127.58,119.45,244.69,122.7,211.51,162.23,113.76,110.95,167.12,424.06,451.87,533.32,197.17,179.87,843.72,323.55,124.88,125.07,120.35,119.34,94.135,115.29,87.594,105.68,179.03,129.54,152.98,286.96,244.9,108.71,216.93,181.95,2
15.273,288.35,161.89,163.04,134.74,246.3,215.87,284.74,111.02,108.87,100.54,94.581,100.09,107.04,131.47,296.78,153.09,103.22,146.81,178.92,250.1,102.69,103.57,144.4,97.489,85.189,89.087,112.75,132.21,111.66,122.14,379.62,126.43,89.129,130.61,92.088,121.09,120.48,86.035,90.441,122,235.86,166.1,132.42,100.73,97.459,105.95,219.47,210.96,111.64,175,334.59,105.1,102.23,148.54,88.29,108.34,130.65,192.26,115.52,102.53,155.35,191.05,215.67,157.36,206.58,109.54,233.79,200.67,386.45,186.87,161.26,134.84,114.72,350.35,131.76,237.1,161.02,101.89,95.428,103.16,341.49,198.83,76.38,115.55,188.83,252.39,200.2,112.4,87.722,138.35,80.688,94.365,263.33,257.42,123.86,86.194,121.81,163.22,224.03,101.04,82.063,215.82,244.19,233.47,146.43,144.94,105.32,83.879,89.912,184.87,131.21,177.91,187.63,3
241.18,280.11,281.85,343.72,278.32,229.06,247.42,290.7,303.19,266.29,275.41,268.98,306.19,311.58,492.68,328.29,305.79,344.73,255.02,313.33,316.04,380.06,250.05,331.56,293.39,376.1,309.02,286.81,303.07,346.36,242.01,282.86,365.89,266.84,490.27,388.85,385.44,418.4,508.75,534.93,371.81,269.84,349.28,369.85,274.4,407.64,319.75,337.36,299.42,254.64,368.88,294.28,279.38,345.65,292.62,277.38,256.51,274.12,242.22,252.78,281.59,300.37,291.55,276.48,228.67,270.51,293.96,298.47,289.75,278.3,292.66,349.16,316.9,296.43,340.63,244.88,276.06,240.56,196.67,299.96,444.25,309.83,243.27,234.41,251.38,255.17,340.54,317.81,305.83,289.97,314.37,286.72,254.31,258.53,288.92,288.99,302.35,301.97,236.11,320.24,296.17,278.95,260.69,285.25,297.83,429.5,278.07,277.61,233.13,358.48,247.95,277.64,244.8,305.56,2
38.363,450.39,309.75,305.33,319.57,288.4,318.1,270.73,331.94,229.36,249.69,308.78,262.47,377.24,268.39,309.18,342.89,357.56,390.04,411.04,401.11,392.69,409.89,415.7,278.81,320.6,284.59,357.44,316.39,387.77,361.97,297.82,383.24,331.64,380.1,321,256.29,331.96,317.79,271.82,377.71,371.64,309.64,389.43,274.56,311.79,502.83,328.88,323.58,310.79,369.18,298.46,293.19,318.11,311.56,238.14,306.78,306.21,367.03,538.23,318.94,260.33,277.06,437.85,288.1,333.69,444.52,300.89,336.99,303.68,277.19,262.92,341.58,331.12,334.13,318.3,247.9,357.07,458.96,364.27,313.18,326.45,310.54,482.28,377.12,376.45,356.51,262.31,369.71,359.55,375.95,358.68,294.86,380.49,429.39,386.98,344.61,290.39,316.63,314.05,303,335.37,391.28,313.07,409.19,449.54,311.77,323.81,291.69,328.24,275.06,309.64,570.65,359.24,3
13.338,327.37,272.16,231.45,335.86,318.72,276.44,295.95,392.25,336.7,271.48,298.98,254.59,317.86,200.13,299.92,259.27,263.5,309.72,408.76,340.67,299.27,304.83,270.97,274.3,336.21,272.72,254.12,308.86,213.7,255.15,326.4,299.02,235.41,331,277.42,314.18,301.34,283.5,231.31,285.42,291.16,350.6,366.46,240.53,362.92,371.32,324.03,283.7,333.04,352.82,254.88,265.58,204.82,238.86,311.7,293.04,220.56,236.37,294.36,264.88,328.46,266.77,243.57,233.63,256.98,234.53,337.21,335.94,280.34,437.46,302.86,258.16,274.5,334.27,332.51,238.89,305.87,262.98,284.79,377.13,319.34,262.12,285.04,277.05,275.52,292.3,340.56,183.53,299.9,452.8,278.66,256.26,188.19,262.72,202.94,246.52,273.72,283.96,221.47,271.61,289.53,223.06,228.42,264.52,276.45,204.21,244.43,230.33,220.85,236.76,237.63,249.36,310.57,3
24.544,618.71,175.47,172.09,148.58,205.62,191.06,252.14,165.83,564.56,362.6,233.66,208.6,250.59,479.54,513.33,133.28,257.95,535.85,279.65,187.22,1042.4,649.72,549.01,388.44,233.02,335.26,498.6,793.88,353.55,451.47,556.89,201.21,327.7,174.87,192.46,145.58,225.14,279.52,254.56,249.93,217.61,258.7,763.31,213.45,265.11,168.57,320.09,123.76,155.61,180.3,261.64,166.57,224.96,646.59,252.75,283.14,234.84,167.27,190.71,289.94,534,184.28,217.36,181.32,176.49,184.76,176.95,161.48,221,177.4,220.14,634.64,202.78,199.17,186.05,151.14,166.44,203.75,197.78,162.91,194.49,213.6,540.81,191.71,193.3,162.12,351.18,505.82,316.5,139.84,192.96,215.92,268.77,278.63,323.24,747.59,215.79,205.93,576.44,142.43,275.62,415.41,251.5,154.12,204.97,222.07,166.91,675.12,311.7,328.92,555.99,148.65,159.1,3
6.3008,295.39,175.81,217.3,254.96,509.65,243.8,271.77,599.25,289.64,164.06,313.38,239.25,136.59,363.46,317.71,561.49,224.04,149.09,150.17,190.34,311.28,753.21,298.03,274.27,227.23,458.87,297.39,552.33,320.4,168.29,177.77,637.34,249.95,172.93,177.27,151.11,161.81,1343.4,588.6,267.6,260.8,338.69,1002.6,445.54,552.58,265.88,208.91,273.35,559.23,161.96,182.28,185.26,343.78,526.99,165.91,153.43,170.51,641.05,211.33,113.01,174.03,156.22,622.08,207.46,229.56,299.84,295.95,235.54,792.34,283.6,204.26,305.24,233.91,145.73,371.17,631.96,206.3,160.04,168.33,161.41,693.55,201.46,142.55,132.72,178.33,256.72,606.08,162.97,157.97,241.29,486.88,274.86,195.12,250.15,642.09,180.5,170.4,165.26,128.41,126.8,147.86,143.26,522.26,690.05,203.45,134.7,111.19,148.62,163.2,572.64,163.66,134.72,187.47,2
18.715,570.29,183.73,290.06,650.1,173.51,184.84,129.37,168.83,143.86,221.83,180.35,242.43,198.21,209.1,141.18,144.28,326.19,429.58,231.51,208.84,285.32,548.02,352.74,239.83,163.7,214.37,201.88,279.71,738.49,284.57,223.74,223.08,196.79,158.76,214.11,185.68,219.79,230.88,466.6,238.1,217.17,238.43,214.42,252.92,278.03,560.29,331.45,240.95,284.77,164.1,243.38,196.73,157.32,194.29,190.07,202.72,180.2,195.25,245.44,162.22,183.88,222.3,171.78,300.29,463.95,333.31,448.66,444.54,311.73,281.76,301.29,320.99,479.57,244.3,234.74,243.16,267.83,306.75,185.46,428.91,447.31,212.54,200.08,261.66,242.93,259.25,319.35,405.89,598.41,237.7,226,188.06,199.87,264.26,239.47,196.03,204.9,189.89,239.1,741.08,542.79,211.81,181.82,256.82,639.34,224.7,169.36,166.49,215.95,268.12,238.02,387.94,217.5,3
23.687,164.24,248.41,261.84,298.16,339.46,307.06,304.34,241.03,282.04,325.64,336.23,269.66,403.67,282.54,804.5,497.61,1884,566.17,76.573,83.189,630.94,942.78,1684.6,704.3,54.357,317.41,415.02,334.6,244.75,276.97,296.73,234.87,341.34,288.66,356.85,360.88,317.63,271.08,550.93,1202.1,1358.9,2089.6,652.79,440.16,664.98,397.99,232.43,211.32,1534.8,1147.1,51.308,99.718,209.66,362.23,355.3,297.45,568.6,446.46,1507.8,863.95,603.83,1827.9,791.5,88.042,196.42,194.48,331.87,338.2,354.39,1584.9,662.88,77.136,487.74,303.79,236.69,230.89,213.09,292.81,279.47,510.06,226.39,307.77,303.51,423.77,284.38,780.68,1178.5,827.13,138.44,217.6,347.83,298.95,279.09,242.82,212.21,245.47,196.94,219.14,229.26,289.67,179.93,220.05,265.25,223.6,243.59,353.71,1576.4,1603.8,122.09,84.224,238.15,204.8,209.47,4
2534.9,1102.3,426.09,802.07,1543.2,973.19,460.85,1892.3,426.09,2041.9,714.96,2262.3,901.23,2003.5,2450.9,1253.3,1892.3,976.96,1858.7,358,1999,723.49,546.2,1397.6,1809.4,2262.1,443.63,357.64,327.61,890.33,673.4,1203.5,2124.9,942.14,1894.8,1452.6,1821.9,436.7,457.83,410.69,273.28,350.34,647.62,1582.4,2049.7,998.03,251.33,292.28,251.25,252.49,285.87,353.38,427.16,307.66,372.32,782.29,1780.5,83.369,350.71,1304.6,2017,174.92,584.05,542.27,1961,1981,1563.2,189.45,411.54,474.66,303.1,405.13,283.4,502.71,448.3,425.89,584.92,713.89,1963.1,150.6,436.13,3737,148.66,556.29,1697.2,1452.5,1988.8,233.96,362.24,526.9,328.39,311.06,222.52,300.56,310.96,366.31,333.43,433.05,624.56,794.86,871.54,2066.9,127.43,781.3,542.94,315.4,341.88,250.96,476.89,1127.3,452.38,1557.3,1262.3,86.621,3
20.935,685.5,111.82,86.428,85.142,193.98,107.85,81.736,78.815,203.78,105.85,116.39,142.96,68.945,73.013,146.52,136.59,82.814,80.863,118.07,122.47,99.964,85.365,166.55,94.681,92.489,90.159,115.03,119.71,154.93,74.682,78.328,59.811,65.956,66.593,132.21,133.62,91.359,88.192,85.578,74.565,161.17,79.619,80.38,80.052,82.198,62.65,105.53,88.735,127.5,125.06,98.678,80.833,91.791,76.309,89.355,67.904,80.871,68.741,85.263,76.372,134.23,132.76,81.665,143.34,145.21,132.56,159.67,87.546,92.364,81.195,62.181,85.947,153.29,81.675,84.356,193.44,89.93,81.31,90.278,195.17,98.489,72.295,70.109,70.453,146.82,81.969,91.244,177.06,99.708,68.095,94.338,129.48,124.61,73.554,80.169,77.878,66.995,78.867,77.647,63.871,101.45,121.04,110.28,167.82,76.365,80.255,60.019,74.809,71.872,79.537,69.424,84.47,80.796,3
12.816,316.66,187.3,112.82,86.396,88.455,107.45,146.45,81.478,93.706,132.34,131.66,90.059,174.61,96.563,90.77,170.28,94.427,82.405,81.101,143.31,147.37,148.79,115.08,95.467,170.39,104.44,134.44,117.51,97.601,80.925,85.649,158.47,87.882,94.496,164.32,107.75,91.567,99.263,81.45,95.596,155.09,81.01,71.543,82.638,92.586,81.909,77.095,88.878,194.35,102.33,185.83,113.93,93.487,89.011,128.03,146.88,79.362,83.133,98.605,80.89,72.637,75.479,105.25,159.45,90.649,88.972,150.7,90.351,122.95,178.14,99.036,70.802,87.448,149.64,107.07,96.263,58.214,81.963,104.29,107.05,192.43,144.28,119.46,102.85,88.039,88.654,93.934,92.974,226.54,117.66,79.468,86.851,100.63,116.45,89.81,84.153,185.09,106.74,89.686,80.487,76.777,66.009,111.6,171.78,142.15,91.395,89.332,68.202,66.117,77.927,70.322,87.608,81.722,2
9.0165,143.98,166.12,88.632,82.118,76.623,78.456,85.271,175.34,149.67,93.692,173,183.83,113.04,71.812,71.461,71.413,77.524,78.826,77.317,97.186,188.36,106.66,174.45,100.05,103.84,73.276,135.53,122.1,67.155,100.13,69.026,155.07,86.838,89.331,87.28,200.65,114.45,92.3,140.08,168.25,68.698,61.676,88.362,186.97,72.779,107.95,145.06,76.492,79.797,97.339,70.078,83.183,113.47,153.47,102.19,63.039,75.858,81.954,158.54,134.73,69.452,89.823,81.895,93.862,183.15,109.72,65.587,82.717,67.575,172.85,90.803,68.069,67.204,70.88,59.968,70.889,97.176,150.08,77.183,61.526,58.55,111.68,147.21,90.856,91.224,82.569,183.53,105.57,93.346,75.403,62.522,70.145,71.581,106.57,152.44,85.387,73.713,79.439,142,111.37,126.03,85.647,78.212,76.599,191.44,103.8,66.868,95.382,71.207,72.018,90.492,74.034,220.17,4
4.4439,173,155.61,123.22,130.89,131.81,122.62,158.76,107.52,152.59,145.36,186.72,142.62,180.89,185.59,158.47,160.17,164.63,202.8,94.621,151.22,134.63,194.43,106.49,169.95,131.12,160.2,127.62,146.12,121.22,162.78,138.93,122.12,144.98,133.58,192.93,413.53,326.85,139.41,151.53,148.17,213.24,182.9,160.67,157.49,131.98,215.97,148.97,156.4,139.88,149.3,187.12,427.6,213.68,207.61,212.09,150.43,174.46,165.68,164.23,190.9,139.19,191.17,121.54,146.68,195.54,177.86,161.66,170.93,312.41,196.9,216.18,165.2,172.65,184.83,176.34,187.39,149.39,186.89,150.93,135.95,169.68,112.17,160.37,263.3,314.49,186.08,138.47,188.46,126.57,155.17,129.89,129.01,162.98,172.2,402.54,141.57,117.6,183.32,135.89,191.97,161.96,170.21,167.52,157.09,185.63,415.93,202.63,158.98,177.14,167.98,154.14,178.26,382.28,3
8.6621,268.53,100.56,143.09,104.68,179.16,156.41,158.65,362.85,240.51,147.51,140.12,124.11,111.23,166.73,244.64,137.03,169.85,176.89,118.56,165.04,126.4,179.37,114.38,157.73,122.63,226.16,152.01,218.63,155.04,159.51,369.42,162.55,122.81,154.03,162.8,230.11,170.97,120.29,133.01,135.71,159.6,105.58,158.93,110.99,171.47,111.09,165.57,153.68,215.26,122.67,117.1,101.65,165.38,151.17,107.58,148.68,153.97,139.67,164.87,362.49,119.76,146.41,128.31,170.82,131.11,131.93,145.04,116.23,145.94,127.32,160.5,328.32,132.96,173.33,164.13,139.63,184.11,187.2,153.53,196.67,154.46,144.67,147.07,210.5,551.26,366.91,193.45,127.77,127.61,152.69,233.13,156.35,109.31,151.87,139.6,194.84,179.64,216.5,117.19,147.43,254.47,111.59,151.28,127.64,145.59,193.75,229.69,116.1,142.25,104.14,142.88,131.01,332.46,1
4.0482,152.98,113.94,131.76,163.98,147.48,136.84,173.26,173.13,291.83,139.53,108.04,246.72,270.49,148.42,197.91,104.22,128.66,127.75,154.02,146.96,146.58,141.04,148.32,173.4,100.26,176.26,114.92,134.83,94.743,126.24,159.34,112.02,197.55,134.21,163.01,230,135.89,152.06,131.77,176.87,168.11,317.15,152.59,156.59,160.93,128.32,140.07,135.29,190.73,169.15,127.01,121.37,175.08,239.07,141.26,153.69,192.75,194.15,118.64,147.11,132.57,179.15,194.36,193.18,125.38,141.11,156.91,151,192.4,107.34,206.18,162.83,146.34,137.41,179.54,233.36,263.18,180.46,421.78,292.89,270.34,153,152.76,142.23,214.68,531.75,223.22,183.59,242.1,509.79,504.87,475.22,471.9,313.1,139.6,158.01,214.41,210.95,254.07,209.65,126.47,133.99,115.65,128.67,158.15,137.47,114.55,148.52,141.73,116.29,203.68,952.5,217.18,3
10.968,208.44,338.89,748.36,713.41,237.02,135.12,628.28,262.33,162.35,127.15,845.85,175.21,214.99,547.68,165.42,574,201.19,215.2,136.63,102.36,485.25,315.84,118.32,291.47,463.86,146.06,717.78,201.48,161.32,695.89,124.26,94.039,111.62,143.06,137.38,153,616.86,154.02,136,348.3,678.56,136.92,130.07,134,129.09,127.25,144.11,172.77,204.08,160.79,177.55,254.12,574.2,1843.5,573.69,191.51,533.31,242.83,162.13,591.87,200.77,126.09,159.76,220.44,391.46,326.81,138,115.71,257.4,528.68,307.49,279.16,168.76,172.23,588.82,406.8,229.45,146.73,147.71,260.04,392.78,540.08,329.16,121.09,180.64,381.93,371.68,141.35,169.81,633.11,172.53,197.45,347.14,378.16,131.5,152.09,473.98,225.66,106.61,114.88,115.81,275.95,369.77,125.87,99.308,106.98,382.16,310.1,126.06,89.262,102.58,107.61,355.86,3
11.873,288.26,193.44,156.42,168.62,109.49,102.08,175.53,265.28,555.45,190.76,133.77,127.51,128.24,137.39,198.68,246,164.34,209.63,443.1,693.79,147.62,131.49,310.61,456.17,120.03,198.29,144.64,122.91,130.67,496.37,245.1,173.08,166.12,187.74,238.32,276.88,104.6,99.294,112.65,95.666,105.71,200.77,134.97,114.82,99.072,79.596,189.97,155.14,130.82,244.76,587.34,166.06,181.07,229.09,98.443,119.47,110.85,151.57,227.3,174.22,112.77,97.226,141.3,153.7,210.03,447.82,150.83,573.2,200.81,179.16,183.28,230.14,195.29,116.65,156.72,119.83,91.998,95.862,105.59,147.1,169.58,171.39,92.615,80.249,255.12,235.56,155.05,132.39,370.62,652.1,155.48,142.49,102.48,156.25,198.58,222.51,179.41,314.69,528.8,125.88,116.24,114.87,113.35,197.82,192.91,129.88,170.92,132.64,335.05,141.85,543.98,138.31,274.21,1
4.0463,140.59,100.99,166.5,101.28,198.84,267.76,348.59,149.37,128.37,170.16,120.92,119.27,94.777,96.752,87.044,122.79,113.97,97.439,155.01,549.52,673.29,284.29,119.48,106.18,96.498,156.14,113.71,118.69,299.25,588.88,230.76,168.25,235.52,576.57,176.97,122.39,183.73,208,420.17,172.18,137.6,84.47,189.61,107.41,127.19,151.15,183.93,127.99,213.42,157.2,168.95,145.52,183.31,237.77,181.15,126.78,173.15,246.44,186.32,267.69,120.37,149.45,138.14,130.09,129.52,114.5,116.28,92.268,178.18,131.48,113.61,294.71,660.73,243.35,200.87,163.06,147.31,146.5,191.16,226.36,96.316,101.72,116.91,106.78,225.68,92.309,115.3,217.42,559.63,235.46,131.17,76.375,174.88,111.53,154.91,452.06,229.34,201.86,139.43,223.45,199.51,454.27,110.98,155.94,183.7,170.33,275.31,310.84,149.08,110.99,132.04,142.85,390.62,4
27.231,775.8,161.81,173.41,123.02,216.56,376.13,361.9,129.24,207.84,168.1,232.59,189.24,370.8,442.59,211.92,139.99,178.12,147.57,145.23,185.67,299.91,207.91,199.97,245,596.46,172.1,173.41,187.11,545.98,176.38,202.65,313.26,332.84,145.08,170.29,153.94,150.84,129.6,162.57,121.85,170.97,207.67,196.54,158.73,431.54,190.6,224.36,237.63,205.03,150.69,131.58,162.33,218.96,149.89,166.04,169.1,168.9,107.32,172.86,154.23,159.99,142.04,164.05,176.09,131.24,143.02,183.18,449,216.13,198.99,186.9,176.09,177.53,122.83,252.41,154.83,128.55,120.04,374.71,240.87,164.67,159.35,171.13,177,170.72,183.04,183.75,167.75,170.41,108.5,178.91,147.75,163.62,130.39,170.06,164.43,139.22,234.62,154.96,104.99,117.81,119.17,175.76,577.36,177.82,138.17,597.37,179.59,154.86,153.4,197.92,167.53,215.39,3
17.822,385.76,202.5,176.73,122.93,200.18,390.83,185.65,143.49,174.51,185.55,231.96,443.89,165.98,135.18,172.8,141.61,153.3,164.72,167.48,155.01,144.9,164.07,154.24,121.96,168.9,186.32,150.36,161.97,534.84,243.54,205.5,171.39,142.2,149.53,191.71,278.21,258.93,153.64,175.4,137.88,148.78,159.56,146.99,202.51,153.64,132.27,155.95,172.48,197.59,168.16,141.89,187.9,236.65,176.16,163.58,147.06,169.62,130.56,176.85,510.98,227.62,187.05,200.2,151.49,242.88,183.47,202.56,138.46,122.57,163.7,174.9,127.43,162.36,172.11,173.79,147.55,168.17,204.49,181.42,128.65,141.57,148.43,198.74,365.49,153.01,180.89,247.36,173.97,535.68,267.85,190.14,141.73,135.45,123.19,133.05,182.81,168.91,151.45,145.98,182.72,190.02,131.33,133.93,171.68,188.57,129.15,180.03,128.41,196.09,166.2,155.12,154.64,200.97,2
9.1779,331.13,124.13,120.54,174.61,198,165.33,508.23,211.48,165.26,152.49,172.05,192.26,333.28,381.39,143.48,148.35,169.16,144.23,143.99,149.31,178.22,159.61,227.94,444.12,209,637.03,259.31,138.61,131.16,168.2,540.17,187.04,488.13,302.02,165.43,421.8,466.14,160.76,146.56,148.8,204.74,601.83,210.73,156.73,121.99,137.12,140.92,171.34,183.11,558.3,165.34,124.29,151.3,153.66,129.51,112.35,149.75,156.69,520,312.88,160.86,310.06,523.15,144.78,172.17,148.77,169.36,191.21,286.38,397.19,157.6,129.53,146.67,443.52,508.85,160.14,139.61,146.28,260.11,503.81,202.34,595.51,200.35,137.5,139.68,166.8,173.89,185.8,561.71,323.33,174.12,141.54,162.77,187.82,139.04,511.05,182.23,150.94,155.62,149.49,171.47,468.83,293.03,205.52,198.91,162.25,578.53,213.95,135.69,120.48,148.48,163.77,131.43,1
10.924,305.11,146.93,173.17,192.08,164.25,379.15,266.94,201.47,193.75,198.21,503.86,315.02,484.07,424.63,169.08,682.47,1023.9,1019.1,1116.5,930.61,669.02,351.96,728.14,481.01,852.91,854.25,362.82,276.23,653.34,301.91,199.4,229.85,369.66,510.4,219.05,344.71,424.51,365.13,486.31,422.99,286.28,281.3,237.52,248.28,425.97,278.61,201,236.13,319.8,621.97,206.66,421.55,324.71,247.49,223.26,224.37,312.17,466.8,385.48,484.3,279.01,215.42,236.17,195.63,499.52,525.36,238.79,217.5,422.54,262.48,175,201.31,213.18,126.85,428.83,333.08,193.1,171.36,419.99,281.92,166.95,175.48,127.99,233.86,411.32,173.42,145.72,188.49,180.05,348.99,326.74,185.67,188.71,248.57,389.56,277.11,282.07,252.89,226.82,254.48,315.63,288.44,254.86,260.83,146.74,135.79,207.42,207.57,202.98,545.82,367.19,207.43,196.21,1
11.789,320.58,172.61,203.71,203.97,358.94,197.98,396.18,182.29,128.58,139.24,154.45,174.36,465.46,211.63,168.28,183.8,148.15,174.74,230.23,201.19,203.56,218.37,364.37,307.12,265.3,249.57,209.73,190.04,225.51,253.23,189.42,175.26,218.16,183.8,180.84,201.5,159.35,169.2,222.3,249.5,233.28,211.95,242.4,263.52,326.02,344.72,163.42,153.81,294.21,325.73,410.95,176.88,179.32,174.75,192.49,170.14,119.74,178.96,207.21,161.05,189.54,131.92,215.78,524.2,168.84,334.81,289.07,219.09,171.15,452.65,156.03,175.14,162.23,117.79,380.99,170.47,163.88,398.61,169.78,169.53,246.13,182.94,271.91,407.01,202.81,207.47,150.92,182.57,582.15,187.04,139.45,188.02,245.19,225.3,176.64,185.08,224.98,122.76,145.45,183.57,111.54,132.19,151.03,180.39,137.97,127.64,185.09,204.81,186.95,146.25,233.56,167.38,162.57,3
12.331,346.53,165.21,110.89,190.89,564.71,161.73,147.29,183.39,128.39,212.2,181.88,352.53,415.95,134.09,146.03,190.98,194.65,230.14,314.51,254.96,558.23,193.25,126.47,141.11,111.68,157.61,215.25,228.29,182.66,326.39,387.33,278.75,175.92,178.63,363.65,147.74,124.1,371.7,271.03,180.7,125.23,102.96,177.92,192.48,124.14,201.54,417.12,169.04,533.36,138.75,185.8,175.2,140.58,138.52,151.68,132.52,170.29,127.26,130.37,118.4,165.7,134.08,115.79,134.64,165.95,136.73,234.79,338.55,154.58,167.17,133.33,147.05,123.55,119.51,117.93,103.15,107.2,196.82,475.26,214.83,160.52,112.06,394.65,204.71,147.8,112.54,124.29,144.09,153.8,151.37,359.67,367.19,269.72,164.61,152.82,149.98,141.46,166.1,173.12,455.75,165.65,202.51,137.43,132.63,130.09,135.3,514.52,219.33,174.87,109.88,121.39,126.66,152.79,3
6.9307,193.46,103.29,138.13,115.35,135.77,134.07,566.52,171.17,173.61,100.71,210.32,120.79,159.93,102.34,116.67,103.39,117.53,134.05,242.65,451.51,444.44,258.11,161.65,112.8,408.71,270.72,183.65,99.759,123.08,100.87,148.83,113.35,153.44,428.92,159.11,108.82,148.96,112.73,111.47,109.94,121.09,103.85,140.5,147.24,464.8,138.85,111.94,111.57,144.47,137.04,112.99,104.23,122.39,161.49,348.64,279.38,314.52,312.2,127.52,237.04,445.16,201.21,121.04,88.903,134.06,156.37,116.43,99.745,118.13,136.33,141.12,95.774,141.45,151.3,130.3,120.47,145.82,560.84,444.69,133.33,146.07,142.42,173.84,475.5,176.92,177.88,169.06,116.09,166.61,110.14,117.34,131.19,107.7,383.96,185.86,129.93,123.96,165.85,121.09,122.81,159.56,459.9,128.18,118.69,110.7,102.92,112.93,93.906,116.98,136.93,121.83,92.466,109.8,3
9.4855,238.01,112.86,113.61,228.52,120.96,112.74,117.53,111.21,164.31,220.44,130.76,115.48,139.6,165.99,101.22,117.5,157.04,439.1,119.18,144.24,178.02,148.14,180.14,180.83,408.09,137.09,103.59,81.712,96.903,115.16,112.38,327.13,323.17,130.77,123.06,131.34,116.39,139.82,121.99,125.35,85.963,140.78,117.43,138.07,268.09,398.61,150.89,120.39,93.17,130.41,121.74,100.32,96.153,80.892,200.84,201.32,412.39,136.06,96.254,128.05,99.406,99.048,96.99,134,236.29,234.85,146.36,138.04,114.33,262.45,256.76,93.655,101,126.17,114.54,147.63,321.66,175.81,157.95,95.51,246.85,201.77,143.41,148.77,121.86,390.97,189.16,99.983,114.99,91.411,101.75,114.54,109.8,102.27,204.8,280.13,126.3,124.52,147.89,367.67,147.43,396.57,178.6,156.97,165.65,140.93,139.57,134.87,121.68,259.48,173.68,104.23,145.52,1
5.6863,140.49,89.534,106.96,129.24,96.475,183.87,181.36,121.4,144.5,492.31,177.44,606.26,632.16,235.72,232.25,240.19,108.61,141.27,323.85,216.55,147.3,172.96,89.949,133.66,95.566,130.42,112.94,123.81,109.15,145.04,211.86,125.61,165.96,137.62,125.15,205.44,145.82,122.68,100.12,102.26,147.36,156.34,125.87,141.07,93.798,115.1,125.02,114,118.77,73.3,137.6,102.9,154.54,514.95,208.69,149.21,470.58,167.94,109.31,104,109.2,118.97,118.35,100.02,116.08,89.539,124.35,118.36,109.72,98.325,94.533,130.55,305.74,169.89,114.24,120.07,135.18,91.878,102.61,111.7,102.49,128.5,115.46,112.81,143.82,314.04,274.56,152.59,86.933,107.63,386.72,153.44,100.39,69.763,103.83,104.39,106.38,90.325,143.78,327.45,338.01,406.33,116.45,85.733,104.92,107.46,103.26,105.26,114.74,108.05,95.693,103.72,92.607,3
19.803,607.83,122.6,147.34,152.64,165.96,184.13,125.51,157.24,150.32,155.15,196.06,135.9,164.84,463.61,206.71,129.63,146.96,108.35,155.9,124.24,192.37,198.38,159.81,117.54,125.5,164.09,123.31,143.92,188.28,182.17,142.93,174.63,156.9,116.79,126.35,128.14,133.39,147.38,138.1,139.95,134.12,124.58,154.27,142.79,122.19,174.51,175.64,120.11,122.1,156.05,105.09,174.49,230.19,100.08,139.57,143.1,210.13,136.9,164.4,168.61,171.34,128.21,156.38,194.89,215.89,143.95,113.04,202.46,237.26,216.5,144.27,181.13,194.8,159.42,131.32,223.51,157.03,127.35,135.77,156.21,260.26,182.18,151.93,147.6,303.41,195.95,145.31,180.64,157.42,186,225.39,133.24,143.75,250.19,154.64,160.16,162.42,184.77,189.81,255.47,163.6,192.83,208.98,162.35,188.05,237.47,443.51,143.65,179.33,139.54,122.59,132.36,179.23,3
16.325,424.78,187.39,146.09,173.72,310.3,609.66,213.89,245.02,148.16,149.79,170.98,138.13,161.58,208.19,168.06,300.46,170.37,133.4,130.47,311.74,324.1,190.62,130.4,126.16,182.94,210.34,170.43,154.02,144.79,132.62,266.63,182.46,169.91,167.97,163.96,164.02,142.67,176.96,189.18,126.78,281.47,171.24,236.94,161.75,176.29,252.25,427.75,168.14,230.78,270.77,151.95,151.38,140.7,227.76,153.26,284.47,175.01,132.83,131.04,238.34,199.66,156.83,165.89,298.45,197.26,130.04,158.44,173.48,187.58,142.17,205.14,159.97,288.02,523.97,319.74,232.66,270.54,140.1,130.24,218.65,170.42,283.8,134.93,151.09,178.17,280.75,232.67,194.66,182.45,208.08,144.06,160.76,263.92,312.92,569.9,119.46,156.56,166.11,399.46,694.29,153.61,163.94,162.17,190.6,191.88,217.05,564.35,616.08,144.3,140.43,129.39,157.01,203.92,3
6.3604,182.95,233.65,318.2,198.25,210.66,229.98,258.87,208.56,178.51,444.25,261.07,261.71,192.8,169.97,224.65,142.69,158.28,152.25,206.63,153.82,203.83,192.23,275.1,532.95,306.63,155.72,102.11,129.85,130.9,222.2,165.37,140.8,227.01,527.74,435.09,239.7,235.32,185.58,167.71,168.68,135.21,113.87,221.61,435.8,236.86,2307.4,423.1,182.99,127.18,138.62,154.02,337.31,307.41,251.16,352.64,207.4,227.67,243.85,322.31,211.85,430.25,293.49,339.02,330.02,212.54,188.51,132.77,124.25,148.98,126.4,246.82,339.45,131.77,331.1,400.8,370.06,256.44,196.79,191.06,184.68,292.19,235.21,163.58,132.24,121.43,135.89,145.76,212.35,146.01,192.33,470.41,211.3,270.24,189.08,179.77,200.28,146,135.59,144.88,131.95,140.71,138.61,160.01,121.39,157.36,191.32,194.23,161.66,142.45,172.54,740.47,292.43,166.89,4
18.843,504.98,96.1,138.55,106.03,132.78,179.43,553.42,105.82,138.66,479.16,335.56,108.5,125.54,96.755,113.98,126.84,123.94,91.893,131.79,97.632,128.36,104.42,110.5,78.234,120.72,107.65,85.208,89.106,124.79,107.47,108.71,129.69,151.07,102.07,159.49,131.6,116.38,126.72,120.93,99.087,124.29,137.41,105.04,124.17,157.72,92.516,87.899,148.13,151.87,124.42,109.07,89.729,90.545,107.45,112.84,76.255,111.79,144.42,103.81,95.323,121.59,116.2,136.76,110.08,125.27,93.981,139.78,135.95,154.63,111.86,113.99,98.724,122.37,159.75,111.42,113.08,111.18,101.92,103.55,133.3,100.53,86.028,107.88,165.28,119.47,102.41,129.87,89.12,85.175,119.42,133.32,100.47,138.9,95.226,116.74,86.231,106.26,94.467,100.84,91.369,108.32,90.59,111.74,110.91,111.34,136.5,109.54,120.27,110.57,133.79,126.13,231.54,650.06,1
6.1393,120.88,137.6,174.18,153.73,164.49,168.67,168.12,395.17,614.1,553.99,220.41,127.74,127.74,110.95,104.03,142.59,189.05,95.286,128.64,121.94,235.4,147.59,137.78,122.28,139.17,166.08,194.1,140.13,106.13,97.193,147.21,364.72,312.42,136.79,140.65,119.73,127.17,276.91,398.99,188.12,355.65,144.79,106.77,102.24,160.96,158.86,91.435,107.39,111.46,129.19,149.16,129.95,172.4,139.87,350.7,416.97,184.18,259.14,303.47,429.01,559.93,447.84,988.37,704.4,302.21,228.87,192.76,172.6,467.11,362.42,143.41,144.45,172.57,125.39,160.88,187.14,205.2,224.73,427.72,358.17,206.05,279.21,492.82,362.59,220.77,632.95,216.85,166.46,140.8,150.62,154.07,93.979,146.67,135,135.36,142.48,155.8,155.69,571.12,307.28,133.99,130.83,113.6,147.49,189.55,145.46,149.19,145.45,137.53,127.2,150.94,123.82,215.35,4
22.402,306.71,574.34,187.52,103.68,133.2,95.822,298.66,377.33,138.64,100.52,117.11,100.92,143.15,131.88,99.58,80.708,102.63,172.4,163.92,152.77,154.5,155.9,114.15,115.66,122.45,119.74,117.34,128.59,142.2,155.86,163.45,132.41,118.86,101.03,114.34,121.31,121.47,79.799,126.1,146.9,150.23,106.91,121.12,104.24,165.24,105.11,140.79,126.32,98.854,109.57,81.931,116.37,115.75,119.7,116.15,126.71,139.72,85.779,120.78,111.92,382.57,172.91,130.77,137.35,130.74,109.54,93.142,128.67,434.11,162.84,160.45,161.55,380.77,201.56,145.95,101.79,111.75,119.11,100.09,86.652,105.18,105.57,279.2,448.06,341.22,320.76,442.26,162.9,116.83,108.52,106.55,143.74,99.874,145.45,109.66,110.97,114.72,115.61,125.68,156.56,536,112.66,110.87,135.96,122.84,95.824,83.664,136.71,381.36,271.28,137.67,118.68,135.06,3
19.279,496.47,272.97,245.37,228.23,268.17,225.28,313.77,225.73,196.36,319.51,372.59,251.14,314.68,221.86,232.45,200.74,242.54,241.68,408.17,272.53,224.81,196.16,285.47,276.26,228.62,241.98,190.32,154.39,184.92,182.52,517.88,239.12,199.2,282.54,301.28,133.52,301.02,299.39,210.17,524.3,366.52,349.02,367.24,442.17,326.75,373.52,428.59,334.37,502.38,261.68,372.55,374.14,311.5,361.73,318.07,483.42,495.52,319.56,171.83,546.3,384.61,235.54,245.35,391.73,264.89,215.34,410.12,243.57,284.05,203.03,215.04,389.81,338.39,442.72,480.62,389.4,541.42,233.7,247.01,155.72,135.96,150.81,187.54,239.57,565.9,253.57,384.11,552.61,206.77,174.52,423.74,159.12,177.26,185.07,167.41,410.24,359.56,385.36,559.04,256.87,327.31,370.77,243.87,212.68,166.21,125.05,339.07,369.92,146.93,509.85,144.38,281.28,397.57,3
4.3387,138.13,109.12,118.53,110.07,149.32,182.88,168.14,98.631,84.994,170.82,271.88,138.53,143.84,155.67,137.86,146.69,106.58,127.48,108.44,128.55,120.61,157.36,112.98,91.919,92.93,86.793,113.23,133.54,189.73,312.84,137.23,113.34,122.28,134.5,122.87,126.62,129.82,159.28,132.58,116.25,130.19,98.04,118.7,88.682,108.93,109.57,98.443,100.51,133.87,150.62,116.34,142.45,129.17,114.87,136.16,262.34,168.77,133.73,141.28,110.17,119.38,124.42,121.29,187.08,232.42,137.54,115.29,104.75,109.75,113.36,102.79,116.95,116.56,189.67,99.55,81.361,85.803,134.07,97.856,111.39,119.12,107.6,158.86,190.9,139.27,119.31,101.8,98.912,171,171.87,211.01,182.39,127.95,104,131.91,154.32,134.75,119.13,136.44,132.42,134.17,214.22,121.14,90.773,135,109.08,99.026,107.46,138.05,148.79,154.93,151.44,117.26,4
6.865,182.91,113.82,105.19,142.44,109.92,103.38,99.679,96.44,136.74,169.63,107.89,123.08,124.15,102.78,151.21,112.82,97.758,98.129,126.24,81.26,96.935,113.91,114.61,129.42,118.53,121.77,116.06,305.66,145.6,115.11,83.728,114.12,104.38,115.94,116.29,135.44,137.77,132.66,123.47,120.41,144.25,109.42,109.02,116.73,108.85,134.43,117.96,105.08,83.014,107.48,142.72,134.89,98.595,126.13,112.75,107.87,111.56,93.788,103.32,128.61,123.36,100.07,144.2,144.87,714.81,1006.7,170.26,119.35,161.61,216.03,171.07,472.78,141.03,135.86,117.3,103.5,102.87,121.37,105.78,91.021,104.83,105.7,108.67,110.82,94.995,114.04,115.48,183.38,147.97,101.08,108.76,107,108.07,86.267,106.34,103.76,104.02,129.57,84.653,105.78,103.49,93.6,89.593,104.46,110.08,100.14,114.67,115.35,94.521,115.24,109.85,107.96,107.36,4
15.594,108.13,117.54,164.93,121.51,117.58,107.27,114.55,81.692,100.82,107.82,151.9,133.78,125.67,97.062,130.24,93.165,123.73,75.024,91.738,97.359,144.67,83.523,117.98,127.19,129.29,89.556,110.98,164.51,203.71,96.581,120.66,97.789,109.27,135.15,393.89,201.39,151.55,99.611,122.1,113.67,109.75,96.76,106.26,72.396,129.8,96.038,126.69,123.78,107.03,82.112,108.27,93.048,107.64,74.91,94.287,81.046,112.28,100.52,103.73,99.884,95.683,100.57,82.767,89.316,105.78,117.47,92.675,64.546,90.81,80.927,114.16,124.27,111.1,91.196,79.18,102.43,144.59,96.606,105.9,96.248,135.6,88.649,128.42,176.4,199.88,344.52,102.65,71.121,104.91,135.53,99.006,163.17,145.68,113.96,97.075,106.86,88.939,90.044,102.36,86.247,129.59,185.45,112.61,99.637,171.08,98.359,146.7,348.74,132.85,89.137,97.275,106.14,104.64,3
11.759,266.5,79.912,112.86,108.49,141.38,128.65,135.28,145.09,111.76,98.307,128.53,82.137,95.114,93.614,97.793,126.08,106.65,109.91,121.26,100.2,97.623,123.56,95.165,81.049,75.252,83.3,108.57,98.003,121.4,111.44,79.03,99.128,74.339,81.347,113.34,102.55,121.09,78.606,100.9,83.692,102.99,87.291,111.21,95.143,165.61,81.233,91.829,87.052,97.478,120.05,75.941,70.146,97.969,94.162,85.951,101.87,92.37,107.83,90.114,99.757,119.84,117.14,69.001,87.818,106.64,83.172,99.995,112.39,89.162,99.439,92.79,87.956,100.56,81.173,98.129,89.489,108.48,84.73,90.084,90.623,78.306,69.573,75.593,102.6,86.037,124.6,124.15,309.71,202.72,125.85,108.76,120.01,114.51,122.16,76.439,125.46,93.006,100.81,98.039,86.244,98.366,107.84,107.47,129.84,185.93,283.22,140,96.833,86.146,107.56,81.811,101.36,98.243,3
6.2788,128.63,104.4,95.024,75.719,89.281,78.641,170.7,120.12,97.321,110.85,84.912,141.87,122.68,108.55,122.61,82.169,100.59,92.741,111.78,95.197,102.51,77.095,115.26,94.347,210.9,131.6,114.74,119.93,77.145,92.912,103.65,95.817,103.58,109.59,86.623,102.41,112.47,124.68,100.71,134.33,119.39,116.65,105.13,107.83,91.336,93.084,100.53,88.304,137.14,87.85,85.769,95.593,83.867,93.927,114.61,120.19,130.7,102.58,112.05,91.007,107.43,103.46,195.84,162.2,150.88,257.61,120.84,110.91,146.81,261.94,223.46,122.66,145.26,98.361,98.485,99.886,87.576,97.435,115.74,103.07,108.13,87.447,92.308,104.21,103.27,95.92,95.303,89.406,94.094,102.9,134.04,91.393,101.72,150.19,83.569,83.229,78.746,111.63,99.235,84.653,74.513,136.21,72.496,95.845,139.1,81.509,125.52,146.18,102.66,89.876,120.93,132.71,85.57,4
56.306,1066,233.54,649.61,512.61,268.83,177.47,262.78,110.54,213.35,114.66,235.58,110.28,216.83,136.1,207.46,120.05,250.59,122.89,212.39,177.98,260.79,219.62,246.26,277.36,263.78,143.27,254.37,126.65,203.49,115.61,198.5,122.98,214.29,110.34,211.91,134.46,196.63,114.33,219.03,112.13,220.81,141.91,177.19,102.87,222.19,126.33,178.15,94.713,193.11,105.91,177.11,122.68,174.35,306.66,206.22,118.38,190.59,138.95,236.53,95.815,161.28,118.1,244.76,195.46,240.01,124.7,232.18,129.31,177.14,120.92,370.55,209.31,191.91,133.18,343.74,412.7,240.28,101.75,204.94,116.54,211.28,95.319,148.64,123.96,187.63,101.53,189.66,141.43,257.11,290.18,170.25,103.68,193.65,317.72,211.6,103.93,143.7,101.61,197.54,110.31,190.94,170.23,321.92,385.92,225.55,109.15,185.91,96.94,154.53,108.45,173.89,110.06,166.25,4
16.681,530.65,118,224.04,127.26,186.06,96.616,203.84,97.774,175.7,95.18,183.84,109.21,258.34,451.7,309.48,217.93,367.61,263.56,409.43,599.75,360.54,113.8,165.08,92.961,248.39,103.27,194.69,103.29,199.16,219.47,461.38,137.34,194.57,93.854,205.68,91.835,167.9,86.748,171.8,112.41,170.39,93.663,189.11,107.72,187.88,86.884,209.6,74.883,162.37,100.06,187.47,107.63,137.33,81.119,200.49,106.12,131.01,100.45,192.7,109.41,168.18,110.71,309.66,191.3,165.48,94.204,158.67,84.14,177.9,133.31,311.55,119.8,179.67,107.3,148.42,92.246,176.47,112.36,143.14,100.06,158.88,116.26,371.92,126.01,156.36,102.61,154.99,132.23,222.66,90.201,171.42,158.67,181.14,95.939,125.35,114.17,472.42,1684.1,186.19,109.57,159.01,88.569,150.64,94.097,157.6,102.89,152.47,74.33,154.75,95.589,134.47,90.927,184.63,3
19.567,594.84,100.53,130.18,89.754,169.17,283.97,125.6,101.62,144.21,102.34,152.81,127.88,312.46,85.757,154.93,99.106,184.7,119.33,160.26,323.36,179.26,95.756,120.46,126.99,155.63,164.57,127.75,166.6,128.47,168.85,253.23,90.697,190.1,88.089,87.209,69.131,353.76,122.46,111.92,87.93,357.82,111.8,343.44,145.01,152.6,89.869,196.84,277.74,160.48,115.83,189.07,90.412,127.1,83.209,102.09,87.493,143.36,94.768,223.93,239.83,170.58,340.21,631.3,257.38,196.27,389.09,185.3,163.37,285.94,665.77,921.52,204.49,187.23,135.62,126.7,100.12,154.24,357.03,248.62,109.88,183.19,104.67,132.41,107.07,122.19,266.25,160.66,106.32,128.79,141.05,263.35,276.28,123.91,124.97,159.73,250.62,139.56,127.2,174.57,117.45,145.11,287.2,187.82,107.11,352.74,333.88,270.49,132.14,137.23,62.749,180.86,89.827,110.21,4
