2.1485,1.644,1.452,1.5304,1.7225,1.6484,1.5079,1.3394,1.4309,1.7537,1.6962,1.6909,1.9398,2.1331,2.401,2.0808,1.8956,1.8618,2.3254,2.2694,2.2365,3.5023,2.6652,2.5913,2.2874,1.9443,1.7849,1.8145,2.0393,2.1063,1.997,2.0932,1.9068,1.8812,2.2423,2.4203,2.3543,2.3762,2.5146,2.3723,1.9545,1.8806,2.0025,2.1525,2.5044,3.0371,2.5101,2.1687,2.0294,1.8931,1.9218,2.0496,2.0732,2.3013,2.9996,3.5204,2.8998,2.3809,2.2,1.9051,1.768,1.9039,2.0802,2.0886,2.0079,1.8907,1.8235,2.0749,2.4835,2.2245,2.2515,2.2659,2.3772,2.2641,2.1498,1.9361,1.8957,1.9296,1.6569,1.7387,2.1282,1.7801,1.6546,1.6974,1.6254,1.607,1.7718,2.1281,2.483,2.4802,2.1796,2.0894,2.5343,2.0113,1.944,2.1124,2.4606,3.2726,3.1696,3.5859,3.0763,3.1208,3.4712,3.9808,3.3608,3.1517,3.0746,2.8754,2.7487,3.0265,3.1001,2.7045,2.5171,2.5358,2.7616
2.0568,1.2187,0.81237,1.2337,1.5783,1.4694,1.2664,0.84609,0.88763,1.4775,1.5916,1.1859,2.0574,1.2949,1.2423,2.1031,1.43,1.3643,1.6943,1.4398,1.6321,2.1289,2.2406,1.8723,1.5448,1.5997,1.2392,1.437,1.8973,2.1094,1.5714,1.8792,1.3808,1.3826,2.0014,1.9625,2.2952,2.145,1.9735,1.5738,1.3499,1.4215,1.7873,1.6754,1.9311,2.4687,2.2516,1.6328,1.8323,1.4287,1.5241,1.7786,1.7001,1.7565,1.8918,2.1901,2.2623,1.8506,1.9505,1.6248,1.2324,1.6967,1.9613,1.8717,1.7113,1.747,1.2326,1.1982,1.4091,2.7576,2.0965,1.9514,2.1808,2.0001,1.7734,1.5126,1.3642,1.5896,1.0963,1.4426,1.997,1.2392,1.2293,1.4386,1.3075,1.0869,1.4342,1.9088,2.0617,2.1111,1.8043,1.3693,1.3587,1.319,1.5661,1.5004,1.7474,2.2691,2.5855,3.9518,2.4919,2.6007,2.6818,2.724,2.6874,2.3982,2.8066,2.1316,2.1944,2.3956,2.6385,2.3519,2.0564,2.1089,2.3412
2.609,1.2314,0.71436,1.3541,1.7159,1.708,1.2915,0.8681,0.7074,1.0597,1.3277,1.1551,1.6327,1.0616,0.94824,1.4462,1.5558,1.4151,1.5942,1.1277,1.5893,2.2825,1.8285,1.6359,1.4949,1.8117,1.2743,1.5699,2.0699,1.951,1.5627,1.8192,1.2358,1.4391,2.4807,1.6142,1.6441,2.1157,2.2339,1.4183,1.6098,1.555,1.9975,1.6407,1.9237,2.1946,2.6951,1.5641,2.1296,1.3746,1.4611,1.781,1.8098,1.7545,1.6143,1.9496,1.7405,1.5892,1.6689,1.5461,1.19,2.3646,2.1432,2.3191,1.7888,2.0684,1.1619,1.1106,1.125,1.7687,2.2013,2.0429,2.0765,2.0921,1.5524,1.444,1.1903,1.5466,0.99258,1.7287,1.8193,1.1217,1.3456,1.7116,1.7795,1.0156,1.61,1.9673,2.1016,2.0502,2.3544,1.2166,1.4234,1.2166,2.3229,1.5384,1.5788,2.2481,2.6047,2.6948,2.3104,2.318,2.2908,2.1824,2.3694,2.2368,2.1614,1.891,2.2192,2.1521,2.7106,2.2015,2.299,2.692,2.3143
3.5001,1.504,0.92203,1.9875,1.7885,1.4295,1.1438,1.536,1.0508,1.3622,1.3472,1.1759,2.0059,1.4024,1.2314,1.631,1.6999,2.2137,1.2092,1.2838,1.8734,2.1355,1.7472,2.0469,2.1766,1.4329,1.5422,1.701,2.9863,1.5708,1.9445,2.2142,1.4417,1.5843,1.8665,1.8442,1.4981,2.4176,2.6107,1.6417,1.7135,1.8007,1.877,1.6633,2.0805,2.2337,2.8288,1.6976,2.1227,1.4396,1.5598,1.7649,1.9256,1.7607,2.2006,2.033,2.3126,1.7401,1.5899,1.8772,1.4677,1.6734,1.8018,2.6806,1.8456,1.9242,1.228,1.4792,1.1961,1.7987,1.9485,2.2427,1.9601,2.654,1.5058,1.5022,1.2772,1.8,1.0337,2.0321,1.9834,1.2169,1.3048,1.6653,1.7428,1.0842,1.4676,1.69,2.2466,2.28,2.2876,1.2467,1.478,1.4296,2.4535,1.7785,1.7478,2.1081,2.1635,2.2312,2.2806,2.7599,2.3737,2.543,2.2138,2.4707,2.5472,2.0791,2.0433,2.5151,2.5988,2.1789,1.8315,2.0259,2.7203
3.3162,1.5079,1.0477,2.0575,1.8825,1.5494,1.5185,1.1162,1.1782,1.3792,1.4261,1.3344,1.4433,1.0224,1.1936,1.546,1.9529,1.7672,1.31,1.515,2.122,1.7388,1.7127,1.9987,1.6761,1.5326,1.5842,1.8267,1.9564,1.6598,2.1533,2.2085,1.5147,1.7428,1.7821,2.9505,1.5224,2.7864,2.1512,2.4372,1.5585,1.811,2.1754,1.72,2.0853,1.7338,1.8217,1.7415,2.0872,1.5607,1.4058,1.856,2.4628,1.7522,2.7112,1.7234,1.9314,2.0349,1.8433,2.1291,1.8188,1.5097,1.8057,1.8656,2.2454,2.4473,1.3195,1.6432,1.3428,1.827,2.1754,2.0691,1.9989,2.4915,1.5148,1.774,1.4186,1.893,1.113,2.3916,1.9679,1.286,1.5153,1.9404,1.4606,1.1984,1.4172,1.9981,2.1778,2.5992,2.3315,1.3254,2.1437,1.517,2.4629,1.7733,1.8193,1.979,2.1488,2.2138,2.4165,2.567,2.0789,2.0416,2.0502,2.131,2.108,1.9265,3.0199,2.2725,2.4087,2.1893,2.0446,2.0782,2.0704
3.4934,1.5956,1.0819,2.2324,1.5271,1.7977,1.6724,1.5487,2.0097,1.3534,1.536,1.7243,1.9107,0.93476,1.6071,1.4075,1.9117,1.9855,1.5108,1.6691,1.7667,2.216,1.7202,2.5092,1.8301,1.9106,1.7545,1.7631,2.2477,1.9039,2.2666,2.1597,1.5075,1.663,1.8821,2.3758,1.5528,1.9002,2.5896,1.8814,1.833,2.1565,2.0044,2.0596,2.1028,1.9551,2.1791,2.0521,2.3539,1.6298,1.5391,2.0108,2.0318,1.6555,2.1895,2.1333,2.5841,1.7847,2.0268,2.2423,1.9222,1.6136,1.8083,1.851,2.1522,2.4468,1.4668,1.7501,1.4153,1.7414,1.8413,1.8127,2.3368,2.2861,1.6652,1.8391,1.5608,1.656,1.2536,2.4587,1.7903,1.2981,1.498,1.8133,1.7915,1.3709,1.6462,1.9093,2.008,2.0834,2.3003,1.4675,2.1498,1.4743,2.0209,1.8054,1.8072,1.8986,2.6595,2.7184,2.9421,2.3955,2.1791,2.7327,2.3299,2.3269,2.014,1.9521,2.1917,2.1755,2.6329,2.1633,1.8672,2.0883,2.2543
3.6845,1.8252,1.1176,2.2152,1.4761,2.2052,2.0786,1.3682,1.314,1.3799,1.8638,2.066,1.5389,1.0177,1.7346,1.9652,2.0952,2.0579,1.8618,2.0441,2.0204,1.9455,1.6751,2.3455,1.795,2.0541,1.5606,1.8187,2.0335,1.775,2.3272,2.2889,1.6999,2.1002,1.8095,1.8737,1.7376,2.0383,2.0407,1.9665,1.9456,2.1103,2.4253,2.9698,1.8701,2.4729,1.9207,2.078,1.881,1.5318,2.343,1.8406,2.5149,1.891,2.1272,2.1063,1.9188,1.8021,2.2654,3.0641,2.1156,1.8085,2.5548,1.8272,2.5672,2.5692,1.5706,2.2534,1.6659,1.8777,1.8315,1.9313,2.2245,2.2443,1.8255,1.9228,1.5747,2.299,1.4249,2.2239,1.9225,1.5307,1.7128,1.6293,1.7232,1.4582,2.2135,2.1814,1.9942,2.2632,2.2018,1.5493,1.9404,1.5698,2.5492,1.7382,1.8179,2.0355,2.3286,2.7614,2.3904,2.0799,2.633,2.0938,2.4773,2.4311,2.0731,2.1064,2.2301,2.0844,2.3137,2.4417,1.887,2.5053,2.4825
3.6412,1.6559,1.1519,1.6427,1.6505,2.1494,1.621,1.7059,1.5177,1.1711,1.4083,1.4551,1.3857,1.0575,1.5563,2.1048,1.9428,2.1034,1.3921,1.6375,1.7908,1.6935,1.8124,2.1889,2.0153,1.8046,1.4925,2.4415,2.138,1.7674,2.295,1.9858,2.1289,2.3292,1.8696,1.8943,1.911,1.9814,1.8464,2.0506,1.6009,2.3893,2.1885,2.1347,2.0834,2.0642,2.3016,2.1134,1.8308,1.9085,2.2128,1.8405,2.1924,2.5092,2.4612,2.019,1.9471,1.9458,2.2109,1.99,1.9104,1.9846,1.6764,1.8886,2.5726,2.3669,1.7385,2.1733,1.9598,1.9267,2.3847,2.4722,2.2485,2.2439,1.8375,1.9504,1.8468,2.1874,1.545,2.4704,2.2088,1.6864,2.3133,1.8251,1.6841,1.6737,2.3121,2.3915,2.1967,2.4701,2.569,1.6675,1.864,1.7588,2.8107,1.843,1.7702,2.3239,2.7546,2.2423,2.4199,2.1084,2.6408,1.9433,2.4693,2.0466,2.0731,2.2636,2.6271,2.4795,2.1214,2.2715,2.1184,2.402,2.1739
3.5957,1.9571,1.2686,1.6067,1.7571,1.6495,1.8229,1.7644,1.5095,1.6637,1.9406,1.4662,1.668,1.3737,1.6687,1.8297,1.9748,1.4798,1.3571,1.7638,1.8848,2.4872,2.123,1.7007,1.9961,1.9959,1.6407,2.3098,2.1052,1.9284,2.7925,2.1776,2.3587,2.1596,1.7631,1.9075,1.8523,1.8047,2.0201,1.6468,1.6671,2.0023,1.9387,2.1633,2.2172,1.8388,2.3268,2.122,2.0751,2.3331,2.3628,1.9114,2.1939,1.8179,1.8127,2.2095,1.8764,2.5875,2.1326,1.7973,2.1919,1.7998,1.723,2.0499,2.5888,2.2365,1.8333,2.0748,1.8943,2.0954,2.4835,2.4598,2.0935,2.6966,1.8134,1.8631,2.1412,2.437,1.707,2.6598,1.9882,2.0613,2.0097,2.3989,2.1799,1.9953,1.8309,2.2784,2.1809,2.17,2.3933,2.0574,3.3928,2.3499,2.1549,1.8577,1.8173,2.3884,2.9253,2.026,2.4099,2.3396,2.6,1.8317,3.9718,2.174,2.1972,2.5358,2.3203,2.3819,2.2852,2.3058,2.3758,2.2994,2.6642
3.7799,1.7107,1.3639,1.4828,1.7867,1.7634,1.7795,1.6256,1.8066,1.8364,1.746,1.5987,2.0697,1.674,1.8265,1.6706,2.0314,1.5803,1.9076,2.1007,2.367,1.9519,2.1581,1.6809,1.7846,2.0415,1.9831,2.0369,2.332,2.496,2.516,2.2164,2.1114,2.629,1.8672,2.0165,1.7809,2.1582,2.3499,1.9842,1.7868,1.9768,2.243,1.9949,1.9663,1.8384,2.133,2.7289,2.731,2.0339,1.955,1.9596,1.9871,1.8475,1.9322,2.2582,1.9781,2.1174,2.1519,2.0791,2.3595,2.5721,2.0331,2.0112,2.2697,2.6867,1.8564,2.4993,2.1298,2.0319,2.3284,2.3233,2.1726,2.772,1.9628,2.276,2.1227,2.3467,1.7877,2.3157,2.1638,1.9748,2.8331,2.2609,1.9572,2.3432,1.7089,2.4578,2.1773,2.4744,2.5739,2.2731,2.4406,2.2879,2.0955,1.7694,2.0432,2.3297,2.4203,2.0444,2.444,2.6403,2.9104,1.8343,2.2988,2.201,3.2497,2.4859,2.6839,2.4165,2.5686,2.2479,1.9142,2.964,2.4754
3.6492,1.7976,1.6156,1.658,2.1085,2.0809,2.5649,1.9774,1.9189,1.8289,2.2281,2.0346,1.5591,2.1341,1.8659,1.8506,1.8475,1.5568,1.6076,1.8708,2.0191,1.9343,2.2848,2.3169,1.7931,2.0937,2.0069,2.0903,1.8794,2.6264,2.3758,2.0578,1.9834,2.7551,2.2382,2.179,1.789,2.4979,2.586,2.0569,1.8176,2.2322,2.1225,1.9392,2.3915,2.3032,2.2774,2.0237,2.3947,2.729,2.5614,1.7636,1.8636,2.1884,2.2668,2.2343,2.0328,2.18,1.8823,2.3778,1.8536,2.2396,2.3627,2.1768,2.3717,2.7506,1.8256,2.3054,2.7969,1.9579,2.9959,2.2946,2.2275,2.6107,2.0703,3.0961,2.6957,2.3925,1.8375,2.5843,2.0214,2.3293,2.2675,2.2118,1.9371,2.0503,1.8579,2.1683,2.3075,2.6887,2.4546,2.3461,2.1678,2.1956,1.9815,1.8644,2.0297,2.5282,2.4652,2.6626,2.2365,2.3978,2.3837,1.8831,2.3411,2.2118,2.1602,4.0036,2.5681,3.0348,2.6765,2.2271,2.1875,2.4068,2.4089
3.9991,2.1527,1.5638,2.2407,2.0071,2.6298,2.3458,1.8083,1.783,1.6412,1.9432,1.8995,1.8218,1.621,1.8161,2.0241,1.8414,1.9899,1.5718,2.6878,2.2068,1.9616,2.0424,3.4572,1.8494,2.0632,1.7319,1.9126,1.8138,2.3273,2.9615,2.1729,2.0636,2.332,2.8827,2.1288,2.0186,2.3573,2.5153,2.0639,2.1847,2.2111,2.2187,1.7741,1.8975,2.1494,1.8198,2.068,2.335,1.9849,2.3153,1.8417,1.943,1.8194,1.9614,2.2579,2.5976,2.1442,1.9413,2.3789,1.892,2.0231,2.5483,2.4121,2.2128,2.1052,1.7506,2.3821,2.5341,2.0077,2.3691,2.4724,2.0769,2.2145,2.0236,2.1776,2.8544,2.0172,1.9938,2.2331,1.8761,2.3117,3.0412,2.0412,2.0155,2.7872,2.1812,2.7331,2.9129,2.7422,2.4105,2.8011,2.2665,2.355,1.8388,1.9064,1.9247,2.4921,3.136,3.4375,2.4208,2.4777,2.8122,1.8491,2.4461,2.8143,1.9261,2.5489,2.5902,2.63,2.9664,2.4062,2.3944,2.4677,2.5669
3.9658,1.946,1.6912,2.3128,1.9974,2.6817,2.2106,2.2706,2.3834,1.91,1.8128,1.9948,1.9213,1.5393,1.7385,2.063,1.9624,2.0943,1.9075,2.5788,3.1525,1.873,2.3183,2.199,1.9641,2.0469,1.7256,1.906,2.1109,2.5397,2.2078,1.7963,2.4271,2.4106,2.5683,2.3628,2.2655,2.1561,1.9941,2.4809,1.9488,2.8572,2.2547,1.809,1.7552,2.4324,1.9728,3.1284,2.4533,2.343,2.4625,1.9409,2.1111,1.9599,2.1295,1.9817,2.087,2.7313,2.4258,2.31,2.2265,2.2184,2.1212,2.3956,2.3837,2.3697,2.0291,2.5033,2.3961,2.0472,2.1032,2.368,2.4929,2.4862,2.1445,2.1534,2.3659,2.6128,2.5135,2.5647,1.9239,2.5145,2.0435,1.8942,2.2134,2.9213,2.4284,2.2556,3.0616,2.5429,2.461,2.7502,2.531,2.7519,2.1124,1.9116,2.0221,2.3379,2.5668,2.6295,2.4607,2.4794,3.0022,2.0212,2.1615,2.6501,2.0278,2.5418,2.7048,2.8651,2.9006,2.763,2.5816,2.5255,2.4373
3.4973,2.3599,1.8449,2.1898,1.9708,2.1124,2.1736,1.8869,1.8227,2.0555,2.3224,1.9943,1.7711,1.5627,1.8547,2.0688,2.2274,3.376,1.9961,2.0866,2.4431,2.0208,2.0272,2.3441,2.4378,2.1837,2.0839,1.867,2.5892,2.5504,2.2326,1.8505,1.988,2.3348,2.1837,2.4402,2.3075,2.0991,2.2398,2.2339,1.9656,2.4032,2.5854,2.1377,2.1174,2.3829,2.6021,2.232,2.4091,2.054,2.5555,2.0594,2.4029,2.3731,2.5166,2.3393,2.0727,2.4726,1.9968,2.0606,2.5552,2.0363,2.1511,2.2654,2.1962,2.5143,2.6745,2.5192,2.0722,2.1815,2.4762,2.3344,2.3299,2.5719,2.4393,2.3706,2.3679,2.713,2.5424,3.0885,2.1041,2.2523,2.0191,2.3333,2.1901,2.6022,2.8698,2.3823,3.151,2.2982,3.1651,2.2655,2.589,2.4989,2.18,2.3629,2.4298,2.0796,2.1226,2.9007,2.3779,2.717,2.5918,2.2526,2.688,2.4664,2.0928,2.9555,2.8111,2.4432,2.4226,2.5333,2.2909,2.3822,2.6117
3.9536,2.1262,1.7391,2.1613,2.1658,2.0041,1.963,2.333,2.0581,2.2134,2.1593,2.1524,1.9233,1.524,2.5424,2.2657,2.0276,2.4179,1.8764,1.8883,2.3854,2.33,2.1405,2.0809,2.3447,2.0416,2.5016,2.2006,2.5681,2.5632,2.609,2.4353,2.3525,2.2742,2.1019,3.0492,1.9828,2.307,2.1724,2.9307,2.3045,2.2779,2.6666,2.4492,2.2278,2.3767,2.3994,2.1881,2.139,2.0149,2.3823,2.215,2.165,2.4663,2.4676,2.7192,1.946,2.0064,1.7896,2.101,2.2186,2.3058,2.6163,2.1273,1.8849,2.2401,2.4887,3.2449,2.0402,2.4455,2.5427,2.7553,2.1543,2.6745,2.297,2.3799,2.2675,2.6057,2.7061,2.4405,2.3953,2.4137,2.5983,2.0821,2.2563,2.5128,2.3791,2.7055,2.5186,2.4306,2.4486,2.4728,2.6483,2.5228,2.2565,2.3217,2.4448,2.3123,2.2793,2.6379,2.6834,2.5133,2.4501,2.1899,2.9683,2.8996,2.4258,2.6266,3.0345,2.5522,2.3457,2.5122,2.1892,2.6484,2.5268
3.6446,3.4716,1.6666,2.1477,2.2943,2.924,1.942,1.8766,1.8824,1.9655,2.1253,1.9679,2.5035,1.5962,2.4055,2.3783,1.8772,2.4481,2.0078,1.9386,2.0531,2.3063,2.775,2.1112,2.6087,2.0143,2.4336,2.3053,2.015,2.1646,2.1334,2.7327,2.0452,2.5352,2.691,2.4827,1.8233,2.0481,2.0614,2.1759,2.1469,2.2029,2.1313,2.2214,2.5174,2.1777,2.5711,2.2616,2.371,2.5521,2.7289,2.2652,1.9222,2.3301,2.3103,2.384,1.9652,2.6236,1.9093,2.6285,2.5192,2.5032,2.749,2.1813,1.9982,2.9358,2.1155,2.3655,2.4997,2.1325,2.5363,2.6323,2.0878,2.5861,2.1233,2.7099,2.4509,2.1254,2.1687,2.6973,2.5904,2.7886,2.5327,2.1613,2.599,2.8428,2.3215,2.6035,2.4882,2.4927,2.7604,2.4737,2.368,2.1876,2.2689,2.4719,2.4405,3.1346,2.6336,2.6697,3.1739,3.1904,2.4728,2.5336,3.0394,3.1027,2.6564,2.6295,3.0137,3.1065,2.6096,2.9789,2.3966,2.4257,2.3907
4.1047,1.9901,1.5557,2.1309,2.3192,2.4179,1.8931,1.9798,1.7977,2.0269,2.1372,1.9022,1.8817,1.6012,2.2761,2.1288,1.9574,2.1768,2.3815,2.2326,1.8684,2.2723,2.3495,2.1028,2.1002,2.692,2.4876,2.6073,2.2278,2.564,1.9847,1.9244,2.0392,2.8759,2.5111,2.8954,2.0043,2.4662,2.4183,2.4599,2.1464,1.9856,2.7004,2.1963,2.6317,2.4064,2.9538,2.3242,2.4598,2.4145,3.1677,2.0477,2.2272,2.0525,2.2083,2.6735,2.2051,2.2721,1.9512,2.2461,2.583,2.4318,2.4605,2.2948,2.4638,1.9621,2.0686,2.5523,2.4316,2.2594,2.1986,2.3806,2.1458,2.526,2.3544,2.829,2.6051,2.2762,2.5702,2.338,2.4552,2.3649,2.6702,2.4413,2.4275,2.5141,2.3342,2.5939,2.7702,2.4285,2.8227,2.6049,2.3218,2.2848,2.7278,2.3717,2.3418,2.7653,2.2592,2.3375,2.7571,2.5504,2.2514,2.5321,2.5456,2.7115,2.3595,2.6556,2.6352,2.6259,2.8209,2.6517,2.4531,2.5658,2.4436
4.5429,1.9808,1.5858,2.135,2.3255,2.156,1.8633,2.2598,2.0717,2.1013,1.8883,1.959,1.8767,1.9548,1.8193,2.2494,2.2792,2.0149,1.9155,2.1036,1.8828,2.2393,2.5139,2.1364,2.0642,2.3625,2.3334,2.2221,2.277,2.5259,2.2966,2.2566,2.3165,2.7602,2.5964,2.2948,2.0651,2.4909,2.3715,2.5861,2.1885,2.2751,2.2067,2.0795,2.5011,2.8365,3.2116,2.5734,3.0525,2.4659,2.6085,2.4242,2.4648,2.2823,2.563,2.7548,2.303,2.9031,2.2674,2.174,2.5354,2.7819,1.9166,2.325,2.6585,2.0224,2.4538,2.4039,2.099,2.7216,2.1884,2.5685,2.2179,2.3592,2.6516,2.9133,2.6214,2.6218,2.295,2.2849,2.4272,2.0293,2.2114,2.2062,2.721,3.0808,2.311,3.1229,3.2001,2.4076,2.7438,2.6943,2.4028,2.6273,3.5758,2.2623,2.1937,2.3483,2.4943,2.9072,2.6582,3.5478,3.1421,2.4889,2.4946,2.7243,2.5203,2.5103,2.4056,2.3572,2.7093,2.3616,2.3319,2.3514,2.2983
3.7747,2.2844,1.7168,2.0211,2.242,2.1078,1.9046,2.1414,2.3013,2.2295,1.9552,2.1321,2.0589,2.0824,2.5191,2.1878,1.9206,2.1036,2.3114,2.2994,2.1813,2.4585,2.6293,2.0939,1.9608,2.0051,2.4089,2.1983,2.1625,2.1473,2.9758,2.6368,2.4707,2.1784,2.3735,2.2744,1.9649,2.4103,2.2108,2.1995,2.9086,2.5518,2.1717,2.1015,2.3642,3.1165,2.2163,2.1339,2.2837,3.0024,2.3802,2.7038,2.2505,2.1157,2.8741,2.3209,2.2499,2.4695,2.7117,2.1794,2.892,2.2388,1.8831,2.1936,2.9295,2.278,2.4775,2.1081,2.1795,2.6116,2.4085,2.578,2.4184,2.3922,2.2373,2.5332,2.567,2.6834,2.0998,2.3384,2.4092,2.1819,2.2616,2.4329,2.4565,2.5383,2.8102,2.5017,3.0518,2.3867,2.5586,2.5836,2.9308,2.7226,2.4546,2.7334,2.2042,2.1503,2.5475,2.5471,3.1077,2.4495,2.4809,2.7477,2.5881,3.2528,2.813,2.3987,2.7277,2.2977,2.6783,2.2273,2.7786,2.399,2.2442
4.6125,2.4682,1.8891,2.1903,2.0782,2.0395,2.016,2.3584,2.0011,2.0917,2.2445,2.1092,2.495,2.0562,2.2362,1.9974,1.8411,2.9651,1.9546,2.4526,2.1425,2.7306,2.4408,2.2723,2.2512,2.0658,2.352,2.5427,2.1486,2.587,2.3569,2.2488,2.0317,2.084,2.5092,2.314,1.9768,2.7533,2.1272,2.3104,2.304,2.601,2.2139,2.7156,2.364,3.0584,2.0544,2.3952,2.3178,2.6384,2.0351,2.3205,2.0383,2.067,2.7066,2.1794,2.2273,3.0082,2.5764,2.1248,2.6339,2.4825,2.1983,2.5244,2.2031,2.1464,2.1054,2.096,2.6003,2.6229,2.3475,2.8157,3.0376,3.0657,2.2523,2.6123,2.5991,2.3454,2.148,2.7203,2.7102,2.4947,2.5046,2.3181,2.7812,2.7812,2.4336,2.3436,3.0809,2.4617,2.4513,2.876,2.4215,2.7685,2.7568,2.4218,3.1592,2.1028,2.3412,2.7742,2.7488,2.464,2.5842,2.3612,2.7627,2.5848,3.0056,2.4082,2.8588,2.5232,2.5025,2.5235,2.5626,2.7868,2.7552
3.9027,2.1566,1.8194,2.183,2.2484,1.8983,2.0971,2.3771,2.0461,2.0375,2.235,2.7374,2.2361,1.9482,2.2414,2.1759,2.3495,2.0704,2.0356,2.8039,2.0281,2.9106,2.6032,2.7719,2.9251,2.181,2.9068,2.4682,2.0882,2.8569,2.1025,2.013,2.0695,3.235,2.5303,2.3072,2.3171,2.3086,2.2578,2.1102,2.3157,2.6249,2.0681,2.2765,2.1192,2.5333,2.1157,2.4222,3.2954,2.3922,2.1078,2.3198,2.0115,2.1766,3.0952,2.5248,2.4942,3.0351,3.2379,2.3947,2.5893,2.4436,2.1689,2.524,2.278,2.0295,2.9878,2.119,2.566,2.5141,2.4625,2.6669,2.4446,2.514,2.2686,2.6776,2.8586,2.3415,2.2605,2.8939,2.604,2.4654,2.4171,2.0707,2.5598,2.4809,2.5054,2.501,3.4963,2.7671,2.4736,2.3973,2.2579,3.5699,2.7254,2.9998,3.0591,2.4439,2.5143,2.5216,2.4,2.8315,2.4475,2.4059,2.4816,2.5589,2.65,2.2842,2.7131,2.7606,2.3697,2.4574,2.6805,3.1929,2.6738
4.4418,1.9704,1.6419,2.0744,2.1231,2.1871,2.1987,2.3235,2.2454,2.4101,2.1851,2.6221,2.3068,2.1468,1.9426,2.387,2.3745,2.0336,2.3933,1.9159,2.6209,2.4273,2.5796,2.8872,2.2896,2.3634,2.2475,2.8105,2.1568,2.756,2.1595,2.1696,2.1481,2.5041,2.5598,2.4138,2.5956,2.4667,2.2675,2.3331,2.4126,3.3829,2.1164,2.1783,2.3109,2.7953,2.4495,2.0721,2.2998,2.5197,3.7421,2.666,2.2904,2.8258,2.5384,2.9097,3.1883,3.1482,2.5617,2.2333,2.1641,2.4209,2.3899,2.7045,2.644,2.4087,2.2341,2.2535,2.4363,2.6908,2.501,2.5227,2.3146,2.2901,2.4012,2.386,2.7662,2.2622,2.4586,2.8166,2.2212,2.766,2.9268,2.3135,2.391,2.7752,2.6997,3.1882,2.7332,2.7143,2.7357,2.3978,2.5073,2.6575,2.6601,2.4612,2.7135,2.9666,2.9446,2.8617,2.4284,2.6888,2.7117,3.0767,2.4066,2.4394,2.761,2.172,2.6338,2.5312,2.4063,2.797,2.8305,2.8836,2.628
3.9042,2.0519,1.8453,2.5983,2.0987,3.1228,2.3456,2.1375,2.0195,1.9906,2.5875,2.11,2.1771,2.2223,2.1815,2.0298,2.0312,2.0508,2.3142,2.0432,2.0211,2.1836,2.457,2.8391,2.2513,2.3541,2.1917,2.4181,2.0713,2.5468,2.4068,2.3452,2.3216,2.3727,2.2614,2.3492,2.4745,2.5665,2.1964,2.4215,2.4572,3.0094,2.2512,2.2332,2.4319,2.8148,2.2918,2.2463,2.3177,2.4449,2.4802,2.2674,2.2768,2.7915,2.1241,2.3694,2.4834,2.6124,2.405,2.2054,2.1478,2.4648,2.6251,2.811,2.5415,2.5275,2.2214,2.4817,2.5559,2.8057,2.5786,3.1199,2.5997,2.5432,2.6379,2.4786,2.36,2.2806,2.7963,2.4177,2.2339,2.5189,2.0429,2.2716,2.5278,2.331,2.8682,2.4851,2.3614,2.5257,2.5476,2.6237,2.5998,2.5854,2.4943,2.669,2.4574,2.6133,2.5174,2.7461,2.4603,2.4131,2.5686,3.1906,2.8441,3.1254,2.2673,2.4019,2.6169,3.0619,2.919,2.823,2.647,2.9084,2.8417
4.6369,2.1001,2.1965,2.3574,2.4884,2.532,2.3903,2.2992,2.4299,2.2665,2.3823,2.1719,2.2436,1.9862,2.5454,2.0667,2.0581,2.5115,2.381,2.5094,2.0928,3.1906,2.4751,2.538,2.3924,2.9369,2.5349,2.3677,2.0847,3.1128,2.4419,2.5031,3.0559,2.6417,2.423,2.5008,2.7034,2.3897,2.487,2.9127,2.3797,2.3328,2.7509,2.7232,2.5637,2.4695,2.4174,2.917,2.5365,2.738,3.1836,2.7755,2.5401,2.672,2.131,2.3314,2.433,2.4772,2.2558,2.8889,2.0286,3.0218,2.5298,2.814,2.6369,2.5533,2.2564,4.617,2.4429,2.5501,3.0658,2.904,2.624,2.2646,2.6401,2.6237,2.283,2.4221,2.7164,2.9856,2.3715,2.5997,2.0186,2.1337,2.4457,2.407,2.8582,2.5497,2.5166,2.7386,2.458,3.2384,2.2527,3.123,2.5211,2.6311,2.3009,2.2657,2.8639,2.7288,2.645,2.5135,2.4415,2.9422,3.2516,2.4222,2.4397,2.6479,2.6594,3.0083,2.5897,3.0706,3.1457,2.6213,2.4964
3.8946,2.1609,2.229,2.4047,2.4852,2.1869,1.9729,2.3262,2.6876,2.746,2.2546,2.2513,2.2891,1.8983,2.1182,2.2702,2.0666,2.2833,2.3838,2.4183,2.1857,2.4787,2.9416,2.9588,2.8354,2.4501,2.505,2.5738,2.007,2.8529,2.5003,2.6661,2.7271,2.2563,3.1281,2.6661,2.8479,2.8501,2.7572,2.585,2.2103,2.1024,2.7292,2.1958,2.8691,2.4728,2.414,2.4472,2.4451,3.5667,3.38,2.3582,2.34,2.4569,2.0873,2.7818,2.5846,2.5865,2.6173,2.7219,2.2298,2.5444,2.5658,2.8021,2.5022,2.8375,2.5527,2.6738,2.4953,2.5365,2.3605,2.5887,2.5332,2.3638,2.6637,2.4274,2.5543,2.3784,2.7071,2.4399,2.6637,3.0859,2.2318,2.8236,2.3179,2.5613,2.5859,2.8085,2.685,2.8386,2.5806,2.4661,2.3487,3.4218,2.4434,3.0362,2.5782,2.3433,3.0388,2.8388,2.8504,3.8788,2.5767,2.764,3.1283,2.489,2.5652,2.5287,2.7898,2.6799,2.552,2.8974,3.4196,2.7772,2.7264
4.3619,2.3222,2.0155,2.0704,2.6714,2.0303,2.1903,2.1592,2.6882,2.6054,2.0556,2.4242,2.3538,1.9884,1.9467,2.4169,2.6536,2.7952,2.5629,1.9756,2.0478,2.554,2.8054,2.9255,3.0793,2.3906,2.3843,2.5906,2.1729,2.4902,3.3547,2.7601,2.1857,2.148,2.6884,3.3335,2.5961,2.6318,2.5491,2.4193,2.29,2.5647,2.5169,2.3218,2.5381,3.0765,2.2171,2.4176,2.5179,2.8213,2.6108,2.4959,2.2544,2.4389,2.372,2.4473,2.6885,2.1742,2.2189,2.2713,2.3609,2.6748,2.9433,2.5409,2.2874,2.3477,2.4623,2.8962,2.9791,2.4234,2.476,2.7655,2.4658,2.3695,2.7044,2.3897,2.6522,2.2767,2.4159,2.503,2.6412,3.2264,2.441,2.3117,2.4445,2.3725,2.96,2.7636,2.9015,2.9021,3.176,2.7779,2.6112,2.7627,2.2581,3.2252,2.657,2.5303,2.5615,3.174,3.2585,2.4686,2.6485,3.1401,2.372,3.1287,2.8443,2.6423,2.8139,2.7371,2.584,2.7188,2.9109,2.8595,2.7016
4.0696,2.3645,2.0669,2.0408,2.7756,2.5075,2.4052,2.6412,2.4438,2.3966,2.0809,2.9488,2.137,2.285,2.5454,1.9899,2.441,2.1354,2.5142,1.9808,2.4517,2.2586,2.6342,2.5593,2.609,2.5622,2.504,2.3185,2.4125,2.4645,2.7805,2.4196,2.1982,2.3451,2.5655,3.353,2.9311,2.4642,2.6742,2.6105,2.8548,2.555,2.49,2.9468,2.48,2.9051,2.6512,2.6558,3.3532,2.3138,2.3165,3.0703,2.3491,2.9742,2.6105,2.3715,2.5426,2.4005,2.0709,2.3159,2.2704,2.8383,2.5257,2.274,2.5674,2.2156,2.4722,3.1169,3.1694,2.6682,2.7514,2.5943,2.2256,2.2622,2.8727,2.5773,2.3365,2.3154,2.8097,2.6125,2.4898,2.4415,2.3857,3.0118,2.6809,2.3942,2.4975,3.0975,3.917,2.5936,2.9669,2.7226,2.3867,2.5044,2.3037,2.5155,2.6249,2.4615,2.7986,2.8616,2.626,2.4841,2.8244,2.6815,2.3512,2.5713,2.9095,2.608,2.7592,3.1288,3.0183,2.6749,2.5705,3.1247,2.7479
4.0971,2.1146,2.5338,2.4685,2.7678,2.5753,2.433,2.2334,2.1735,2.0464,2.1583,2.4447,2.3409,1.9399,2.1327,2.0379,2.3847,2.0343,2.4225,2.2928,2.5057,2.0685,2.5782,3.027,2.1644,2.2294,2.5083,2.6545,2.1484,2.7689,2.4618,2.4937,2.3878,2.4931,2.4616,2.3378,2.9312,2.4894,2.8575,3.5498,2.3952,2.3687,2.1569,2.8324,2.299,2.925,2.5548,2.6205,2.4375,2.4738,2.1611,2.618,2.6938,2.3731,2.6678,2.9432,2.6676,2.7245,2.2168,2.1406,2.9271,2.4238,2.0825,2.4952,2.3196,2.458,3.248,2.9201,3.3425,2.8489,2.8376,2.4009,2.5791,2.6071,2.499,2.5703,2.5245,2.602,2.66,2.3173,2.997,2.2712,2.4214,2.5466,2.5592,2.5239,2.3859,2.9961,3.2347,2.5907,3.3603,3.173,2.5982,2.6666,2.7192,2.5138,2.4273,2.4349,3.8176,3.0896,2.4722,3.0026,2.6165,2.7629,2.6509,2.4208,2.3045,2.8079,2.8644,2.7596,2.9136,3.2003,2.5824,3.2188,2.8055
4.3151,2.1392,2.2002,2.5651,2.1509,2.1752,2.2528,2.3029,2.4963,1.8956,3.4569,2.4753,2.4526,2.1826,2.1191,2.2382,2.3658,2.2067,2.3898,2.406,2.0684,2.193,2.2838,2.319,2.1749,2.2189,2.4708,2.6754,2.1851,2.6442,2.5567,2.4054,2.2198,2.3837,2.8832,2.1778,3.0246,2.7184,2.4407,2.7803,2.4109,2.0207,2.2873,2.5714,2.93,2.6167,2.1708,3.0244,2.6923,2.3443,2.819,2.677,2.4746,2.5185,2.8513,2.6732,2.5567,2.6756,2.4203,2.0619,2.0999,2.6637,1.9794,2.7342,2.5367,2.3281,2.5153,2.7627,3.4161,3.0588,3.1891,2.3343,2.6097,2.7372,2.4783,2.5815,2.939,2.9471,2.5936,2.5797,2.8934,3.1806,2.2884,2.2934,2.2585,2.2994,2.8471,2.778,3.1233,2.8821,2.5883,2.9072,2.4363,2.9397,2.5424,2.522,2.5145,2.689,2.945,2.842,2.4144,2.7771,2.6486,2.5555,3.0078,2.5866,2.4394,2.5187,3.1298,2.5285,2.7971,2.5383,3.3273,2.6658,2.8352
4.062,2.1232,2.1982,2.7771,2.1842,2.6525,2.296,2.5108,2.0692,2.2203,2.352,2.4991,2.0491,2.3377,2.5828,2.23,2.5728,2.3063,2.1399,2.1511,2.1631,2.1624,2.3472,2.3693,2.5218,2.2867,2.1525,3.1172,2.4059,2.4168,2.8843,2.5671,2.349,2.3774,3.0312,2.2949,2.4063,2.8946,2.37,2.3587,2.5233,2.4068,2.8318,2.7031,2.3675,2.6586,2.0924,2.3702,2.5315,2.3433,2.3833,2.5715,2.6063,2.4389,2.3529,2.6048,2.5871,2.7375,2.9222,2.352,2.0422,2.9695,2.0654,3.0518,2.4361,2.3256,2.7915,2.7665,2.7791,2.8716,3.9507,2.3338,2.5686,2.61,2.549,2.5261,2.9617,3.0608,2.6795,3.2638,2.6403,2.3241,2.6126,2.301,2.4379,2.5465,2.6915,2.4826,2.6437,2.9877,2.3932,2.7393,2.4797,2.8834,2.4389,2.86,2.5163,2.717,2.8898,2.6058,2.6766,2.9325,2.6593,2.7948,2.8405,2.6279,2.789,2.8433,2.5701,2.9369,2.5495,2.6835,3.0786,2.4369,3.1841
4.4126,2.018,2.7891,2.3983,3.0127,2.3056,2.583,2.3685,2.1528,2.4455,2.1008,2.3977,1.9152,2.768,2.5054,2.478,2.8087,2.5342,2.0412,2.4144,2.316,2.2145,2.3875,3.123,2.4275,2.6004,2.3827,2.7552,2.8388,2.6692,2.5073,2.8444,2.8086,2.7029,2.7135,2.9474,2.3815,2.875,2.5278,2.001,2.1733,2.631,2.6479,2.7373,2.2777,2.6107,2.4708,2.3959,2.9835,2.9858,2.2535,2.3774,2.8672,2.3571,2.6656,3.2088,2.8601,2.8946,2.6694,2.5173,2.3648,2.6915,2.4463,2.3658,2.176,2.1864,2.9317,2.7262,2.618,2.6867,2.7076,2.642,3.074,3.1232,2.7419,2.5666,2.5182,2.4944,2.8059,2.8138,3.1449,2.4685,2.2209,2.1803,2.6434,2.4855,2.6807,2.567,2.4074,2.668,2.4964,2.6322,3.065,2.635,3.0897,2.5205,2.5008,2.6196,2.753,2.5285,2.64,2.8396,2.4606,2.9164,2.7819,2.9976,2.7593,2.6912,2.5204,2.6111,2.5874,2.6836,2.6376,2.7444,3.6533
4.128,2.0286,2.3172,3.0303,2.4373,2.6466,2.1493,2.3277,2.1928,2.1867,2.0585,2.5186,2.0043,2.4283,2.1787,2.861,2.5377,2.3339,2.3746,2.5469,2.2148,2.6686,2.7078,2.5709,2.448,2.6381,3.0662,2.7675,2.4469,2.3891,2.6216,2.7427,2.793,2.8047,2.7185,2.7126,2.946,2.6843,2.6007,2.1892,2.5153,2.6344,2.9636,2.6391,2.2305,2.8262,2.6666,2.3633,2.9245,2.7837,2.5995,2.5256,2.8631,2.4295,2.3725,2.649,2.4298,3.0253,2.8875,2.6982,2.7009,2.7798,2.8019,2.7718,2.8813,2.4552,2.7813,2.5556,2.4081,2.2665,2.5444,2.8302,2.9353,2.5124,2.7586,2.5487,2.6871,2.5788,2.7933,2.5738,2.5892,2.7426,2.8515,2.3891,2.4131,2.7946,3.1409,2.6056,3.0623,2.4692,2.8193,2.8107,2.8348,2.4416,3.0728,2.5218,2.8608,2.8023,2.7113,2.6976,2.6223,2.8514,2.4669,2.6963,2.7866,3.2365,2.9213,2.7657,2.6132,2.5344,2.7274,2.3794,2.5065,2.7596,2.8805
4.4374,2.0473,2.2186,2.2335,3.2434,2.7128,2.3503,2.3315,2.3539,2.4746,2.2376,2.0865,3.0075,2.2168,2.3132,2.3462,2.334,2.2601,2.3774,2.4746,2.1743,2.9916,2.9051,2.5806,2.4067,2.7029,2.291,2.5707,2.4323,3.0487,2.7403,2.6712,2.5948,2.9064,2.4158,2.4895,2.5586,2.6751,2.7154,2.6576,2.4555,2.3175,2.5755,2.5395,2.2954,2.5317,2.2485,2.5744,2.479,2.7203,3.0529,2.5178,2.5302,2.6385,2.215,2.649,2.3269,2.409,2.5239,2.537,2.3686,2.9725,2.3992,2.7302,2.4856,2.9914,2.2992,2.4218,2.4199,2.4176,2.5562,2.5423,2.4547,2.5163,2.9176,2.8432,2.6285,2.4496,3.0988,2.532,2.4979,2.8595,3.287,2.7377,2.602,2.4129,2.5132,3.2577,2.8948,2.7314,2.9378,3.5428,2.745,2.295,2.7613,3.7095,2.7713,2.7315,2.7296,2.5263,3.4138,2.7237,3.212,2.66,2.7553,2.9577,2.6322,2.8747,2.4227,2.4316,2.7104,2.4709,2.6378,2.7581,2.8743
4.1342,2.1783,2.6008,2.1237,2.3904,2.6146,2.6918,2.4121,2.7353,2.7201,2.3818,2.279,2.3534,2.0757,2.4013,2.3981,2.5101,2.8992,2.4689,2.1445,2.0418,3.0353,3.0672,2.6372,2.5557,2.2148,2.2295,2.3755,2.1802,3.1172,2.4894,2.7891,2.3478,3.2107,2.2864,2.6937,2.2922,2.7728,2.5712,2.3686,2.6776,2.6171,2.2539,2.3117,2.6559,2.5754,2.4302,2.6267,2.2768,2.5042,2.5938,2.9501,2.2044,2.2993,2.1974,3.0074,2.4409,2.6543,2.5077,2.7254,2.3444,2.6289,2.2379,2.334,2.5027,2.7886,2.3926,2.3668,2.5374,2.5752,2.9167,2.8676,2.7283,2.6701,2.421,2.8,2.2457,2.2356,2.2973,2.5475,2.4896,2.4952,2.3785,2.4762,3.0607,2.3588,2.6622,2.6382,2.6469,2.794,2.6193,3.0328,2.7338,2.4098,2.5174,2.5403,3.0491,2.6213,2.873,2.616,2.744,2.9833,2.5954,2.6451,3.2403,3.2153,2.4472,2.9847,2.2788,2.561,2.848,2.5583,2.6926,2.9782,2.8907
4.6668,2.1087,2.9842,2.6074,2.6,2.3858,2.6206,2.7289,2.6199,2.8408,2.6615,2.2985,2.5255,2.8445,2.2711,2.4687,2.9938,2.6086,2.7113,2.4834,2.2814,2.1919,2.4768,2.3309,2.535,2.4256,2.3425,2.1357,2.1023,2.7353,2.7128,2.7914,2.4476,2.3542,2.4779,2.7475,2.4544,2.6917,2.6755,2.4408,2.4754,3.2979,2.22,2.2335,2.5042,2.5933,3.0949,2.6657,2.184,2.2564,2.3115,2.3916,2.3762,2.2305,2.4709,2.4619,2.4841,2.4067,2.6309,2.4334,3.4688,2.6725,2.366,2.3346,2.7583,2.7981,2.7402,2.6673,2.4547,2.5834,2.5654,2.4417,2.486,2.6303,2.4473,2.8467,2.3321,2.5026,2.3017,2.7174,2.5771,2.9292,2.4073,2.7491,3.3674,2.5324,2.2516,2.5408,2.6299,3.5395,2.9327,2.5703,2.7164,2.7067,2.9031,2.5195,2.8768,3.0431,2.8058,2.8459,2.5112,3.0095,2.7802,3.0649,2.7058,2.724,2.4733,2.5907,2.6667,2.5931,3.5582,2.3492,2.8521,3.2903,2.6701
4.3239,2.1156,2.9796,2.5119,2.4817,2.427,2.4612,2.2126,2.3683,2.1069,2.2423,2.1732,2.4796,2.4735,3.4818,2.3334,2.975,2.4046,2.6071,2.4235,2.6503,2.0889,2.4647,2.41,2.7381,2.6461,2.3891,2.6074,2.8062,2.2616,2.7914,2.6167,2.9589,2.8752,2.327,2.5584,2.7435,2.9028,2.6163,2.3182,2.446,2.8103,2.3963,2.5566,2.5612,2.3998,2.8572,2.4494,2.5296,2.4008,2.5565,2.8998,2.3385,2.6814,3.1219,2.2913,2.815,2.428,2.291,2.4827,2.1563,2.3833,2.6904,2.6144,2.7325,3.0729,3.38,2.7819,2.7428,2.8565,2.4035,2.3416,3.0835,2.4306,2.8247,3.817,2.9454,3.0959,2.9587,2.8272,2.4425,3.4722,2.6185,2.5026,2.8347,3.1506,2.5113,2.5125,2.4231,2.5718,2.5006,3.6741,3.2587,2.7975,2.6303,2.5056,2.6436,2.9228,2.6832,3.0326,2.5122,3.0442,2.6422,2.7956,2.6117,2.8484,2.8279,2.8105,2.8359,2.7968,2.7854,2.3869,2.6752,2.7713,2.624
4.237,2.1077,2.7032,2.7089,2.2594,2.5574,2.7513,2.258,2.0203,2.0833,2.8807,2.6874,2.3793,2.7349,2.7337,2.2822,3.1478,2.4694,2.5599,2.2276,2.2923,2.2704,2.8063,2.8396,3.0718,2.2638,2.7127,2.9831,2.4743,2.9983,2.3535,2.4003,2.6817,3.0665,2.2394,2.6279,2.6728,3.028,2.914,2.5979,2.3283,2.3737,2.6431,2.3436,2.4831,2.5474,2.4787,2.3343,2.6262,2.6397,2.4707,2.7039,2.3084,2.6835,2.633,2.8643,2.1779,2.4719,2.6566,2.456,1.9858,3.0281,2.697,3.1589,3.2489,3.7622,2.9126,2.7561,3.1289,2.706,2.3775,3.4219,3.0369,2.387,2.5928,2.6822,3.0206,2.6404,2.6166,2.2613,2.4875,3.4344,3.1598,2.7904,3.0422,2.6123,2.6199,3.222,2.3505,2.6056,2.4777,2.4572,3.5909,3.0417,2.5694,2.7902,2.6503,3.1927,2.8169,2.9926,2.6462,2.8489,2.5825,3.0978,2.5906,3.0352,3.2282,2.746,2.8793,2.9072,2.6705,2.5222,2.7522,2.5488,2.7031
4.4536,2.1347,2.4828,2.7527,2.2743,2.3121,2.3417,2.809,2.5197,2.2411,2.4014,2.6008,2.6004,2.3966,2.2419,2.3288,2.5205,2.5101,2.3637,2.5233,2.6367,2.3553,2.5403,2.4392,2.9268,2.1415,2.5719,2.8835,2.6289,2.9361,2.549,2.792,2.6478,2.904,2.27,2.8849,2.9496,2.4189,2.4464,2.8568,2.1945,2.4427,2.9392,2.5058,2.8017,2.8977,2.7525,2.761,2.7984,2.685,2.3869,2.534,2.4543,2.4598,2.3359,2.5021,2.3421,2.4065,2.5984,2.6741,2.3124,2.3621,2.7546,2.4444,2.5809,2.5704,2.5002,3.1037,2.56,2.6655,2.5221,2.8802,2.8026,2.469,2.5989,3.3086,2.7677,2.3902,3.4747,2.7548,2.3032,2.5735,2.383,2.378,2.4211,2.6571,2.5835,2.6434,2.5581,2.9135,2.9512,2.2944,2.922,2.7393,2.711,3.2492,2.7716,2.6392,2.5282,2.7898,2.6195,3.038,2.5468,2.8106,2.7372,2.876,2.8437,2.4852,2.9554,2.5891,3.4472,2.8141,2.8218,2.5047,2.5627
4.632,2.2027,2.1968,2.5642,2.6446,2.4431,2.2717,2.6177,2.3107,2.8903,2.1947,2.5731,2.4281,2.3978,2.3068,2.5652,2.4728,2.2151,2.4675,2.5527,2.4912,2.5428,2.6347,2.6042,2.3553,2.2755,3.0099,2.3853,2.5013,2.7774,2.9477,3.1268,2.8581,2.6636,2.3394,2.5736,3.0386,2.4682,2.5203,2.8388,2.4792,3.0155,2.3907,2.9969,2.4325,2.404,2.7066,3.3658,2.6014,2.4955,3.0223,2.5501,2.7403,2.4653,2.4284,2.2887,2.6864,3.0435,2.3615,2.3803,2.6761,2.3555,3.117,2.1855,2.6383,2.4118,2.8729,2.9029,2.3982,2.4705,2.8598,2.4646,2.5396,2.6216,2.8787,2.5105,2.7984,2.3881,2.4811,2.4862,2.5591,3.35,2.754,2.2332,2.201,2.6115,2.4779,2.4713,2.6365,2.9331,2.7437,2.3672,2.6895,2.5483,2.7296,2.9416,3.025,2.5038,2.7773,3.5015,2.9018,3.5043,2.6118,2.9133,2.8284,2.616,3.0259,2.4651,2.641,2.3792,2.6406,2.6514,3.264,2.6958,2.6423
4.1726,2.0155,1.9384,2.2747,2.9391,2.9166,2.4672,3.2967,2.4226,2.4249,2.2068,2.6781,2.068,2.4876,2.3656,2.9163,2.6726,2.5155,2.6135,2.3688,2.4125,2.6038,3.188,3.1103,2.2721,2.5783,2.6203,2.272,3.0746,2.9094,2.6581,2.7059,2.9423,2.7047,3.2522,2.6916,2.6034,2.763,3.0659,2.8026,2.6064,2.6837,2.4537,2.3672,2.2897,2.388,2.4751,2.7424,2.6399,2.4984,2.8407,3.198,2.677,3.2143,2.7152,2.7037,2.4891,2.815,2.4705,2.4465,2.647,2.4613,2.4913,2.4978,2.634,2.6187,2.622,2.4481,2.5549,2.3237,3.0257,2.3338,2.926,2.5975,2.5146,2.7922,2.9213,2.4147,2.3451,2.8062,2.8316,2.7414,2.6189,3.3025,2.4435,3.1587,2.3498,3.043,3.6739,2.9179,2.5251,2.518,2.8261,2.4659,2.7962,2.5305,2.7661,2.5732,3.0586,2.9894,2.7397,2.9167,2.8015,2.8329,2.8209,2.4336,3.5118,2.9688,2.4745,2.3478,2.8518,2.9884,2.9629,3.4498,3.0663
4.3238,2.0227,2.2425,2.1926,2.5762,2.7613,2.7918,2.2079,2.2818,2.698,2.6689,2.2462,2.1434,2.3681,2.2916,2.5352,3.281,3.2934,3.1348,2.4129,2.3341,2.9325,2.7408,2.9066,2.3984,2.5375,2.7248,2.4305,2.7296,3.0266,2.6566,2.8624,3.2851,3.3931,2.587,2.9474,2.3455,2.4544,2.7279,2.8119,2.604,2.7315,2.5349,2.5913,2.471,2.3338,2.7194,2.3405,2.8739,2.9217,2.7273,2.8541,2.6507,3.0298,2.92,2.9801,2.9255,2.7552,2.3034,3.1927,3.202,2.8428,2.356,2.6863,2.7036,2.7897,2.3556,2.5221,3.3312,2.5363,3.1839,2.4801,2.3296,2.2154,2.3684,3.0937,3.4596,2.6754,2.351,2.3715,3.0854,3.4015,2.9033,2.5393,2.5792,3.1932,2.2799,2.9007,2.833,2.7978,3.3849,2.8827,3.0709,2.7749,2.626,2.3255,2.5991,2.6424,3.4896,2.4473,2.7153,3.4084,2.7794,2.5072,2.7131,2.6761,2.9827,2.7185,2.4773,2.8002,2.656,2.9607,3.0511,3.1668,2.6544
4.2416,2.1191,2.3719,2.2086,2.6428,2.9048,3.9775,2.331,2.082,2.3882,2.6333,2.352,2.4974,3.8441,2.2127,2.3357,2.5402,2.6212,2.7899,2.2718,2.2529,2.8402,2.4963,2.666,3.1934,2.6375,3.03,2.455,2.3462,3.0777,2.7823,2.5164,3.0958,2.9084,2.5953,2.6556,2.3847,2.244,2.3628,2.2955,2.6948,2.6166,3.0888,2.7384,3.0792,2.5269,2.5354,2.7152,3.0122,2.4068,2.7495,3.0646,2.3462,2.5977,2.3955,2.5593,2.6388,3.0526,2.4047,2.6314,2.6674,2.5071,2.3957,3.0824,2.5805,2.2982,2.7412,3.0414,2.936,2.5058,2.4634,2.672,2.5832,2.4143,2.7863,2.9134,2.6897,2.5716,2.2508,2.3849,2.4269,2.656,2.5784,2.3289,2.5483,2.9974,2.5861,2.628,2.8344,2.9921,2.7365,2.7896,2.8293,2.6617,2.5645,2.7779,2.6134,2.9601,2.6748,2.3335,2.7902,2.6506,2.7489,3.1687,2.3838,3.0633,3.0914,2.8636,2.3466,2.5296,2.5314,3.7451,3.4371,2.7558,2.5768
3.466,2.2178,2.2526,2.4719,2.6529,2.7136,2.7168,2.4877,2.7575,2.3576,2.4474,2.5987,2.5154,2.3552,2.3597,2.2006,2.9691,2.4385,2.2994,2.7531,2.3138,3.1439,2.7119,2.6893,4.3276,2.607,3.359,2.6783,2.2535,2.4518,2.5307,2.6682,3.3524,2.9338,2.661,2.4576,2.9598,2.5042,2.645,2.3658,2.7984,2.4265,2.6806,2.6449,2.4732,3.0324,2.4109,2.6059,2.4663,2.3798,2.8448,2.6446,2.436,2.4259,2.3373,2.488,2.628,2.3949,2.5075,2.6826,2.2078,2.4588,2.4647,2.9238,3.0639,2.4519,2.4867,2.6788,2.6156,2.4156,2.4314,2.7453,2.6364,3.1502,2.5915,2.9313,2.5867,2.5906,2.567,2.6365,2.8032,2.7223,2.2252,2.279,3.0548,2.6235,2.6304,2.4539,2.6974,2.8157,3.0259,2.7188,2.7185,2.6671,3.1758,2.9149,3.0008,2.5162,2.5727,2.5341,2.9312,2.5414,3.4102,2.7037,2.6044,2.8979,2.8276,3.5339,2.3853,2.6438,2.4683,2.9335,2.9368,2.7073,2.5919
2.913,2.3525,2.6173,3.3476,2.8326,2.5857,3.3317,2.5303,3.2219,2.6244,2.7928,2.7601,2.6648,2.5018,2.4069,2.3645,2.6433,2.8726,2.5553,2.4873,2.3262,2.6192,2.6501,3.1453,3.6684,2.7438,2.8983,2.6422,2.3999,2.7369,2.8039,2.926,3.1072,3.6094,2.7819,2.8139,3.0903,2.9574,2.8744,3.199,2.5774,2.4878,3.2191,2.6231,2.4688,2.7577,2.4962,2.7747,2.5499,2.7229,2.9221,2.8444,3.03,3.7518,2.7652,2.8778,2.9055,2.3892,2.5895,2.7469,2.3739,3.0541,3.2809,2.8555,2.716,3.0524,2.4278,2.4421,2.832,2.8278,2.8107,2.7089,2.7314,3.0982,2.7686,2.6075,2.6618,2.7966,2.9368,2.5295,2.5758,2.4041,2.446,2.6551,3.0245,2.853,2.673,2.8916,2.9749,2.9115,2.8218,2.7392,2.5378,2.7035,3.2845,3.341,2.7324,2.5724,3.1358,2.7362,2.8173,2.7115,3.1519,2.863,3.2554,3.0098,2.8843,2.9212,2.731,2.7666,2.4653,2.618,2.924,2.8703,3.0751
