T1,T2,T3,T4,T5,T6,T7,T8,T9,T10,T11,T12,T13,T14,T15,T16,T17,T18,T19,T20,T21,T22,T23,T24,T25,T26,T27,T28,T29,T30,T31,T32,T33,T34,T35,T36,T37,T38,T39,T40,T41,T42,T43,T44,T45,T46,T47,T48,T49,T50,T51,T52,T53,T54,T55,T56,T57,T58,T59,T60,T61,T62,T63,T64,T65,T66,T67,T68,T69,T70,T71,T72,T73,T74,T75,T76,T77,T78,T79,T80,T81,T82,T83,T84,T85,T86,T87,T88,T89,T90,T91,T92,T93,T94,T95,T96,T97,T98,T99,T100,T101,T102,T103,T104,T105,T106,T107,T108,T109,T110,T111,T112,T113,T114,T115,T116,T117,T118,T119,T120,T121,T122,T123,T124,T125,T126,T127,T128,T129,rating,class
0.153578867,3.025701052,4.14911332,4.222848636,4.03895319,3.704062599,3.266474429,3.051541321,2.81034835,2.563405396,2.474067673,2.152006254,1.985472404,1.718515309,1.524906996,1.192779555,1.160002302,0.817666207,0.67666841,0.473068744,0.236335203,0.178340468,0.184947873,0.036333939,3.597086442,4.804711787,3.30189231,-0.903386856,-1.427402829,-1.793329291,-2.101895873,-2.325995966,-2.40118264,-2.540569909,-2.84457211,-2.899215083,-3.122169009,-3.411045953,-3.516218566,-3.820394886,-4.015684645,-4.243364761,-4.472334423,-4.63132276,-4.98866152,-5.186266251,-5.346470603,-5.661799535,-5.911506852,-6.151089437,-6.354718239,-6.694505421,-6.928711469,-7.186004598,-7.637407233,-7.823476541,-7.939193654,-8.138747779,-8.502682928,-8.640859227,-9.016846674,-9.194105925,-9.624879764,-9.785847992,-10.21679816,-10.53815204,-10.67875466,-10.90446541,-11.0855323,-11.40790639,-11.68073643,-11.84035279,-12.14899149,-12.46076828,-11.69256246,-11.00300114,-12.27403744,-13.27393965,-13.54442475,-13.72783497,-14.0662845,-14.2299648,-14.38711118,-14.7667674,-15.06898805,-15.37350122,-15.58425783,-15.78952479,-16.08490829,-16.25677083,-16.4690427,-16.78360301,-16.91129912,-17.19071357,-17.47964162,-17.70811292,-17.99507095,-18.17249922,-18.51959963,-18.8217949,-18.99782128,-19.07696494,-19.443657,-19.90692666,-20.28647944,-20.56491704,-20.82255253,-21.09142037,-21.43287439,-21.82488479,-22.1562259,-22.52297844,-22.94626264,-23.2891416,-23.67097262,-24.02136842,-24.36848188,-24.80449998,-25.24802294,-25.63765742,-25.97527989,-26.39465566,-26.66545881,-26.85825939,-27.08363978,-27.36119188,-27.65548541,-27.87641609,-28.10871098,1,level-1
0.498951959,3.370221583,4.456405279,4.435641047,4.148837025,3.779312954,3.326236544,2.941096309,2.668114951,2.658005589,2.297784415,2.011549156,1.779430986,1.793647772,1.331545069,0.99271949,0.837444528,0.747735335,0.505197182,0.231938047,0.254049729,-0.042250174,-0.280725094,-0.332627805,1.740686607,2.877155286,1.246933184,-1.227060812,-1.507186691,-1.850874712,-2.139103162,-2.53661706,-2.61832778,-2.906413773,-3.002690901,-3.168057752,-3.368061559,-3.61955504,-3.887434567,-3.868800709,-4.182665953,-4.528780635,-4.620662958,-4.875065006,-5.156011957,-5.291263269,-5.475195481,-5.784020315,-6.121341944,-6.272367749,-6.49544535,-6.890634404,-7.202844706,-7.372590789,-7.675874606,-7.935526302,-8.198533531,-8.423923406,-8.668686016,-9.03664717,-9.3953845,-9.564150845,-9.890516935,-10.18644538,-10.46230588,-10.72858892,-11.0606539,-11.23415422,-11.41366854,-11.72278199,-11.84403414,-12.08693038,-12.55175805,-12.49352324,-12.40548992,-12.22692358,-13.08094456,-13.66310962,-13.77590981,-13.96841621,-14.27119057,-14.48190799,-14.7468973,-15.04275482,-15.36997018,-15.66006072,-15.81748706,-16.1013379,-16.12496436,-16.36702328,-16.52029896,-16.94739128,-17.24239385,-17.38289527,-17.64652084,-17.84675018,-18.10112277,-18.25125553,-18.63336027,-18.90649816,-19.27410055,-19.35473891,-19.58585677,-20.10906401,-20.3793933,-20.6421516,-20.78951667,-21.10456674,-21.61016987,-21.95029447,-22.30135386,-22.62277686,-22.87492884,-23.39380926,-23.64155206,-24.20547183,-24.4078493,-24.88443059,-25.03918425,-25.48790631,-25.86148989,-26.36592353,-26.45549174,-26.77759883,-26.96222425,-27.2325611,-27.46855749,-27.73560987,-28.01419219,3,level-3
1.179971554,4.109086577,4.96899208,4.72319835,4.264173201,3.725634366,3.356236946,3.196657098,2.909815831,2.718051845,2.84465835,2.796222712,2.942146069,2.885890801,2.873023821,2.963535676,2.914208698,2.974017132,2.797066364,2.731407756,2.627853889,2.627282505,2.821399882,3.104271374,8.375604235,9.32014964,7.543771795,2.040286367,0.895301585,0.03140881,-0.824773006,-0.907693373,-0.562366335,-0.729840548,-0.766454399,-0.823895838,-1.103652792,-1.206856211,-1.328584055,-1.617680176,-1.715034235,-2.009684268,-2.216567606,-2.548590415,-2.746969584,-2.856217096,-3.161873156,-3.405137707,-3.51251666,-3.691068258,-4.013391289,-4.260404322,-4.590728146,-4.723166803,-5.14359602,-5.298450127,-5.411563513,-5.766087686,-5.854398926,-6.155558651,-6.578015368,-6.796051217,-6.921154767,-7.140938563,-7.50269533,-7.691135889,-7.860639444,-7.9961167,-8.116720154,-8.434217787,-8.851771178,-8.990450083,-9.228023335,-9.196529156,-6.888341108,-6.701080043,-8.542161867,-10.12364701,-10.59572764,-10.91456794,-11.19761226,-11.35484449,-11.71554005,-11.84326166,-12.06679831,-12.53449707,-12.57392886,-12.85909025,-13.05553522,-13.2977791,-13.56047545,-13.86770396,-14.25499885,-14.43800931,-14.63779514,-14.84009976,-15.1869507,-15.53367203,-15.72918771,-15.88874373,-16.24762844,-16.54285722,-16.88345649,-17.30341406,-17.69601229,-18.00186475,-18.15083976,-18.592132,-18.90665025,-19.1495023,-19.51517793,-19.83695791,-20.14246773,-20.62906727,-20.73536726,-21.09526053,-21.30892305,-21.57856267,-21.71742058,-22.15753582,-22.02792302,-22.17550905,-22.38077618,-22.44238203,-22.55494404,-22.73741546,-22.86844086,-23.03158401,-23.11791488,3,level-3
0.783208642,3.646201701,4.667719833,4.402618201,3.638463036,3.394714516,3.25983872,3.115670448,3.042226342,2.816507067,2.878634917,3.022641995,3.008742756,3.005445364,3.092784589,3.224734553,3.385174485,3.386519147,3.336071456,3.343000096,3.246335603,3.153348032,3.03318494,2.951446915,5.121063867,6.065917355,4.268249177,1.602284879,0.604622378,-0.460051981,-1.439935211,-1.015681147,-0.501283899,-0.245551935,-0.362988393,-0.312564065,-0.458091178,-0.680410603,-0.81044938,-1.116393562,-1.29657126,-1.479957739,-1.670881272,-1.981076073,-2.115819184,-2.055162936,-2.464493936,-2.708229761,-3.110863395,-3.287839198,-3.395826357,-3.603955155,-3.881480074,-4.127238094,-4.377012782,-4.663063374,-4.806459099,-5.027598562,-5.322210833,-5.550661567,-5.661496205,-5.890337795,-6.29425099,-6.597990487,-6.928630699,-7.022554282,-7.144989168,-7.358160108,-7.652840295,-7.914762673,-8.183283824,-8.483247005,-8.686647922,-8.979252557,-9.099920268,-9.159653131,-9.592001197,-10.00680209,-10.14173523,-10.3849615,-10.6531551,-10.97875521,-11.26413101,-11.41275543,-11.60389466,-11.94544163,-12.18257878,-12.64411799,-12.79817428,-13.05252396,-13.28989586,-13.56741266,-13.89866271,-14.02162598,-14.36587251,-14.40882325,-14.7979992,-15.04140571,-15.5795886,-15.78230709,-16.00621382,-16.37742443,-16.71298761,-16.97685255,-17.37057214,-17.58255198,-18.02353116,-18.33877676,-18.77394248,-19.24135679,-19.48661158,-19.77387677,-20.21990256,-20.7263664,-21.16389759,-21.86336578,-22.15827222,-22.68790846,-23.17770043,-23.52949111,-24.16966822,-24.30297047,-24.68437693,-24.8148308,-25.04151232,-25.20935792,-25.37133553,-25.52371692,-25.67948174,3,level-3
0.159183005,3.158648771,4.255690492,4.222011229,3.91776421,3.877228497,3.336127714,2.980822083,2.859985858,2.554822809,2.383309612,2.11560395,1.883416006,1.739449485,1.554741427,1.326904573,1.246612176,1.103539974,0.851997793,0.737851608,0.458372934,0.380986465,0.497143343,0.547260034,5.085045976,6.190738282,4.568187422,-0.336207829,-1.077933652,-1.467006922,-1.878503274,-2.23869884,-2.379581468,-2.454378158,-2.639823507,-2.866659848,-3.094415981,-3.42174361,-3.445780427,-3.709654814,-3.97250626,-4.138768636,-4.408828265,-4.571964102,-4.695644524,-4.93069072,-5.308414494,-5.617725966,-5.824548236,-6.071447293,-6.177777435,-6.469608361,-6.805996834,-7.108994442,-7.288149581,-7.599090283,-8.079844668,-8.351038317,-8.560547694,-8.829868386,-9.132779954,-9.392204097,-9.626147778,-9.881386588,-10.23658561,-10.31552828,-10.6413975,-10.77147265,-10.97918837,-11.43359814,-11.4587345,-11.6844402,-11.93733824,-12.00643498,-10.24458181,-9.577730592,-11.18992802,-13.06598059,-13.36470398,-13.48550903,-13.76387024,-14.14754457,-14.31727962,-14.47909729,-14.78107032,-15.01308473,-15.40928978,-15.57233832,-15.87974083,-16.09438317,-16.21471264,-16.47107283,-16.8349085,-17.03031263,-17.41953201,-17.56178117,-17.76918299,-17.96723732,-18.20734283,-18.40657609,-18.52716663,-18.94618899,-19.36661347,-19.66704926,-19.90980247,-20.17497578,-20.55811782,-20.76516152,-21.09485142,-21.39180988,-21.65554432,-22.07663794,-22.3560723,-22.83798148,-23.12059464,-23.6117766,-23.93731987,-24.23162569,-24.84239027,-25.04977201,-25.34540777,-25.6205418,-25.78912511,-26.09527347,-26.24363601,-26.3969317,-26.60282421,-26.79304678,-27.01383554,3,level-3
1.83434933,4.275676309,5.105192169,4.622326542,3.925647653,3.668398899,3.475112527,3.310408065,3.07247036,2.929266734,2.900413355,2.782200176,2.655226961,2.784534245,2.531389198,2.801059712,2.787795029,2.655712423,2.557464985,2.517090124,2.285909335,2.078308928,2.083879308,2.22694506,6.027565995,6.922797171,5.108141495,0.805125263,0.25072701,-0.581688093,-1.506465855,-1.491403641,-1.140491193,-0.842341221,-1.103584172,-1.143561032,-1.225108061,-1.39705693,-1.602065737,-1.612436351,-1.802150546,-2.170302884,-2.400423649,-2.676920616,-2.745554909,-3.059670744,-3.360169058,-3.50486371,-3.638257027,-3.835819988,-4.220895279,-4.465251363,-4.730599419,-5.043105404,-5.164672656,-5.410447671,-5.572213833,-5.835791977,-6.306609538,-6.502094584,-6.613137801,-6.750726128,-7.141438076,-7.438885242,-7.649074638,-7.878007272,-8.137928462,-8.401836961,-8.614319654,-8.827981,-9.272711026,-9.475887815,-9.627517961,-9.712866333,-9.348699424,-9.324991217,-10.45192217,-10.93728929,-11.12251986,-11.4743722,-11.76331022,-11.99921787,-12.49427024,-12.6309148,-12.8579889,-13.15676068,-13.27986447,-13.49028944,-13.63193966,-13.96227291,-14.52286117,-14.56239744,-14.75925505,-15.19904636,-15.47562158,-15.61853326,-15.98626795,-16.28978985,-16.6451817,-16.9386337,-17.27698132,-17.49580582,-17.79000568,-18.08904575,-18.55939086,-18.87205084,-19.15349326,-19.51020621,-19.80901159,-20.02154823,-20.51055926,-20.84617787,-21.31057575,-21.70241695,-22.09958129,-22.31940666,-22.5729304,-23.02981537,-23.20554947,-23.64793987,-23.82077378,-23.78384606,-24.10167254,-24.19337421,-24.34727772,-24.46929691,-24.63572138,-24.75165954,-24.86576764,2,level-2
2.901069058,5.874864089,6.758298803,6.297807278,5.900343109,5.367051201,4.921660053,4.665773572,4.386235394,4.140137295,3.899704134,3.696731084,3.515755262,3.474662854,3.114371048,2.817190594,2.731450684,2.437061458,2.365579064,2.114639349,1.998471308,1.851541894,1.660990307,1.372173679,2.664702019,3.383950813,1.910659098,0.05195926,-0.546386026,-1.142788826,-1.891630054,-1.748530693,-1.790335479,-1.737963423,-1.769216602,-1.894496225,-2.108388686,-2.261854715,-2.62171593,-2.824424694,-3.072806906,-3.328971378,-3.405597377,-3.753049473,-3.866440544,-4.252623059,-4.548838553,-4.860967041,-5.157107597,-5.30897429,-5.619689164,-5.836492333,-6.022380967,-6.201673243,-6.511944837,-6.719073848,-6.949547311,-7.31327211,-7.52640373,-7.768337083,-8.093544596,-8.179288028,-8.372251532,-8.824457943,-9.230709961,-9.322450643,-9.614811435,-9.88183923,-10.05209036,-10.35973765,-10.71458205,-11.05493247,-11.24155174,-11.32741752,-11.31981726,-11.44011365,-12.03625488,-12.34676857,-12.7211284,-12.822437,-13.13787672,-13.44406884,-13.65918031,-13.89954811,-14.2028285,-14.52219466,-14.88925353,-15.1051769,-15.21251533,-15.29694256,-15.70202595,-15.94325743,-16.10698423,-16.50886322,-16.74456019,-17.07577681,-17.28351807,-17.37878909,-17.88349817,-18.04776037,-18.24474658,-18.67617493,-19.14779401,-19.32052898,-19.5722577,-19.85517632,-20.22885851,-20.64129661,-20.86873746,-20.9704305,-21.53429728,-21.77865779,-22.14977055,-22.29209576,-22.84147509,-23.0683384,-23.35742296,-23.7573496,-24.00462988,-24.35991315,-24.51068533,-24.82472313,-25.05820595,-25.25355635,-25.58866823,-25.83543137,-26.1131553,-26.43508791,-26.7663952,3,level-3
-0.324957981,2.521845302,3.495622968,3.524154393,3.213258691,2.9099738,2.571698512,2.326815784,2.069786372,1.979582892,1.742692507,1.619376143,1.462066801,1.332576895,1.315301795,1.345098503,1.067539158,1.030517725,1.006964061,0.863879,0.9091142,0.939870636,0.858752736,1.031783706,6.497487656,7.489619688,5.720869189,0.222022418,-0.504155688,-1.175362878,-1.822765813,-2.081403549,-2.132235094,-2.330477374,-2.582431136,-2.646204141,-2.822953115,-3.081556147,-3.253704277,-3.379795523,-3.726027027,-3.893120923,-4.223043991,-4.374664629,-4.618736958,-4.886209874,-4.827479921,-5.091552385,-5.617447198,-5.772754657,-5.945575922,-6.258617279,-6.455750503,-6.777323004,-6.937454811,-7.143100758,-7.424401461,-7.888826669,-8.073731396,-8.207025365,-8.410081407,-8.621612633,-8.989255429,-9.044376672,-9.26049541,-9.757162771,-10.06086187,-10.16570828,-10.33429222,-10.45611085,-10.64505106,-10.86034515,-10.97151386,-11.01895277,-8.375965863,-8.103835289,-9.982081507,-12.24223527,-12.70569368,-12.93468639,-13.08790972,-13.31828007,-13.53343795,-13.72256901,-13.98877222,-14.33113602,-14.50951985,-14.68087791,-15.0819753,-15.38389832,-15.48352433,-15.66096696,-16.01690229,-16.15697461,-16.36282367,-16.76468696,-17.01476935,-17.27128625,-17.62439493,-17.82268128,-17.8371176,-18.28628885,-18.57030511,-19.02271953,-19.22432732,-19.41886867,-19.74179843,-20.10138724,-20.57992547,-20.96384003,-21.08864634,-21.38542636,-21.98525717,-22.17896344,-22.58383882,-22.9292098,-23.09086766,-23.42597761,-23.63691236,-23.93523749,-24.03524697,-24.12286082,-24.23496919,-24.38023437,-24.45543858,-24.63263956,-24.72251912,-24.86433714,-25.05494284,2,level-2
-0.695789652,2.347930819,3.434449498,3.398264604,3.042289985,2.764667028,2.589795463,2.172560776,1.908898225,1.776907188,1.792323723,1.600789233,1.510533601,1.451279869,1.393923228,1.466831678,1.325818691,1.050747323,0.994663773,0.813166554,0.9349614,0.706288546,0.329262103,0.101161746,-0.003966145,-0.053395621,-0.3775278,-0.840430255,-1.31940716,-1.887138072,-2.181857086,-2.144490982,-2.423080962,-2.424087782,-2.332927102,-2.45013729,-2.659339717,-2.872569446,-3.18030745,-3.249718337,-3.429357626,-3.590152318,-3.846537667,-4.069287127,-4.26141334,-4.445437396,-4.709949339,-4.887343246,-5.043749388,-5.506973062,-5.749722282,-5.831305945,-5.93628681,-6.188654177,-6.495749528,-6.693709421,-6.874216299,-7.202254202,-7.367604228,-7.615815546,-7.780652667,-8.111027683,-8.326146177,-8.522532274,-8.663116855,-9.300592769,-9.531506769,-9.668422474,-9.842172996,-10.05243985,-10.22178213,-10.44674075,-10.76844193,-11.12507378,-11.27125786,-11.37273264,-11.69038352,-11.82485777,-12.2449533,-12.48495187,-12.54298495,-12.85139822,-13.22090729,-13.54625678,-13.77115605,-14.01476635,-14.29202428,-14.55606653,-14.68365453,-14.96356571,-15.38213643,-15.54852236,-15.64778468,-16.03949473,-16.31910847,-16.59165043,-16.87131848,-17.25191728,-17.38813921,-17.77315156,-17.94745087,-18.28253171,-18.66487208,-18.98546292,-19.22322347,-19.56262488,-19.94826952,-20.26720143,-20.67911086,-21.03153231,-21.63610411,-21.9230282,-22.39498352,-22.69672313,-23.13031088,-23.45852835,-23.99009665,-24.67787026,-25.05632851,-25.55697533,-26.21443462,-26.57997966,-26.87407897,-27.24891628,-27.41884617,-27.5878648,-27.80702783,-27.99159945,-28.23171814,3,level-3
-0.81819372,2.304677728,3.343973753,3.25698423,3.00995587,2.633507381,2.543874267,2.14245224,1.951551627,1.885255426,1.663024477,1.524393886,1.290132631,1.233630094,1.255514901,1.21098866,0.992618581,0.920531266,0.867240228,0.621571945,0.326217047,0.161580759,0.091529496,-0.172751914,3.277145162,4.214485411,2.391258515,-1.045939863,-1.508168679,-1.932097174,-2.114741892,-2.390140169,-2.565457343,-2.623004276,-2.897653526,-3.037089345,-3.345427595,-3.472979127,-3.587574338,-3.869849898,-4.040356849,-4.249217057,-4.438990029,-4.679067318,-4.916911508,-5.171525254,-5.530612062,-5.758937812,-5.995221807,-6.09676407,-6.253077867,-6.575704281,-6.908599246,-7.102644095,-7.313521913,-7.707770449,-7.854794967,-8.042024028,-8.332903755,-8.715826716,-8.861762457,-9.114057904,-9.433169169,-9.666007243,-9.927687609,-10.16365642,-10.55241591,-10.67413745,-10.9499132,-11.25153303,-11.34177552,-11.63680112,-12.01920685,-12.07758436,-11.46171937,-11.33609086,-12.56220246,-13.03120655,-13.36292355,-13.50009726,-13.59772621,-13.83742641,-14.198311,-14.4763389,-14.72920873,-14.87672501,-15.1911569,-15.35073143,-15.63203354,-15.95079446,-16.29548469,-16.49316532,-16.80815799,-17.2489608,-17.28051497,-17.60594711,-17.90554462,-18.08820831,-18.27343202,-18.63935006,-18.99989911,-19.07376343,-19.36890608,-19.80426332,-20.05106676,-20.28564935,-20.57283945,-20.92823238,-21.36938086,-21.64373416,-22.05366488,-22.44488581,-22.80304401,-23.22193042,-23.62119584,-23.97464653,-24.50530159,-24.84065021,-25.30856054,-25.73434973,-26.2078697,-26.45388648,-26.74297471,-26.93457715,-27.1545827,-27.32188779,-27.43342292,-27.58351255,-27.70275511,1,level-1
0.663823629,3.543145848,4.43386346,4.275183497,4.01950704,3.615602703,3.044504581,2.550471087,2.520879995,2.368667634,2.488043584,2.198514356,2.266448054,2.206325651,2.096406627,2.260840009,2.203611594,2.262451325,2.089420053,2.020797059,1.997715005,1.798939808,1.721185725,1.661431669,5.827399694,6.842094782,5.133176602,0.440118489,-0.2133468,-1.062120551,-1.575459338,-1.487041877,-1.485116722,-1.593709821,-1.448437362,-1.558073985,-1.828089087,-2.041337612,-2.143380271,-2.294102503,-2.587389129,-2.833263638,-2.801738631,-3.021488467,-3.423171526,-3.441861657,-3.77860753,-4.028782968,-4.114913229,-4.338117002,-4.776376115,-4.898766489,-4.956611223,-5.368354901,-5.582300767,-5.916022356,-6.049066111,-6.349577969,-6.519557303,-6.755928076,-7.126806707,-7.452992608,-7.671021936,-7.690692434,-7.867144886,-8.201552994,-8.383813017,-8.750272566,-9.053435287,-9.257250377,-9.411466834,-9.628720547,-9.730778563,-10.05581621,-8.74707322,-8.455532596,-9.936362113,-11.00103009,-11.38484612,-11.57140952,-11.72726985,-12.02549387,-12.27041498,-12.50298727,-12.74434821,-13.19293299,-13.41849742,-13.63869892,-13.84631212,-14.03298047,-14.14316502,-14.49825986,-14.80678204,-14.99341463,-15.37950522,-15.49933272,-15.70568702,-16.05433263,-16.32417315,-16.55441442,-16.82517816,-17.2422442,-17.6452185,-17.97748528,-18.22825497,-18.53936096,-18.84499023,-19.46970863,-19.7317675,-20.07428888,-20.32923334,-20.75305346,-21.15594972,-21.55666679,-22.16062158,-22.38540088,-22.86495996,-23.24721932,-23.58303094,-23.91392053,-24.22020033,-24.54124445,-24.70239763,-24.90139322,-25.04804855,-25.25151393,-25.36348025,-25.51894073,-25.65054038,4,level-4
0.07907183,3.087187784,3.97896835,4.045568081,3.873393907,3.342034122,2.734992835,2.611922461,2.481992873,2.420313039,2.121828544,2.189486708,2.126815812,2.12230919,2.24340657,2.328734555,2.114664265,2.034619336,2.028585416,2.014983572,1.82158723,1.70121764,1.892986133,2.093111667,7.929858984,8.996824103,7.348702885,1.103446168,0.233545876,-0.577908637,-0.978703952,-1.196295116,-1.400430022,-1.336001159,-1.464943397,-1.669401218,-1.779488763,-2.032301925,-2.406518815,-2.534961574,-2.718638238,-3.006431496,-3.254398989,-3.374684901,-3.709976342,-3.872355235,-3.99127548,-4.332490513,-4.681151082,-4.751836416,-4.847186415,-5.065466693,-5.426753417,-5.779002117,-6.021062606,-6.172466381,-6.428236799,-6.771130661,-6.927942721,-7.264444686,-7.387165472,-7.750465913,-7.844455352,-8.175566394,-8.544067802,-8.52672228,-8.8122896,-9.372363653,-9.391066617,-9.710285533,-9.856084683,-10.01133677,-10.20676299,-10.28890519,-7.65167208,-7.123740783,-8.795745005,-11.14137001,-11.76132779,-11.90915356,-12.1129245,-12.30889192,-12.65650287,-13.0082744,-13.1111807,-13.24504494,-13.54253164,-13.72615756,-14.05907278,-14.37711775,-14.6413931,-14.87057978,-15.05245081,-15.38320371,-15.63180485,-16.01020847,-16.11273845,-16.34921045,-16.79133605,-16.92642624,-17.12437542,-17.45857128,-17.79693335,-18.08996456,-18.426428,-18.73519884,-18.92763522,-19.43337219,-19.8049017,-20.17167219,-20.39371934,-20.72213399,-21.1043835,-21.22654917,-21.8112363,-22.01918311,-22.2233749,-22.41258396,-22.74167139,-22.95273062,-23.07737863,-23.25782814,-23.38551712,-23.50604708,-23.56142798,-23.76926751,-23.82740624,-23.95271315,-24.00603081,3,level-3
-0.160020755,2.741121143,3.778671179,3.714854017,3.339166096,3.03350979,2.710951794,2.363707365,2.162273993,2.074625224,1.955155813,1.790814745,1.914629525,1.848129063,2.090218072,2.205714177,1.872226258,1.860934284,1.790411924,1.625552072,1.634675767,1.641350925,1.692901147,1.832306316,7.789372284,8.86803887,7.27097732,0.994976818,0.159008356,-0.577218962,-1.115205595,-1.3810979,-1.437219378,-1.633266366,-1.740387425,-1.959164176,-2.113390264,-2.355094976,-2.514175941,-2.919145445,-3.069822855,-3.249079081,-3.549895893,-3.778104473,-3.931459995,-4.183655832,-4.32273402,-4.51159307,-4.708546716,-4.808098482,-5.048113337,-5.423491954,-5.762534456,-6.244085285,-6.383949474,-6.573064947,-6.809515037,-7.110538685,-7.247445218,-7.479734258,-7.7255194,-7.933555782,-8.198883486,-8.451864724,-8.796675807,-9.082675493,-9.190717096,-9.512444034,-9.694081124,-9.918540219,-10.14605235,-10.395093,-10.54935876,-10.34821885,-7.428925217,-6.837912323,-8.471828378,-11.46738663,-11.93602596,-12.15981508,-12.40506163,-12.53774273,-12.8432811,-13.27024563,-13.57683473,-13.59524452,-13.81343002,-13.98951358,-14.48536094,-14.7745953,-14.87189865,-15.23054624,-15.44909076,-15.57758964,-15.85642365,-16.06951861,-16.53856915,-16.59417362,-17.00278829,-17.30339345,-17.47614308,-17.74800015,-18.06004835,-18.35953392,-18.54380622,-18.87849632,-19.25171524,-19.48737636,-19.7846873,-20.2086855,-20.57323287,-20.8844538,-21.31887555,-21.60143094,-21.88873105,-22.30505501,-22.44912684,-22.61280066,-23.01891834,-23.2293155,-23.43344976,-23.47711165,-23.64000092,-23.76921197,-23.78733517,-24.01619381,-24.03397134,-24.14406104,-24.19633986,1,level-1
1.170798573,4.188709844,4.926802407,4.484831937,4.200781995,3.753005031,3.117248373,2.789013676,2.553989959,2.469691254,2.180363318,2.020056031,1.917721411,1.879507763,2.039710104,1.932450921,1.707649493,1.604198454,1.505922048,1.385462628,1.229086393,1.332244711,1.51105935,1.575297083,7.14093251,8.178381105,6.510507476,0.545955216,-0.077430798,-0.692059989,-1.31787014,-1.593797864,-1.744591663,-1.863159652,-2.067518027,-2.410831497,-2.477586595,-2.680119551,-2.776374707,-2.957709487,-3.173835179,-3.368554523,-3.657418406,-3.853392004,-4.072556494,-4.365377899,-4.551627962,-4.719839477,-5.001205486,-5.055328063,-5.343975913,-5.676941011,-6.092879253,-6.20412403,-6.529588334,-6.857715678,-7.183789156,-7.34704125,-7.512127015,-7.669585937,-8.005674157,-8.340618713,-8.75989767,-8.947393367,-9.042066259,-9.153791551,-9.643868509,-9.799102601,-9.955910312,-10.25224645,-10.52363956,-10.64749623,-10.85613249,-10.7826795,-8.442251138,-8.001553166,-9.670997912,-12.02431684,-12.25066993,-12.41937848,-12.67918073,-12.87488009,-13.06979158,-13.49022444,-13.66217121,-13.88962341,-14.2098697,-14.39819969,-14.56848259,-14.74179465,-15.02535913,-15.38048046,-15.59874893,-15.98430151,-16.1384623,-16.41849409,-16.71715083,-16.97387115,-17.13380845,-17.33379958,-17.60201971,-17.93960075,-18.15285315,-18.63165586,-19.03788222,-19.17896626,-19.37436429,-19.81515487,-20.05309396,-20.37566637,-20.99880644,-21.09412397,-21.48400682,-21.7135903,-22.23965615,-22.50203,-22.68723741,-23.00266165,-23.24367924,-23.45433037,-23.67263214,-23.90671521,-24.00194556,-24.1212098,-24.24956967,-24.39040239,-24.53567383,-24.69096356,-24.94769151,2,level-2
0.665394538,3.58487291,4.404055294,4.115493859,3.620130664,3.156257634,2.863126014,2.66554806,2.307979764,2.100074675,2.064365222,2.090143844,2.108924458,2.053270487,1.865907548,1.84674683,1.770164379,1.97028683,1.59357563,1.441562229,1.32703537,1.073204182,1.023501045,1.155132469,4.430989048,5.310839796,3.461366143,-0.056608366,-0.870428692,-1.556948644,-2.159501607,-2.056970121,-1.786816808,-1.889915693,-2.027219738,-1.984635916,-2.108540161,-2.240095813,-2.432200821,-2.601778013,-2.907921713,-3.09387368,-3.131264419,-3.486044229,-3.707995954,-3.997034299,-4.058556699,-4.390009048,-4.685166913,-4.884335839,-5.125888952,-5.38716337,-5.585091583,-5.8124665,-6.274967898,-6.451259102,-6.686629119,-6.876818574,-7.126532768,-7.535236421,-7.850618023,-7.959484365,-8.295623101,-8.358802243,-8.649542321,-9.054615441,-9.099515852,-9.432292795,-9.734799055,-9.855119408,-9.999512518,-10.24710228,-10.34239421,-10.52940285,-9.415437603,-9.460156162,-11.07122015,-11.81791776,-11.95161138,-12.1883839,-12.42858359,-12.71262519,-12.77052197,-13.09889012,-13.45467043,-13.65557192,-14.07535357,-14.30890774,-14.56715432,-14.76387306,-14.89750431,-15.29189929,-15.57127374,-15.71212743,-15.91929378,-16.35228934,-16.63486184,-16.94077609,-17.10845037,-17.50184035,-17.7228222,-18.08842513,-18.30820978,-18.56227242,-19.03779787,-19.17941239,-19.50068212,-19.9982924,-20.27337086,-20.59610539,-21.03852616,-21.37093827,-21.89391509,-22.27819345,-22.68813639,-22.77935634,-23.42607219,-23.78502459,-24.24345035,-24.66721158,-24.90675112,-25.26589157,-25.41811799,-25.63422616,-25.79783659,-25.98201174,-26.1853598,-26.36676519,-26.5302353,4,level-4
1.507437812,4.218931413,4.970848188,4.538561075,3.90030642,3.53458123,3.142997715,2.777925859,2.340327365,2.196842088,2.048146743,1.920694264,1.86798978,1.816936557,1.670556141,1.614700858,1.50274049,1.282565372,1.172214857,1.067222785,0.871335305,0.740076587,0.742558833,0.707554019,4.160120346,5.188676429,3.529827191,-0.45234263,-0.91613117,-1.510358716,-2.063160809,-2.176332749,-2.244181384,-2.137702547,-2.333684007,-2.364014612,-2.381275388,-2.666620401,-2.891222517,-3.082001569,-3.321203299,-3.521653861,-3.678662839,-3.84864785,-4.06556206,-4.36024062,-4.645367911,-4.87915449,-5.103902607,-5.250699048,-5.37761521,-5.557862311,-5.96366469,-6.213101386,-6.298423626,-6.653507263,-7.007890677,-7.2787879,-7.623532439,-7.694655241,-7.921064569,-8.310179368,-8.563483229,-8.738546214,-9.107803132,-9.244830458,-9.458671921,-9.764179348,-9.745227431,-9.982846599,-10.38625558,-10.6787499,-10.88745107,-10.97789205,-10.41777544,-10.12180323,-11.39712739,-12.26252941,-12.33748054,-12.63067622,-13.01815957,-13.2486647,-13.33584188,-13.71092131,-13.97754694,-14.33628897,-14.46378564,-14.52292884,-14.84923521,-15.2468326,-15.57042232,-15.86206982,-16.24111832,-16.46370681,-16.6419043,-16.87851307,-17.18772403,-17.37518939,-17.69905933,-17.99594168,-18.39230522,-18.72619927,-19.07633383,-19.30501052,-19.47511045,-19.91879878,-20.19199734,-20.56633792,-20.92154265,-21.2483591,-21.65975884,-21.96201419,-22.38623697,-22.84439982,-23.13788137,-23.58048874,-23.87063561,-24.37917351,-24.65478674,-25.07676458,-25.3762243,-25.69129203,-26.06619125,-26.20519437,-26.43692978,-26.64567602,-26.85010776,-27.09467328,-27.31093229,3,level-3
0.748576998,3.581856087,4.33803206,4.091622918,3.451904404,3.133023384,2.723070402,2.417364478,2.147301039,1.870113031,1.681866183,1.455946879,1.542301995,1.362777645,1.193154423,1.032937171,0.69922975,0.697899638,0.615925191,0.560751116,0.359482907,0.378158286,0.086456786,-0.062021419,1.253424766,2.073445694,0.406652747,-1.073237872,-1.459874793,-1.869093375,-2.245917372,-2.468440701,-2.388149609,-2.467875524,-2.845890421,-2.897280237,-3.153688072,-3.30269736,-3.421103216,-3.591525417,-3.881930677,-4.158906376,-4.215431995,-4.448233748,-4.716679069,-5.031105026,-5.341894618,-5.383558914,-5.611210979,-6.006260412,-6.29451504,-6.564406379,-6.89759421,-6.872705181,-7.149156861,-7.476831938,-7.683763141,-7.940244713,-8.202079219,-8.45811159,-8.716168539,-9.037126233,-9.169184624,-9.426655029,-9.810901025,-9.826591216,-10.03743422,-10.36316428,-10.59980908,-10.73543458,-11.03596964,-11.11903138,-11.56782853,-11.87543089,-11.88922252,-12.04904474,-12.38156176,-12.69928494,-12.92572272,-13.30943525,-13.40113186,-13.57813923,-13.83848339,-14.2591749,-14.5165884,-14.67442829,-14.93394482,-15.1811895,-15.29811735,-15.66794375,-15.99040117,-16.1013788,-16.49645902,-16.6358196,-16.79874263,-17.02325785,-17.36118694,-17.76904292,-17.8604122,-18.19331576,-18.44523389,-18.93890115,-19.26015163,-19.62377095,-19.88252685,-20.13554307,-20.27176164,-20.77158419,-21.15645153,-21.39744186,-21.78986151,-22.17158809,-22.49895713,-22.95311186,-23.48323632,-23.757105,-24.22292163,-24.62075948,-25.04570152,-25.48263918,-25.82981863,-26.22169741,-26.59587231,-26.9281125,-27.10077453,-27.33074294,-27.5855135,-27.80819027,-28.10195491,3,level-3
0.057404158,2.954685579,3.77704131,3.557279974,3.236367267,3.027843747,2.386440952,1.883359981,1.718576758,1.747138975,1.852918315,1.539426136,1.756906487,1.721301407,1.744390134,1.766461797,1.646324945,1.463744056,1.448015332,1.48630011,1.15522914,1.03333771,1.105903092,1.060505977,3.934536687,4.851982737,3.035974514,-0.231606998,-0.705088227,-1.536935571,-2.087112176,-2.100814233,-1.866785783,-1.73067894,-1.980098966,-2.073289754,-2.326531018,-2.463299546,-2.525798736,-2.640640057,-2.948645734,-3.007999798,-3.347687159,-3.597364019,-3.82460379,-4.029051905,-4.2244863,-4.644619293,-4.717701504,-4.918763219,-5.257898052,-5.482549219,-5.810245324,-5.998356433,-6.417985831,-6.645963208,-6.78925613,-7.088276612,-7.450856233,-7.450716037,-7.70768939,-8.109462858,-8.284382398,-8.415336488,-8.764334762,-8.965241802,-9.299845969,-9.630940566,-9.6431341,-9.90523717,-10.16126222,-10.28928416,-10.65026533,-10.95265321,-10.07075157,-9.94568652,-11.27866386,-11.89046946,-12.16843196,-12.46750654,-12.66904046,-12.85721712,-13.25477346,-13.41295709,-13.71096258,-14.07560608,-14.13342292,-14.48241205,-14.81766489,-15.09635402,-15.34186703,-15.41308764,-15.74452359,-16.02431985,-16.34589332,-16.48955344,-16.66462568,-17.03083646,-17.37230357,-17.61231369,-18.02427859,-18.38108812,-18.64610777,-18.88165288,-19.3041355,-19.60378599,-19.81972108,-20.12340469,-20.50863933,-20.87170693,-21.28247899,-21.82889479,-22.17562232,-22.53709006,-22.87091421,-23.24439129,-23.69162486,-24.19780132,-24.62937665,-25.00692919,-25.37518095,-25.67523579,-25.95831404,-26.03222989,-26.29350322,-26.4233911,-26.65287748,-26.83026384,-27.03961089,2,level-2
-0.159171803,2.692342073,3.865872164,3.699857907,3.288428428,2.984136643,2.672700922,2.396000279,2.047265036,1.881237361,1.862195517,1.487942113,1.401598302,1.218875908,1.004193286,0.951667063,0.89291581,0.844442541,0.627831945,0.431122032,0.30712007,0.38455939,0.253940867,-0.068121919,0.133389541,0.569226354,-0.468421742,-1.018075843,-1.422473636,-1.875261161,-2.207731776,-2.428010264,-2.529754831,-2.71638948,-2.754943172,-2.907637444,-3.186334488,-3.33845079,-3.517754402,-3.78265397,-4.074010048,-4.236364265,-4.506829547,-4.809357429,-4.906841954,-5.145003056,-5.354320391,-5.583164827,-5.70887874,-5.974418782,-6.419173066,-6.518180641,-6.69425588,-7.060664427,-7.455901022,-7.456765832,-7.861632733,-7.974519839,-8.126876393,-8.537098028,-8.917094173,-9.076877059,-9.375391449,-9.476438185,-9.754998531,-10.14148587,-10.49941687,-10.65460239,-10.75345847,-11.02057519,-11.25576509,-11.44884553,-11.84024489,-11.98038534,-12.24611241,-12.58456309,-12.71341044,-12.93138727,-13.01391182,-13.37946883,-13.67563945,-13.95043948,-14.19479385,-14.23795121,-14.66514663,-14.86945599,-15.2892026,-15.55232861,-15.60565018,-15.77233153,-15.91167437,-16.19575561,-16.54404181,-16.85580782,-17.19917482,-17.26957807,-17.56978596,-17.81196927,-18.18071553,-18.49264946,-18.7607199,-18.98609338,-19.2833501,-19.69278566,-20.03642838,-20.41442747,-20.52607188,-20.95565298,-21.33249882,-21.63941628,-21.95481984,-22.41108574,-22.89364614,-23.12978382,-23.62600962,-24.09574982,-24.41004901,-24.92948935,-25.4182653,-25.85631195,-26.26956079,-26.70070216,-27.1277831,-27.32602176,-27.56378105,-27.78521638,-28.05920107,-28.24850702,-28.56756507,1,level-1
0.815142602,3.45032561,4.339230493,4.116207122,3.628589949,3.220388265,2.961523349,2.410449255,1.99866327,1.8790056,1.778468912,1.527758957,1.411146817,1.380204645,1.251611193,1.10193376,1.038516097,0.626248628,0.672295693,0.514909706,0.368070975,0.152131103,0.203532783,-0.086442886,3.10926676,4.190535995,2.485606029,-1.060624157,-1.339474108,-1.808253414,-2.202451668,-2.410266472,-2.564589314,-2.707451,-2.84705237,-2.907649771,-3.135109265,-3.467319548,-3.555486771,-3.895953202,-4.126102515,-4.298407498,-4.524740959,-4.743407449,-4.986844899,-5.14578707,-5.545049749,-5.774588637,-5.988279784,-6.158234638,-6.387285421,-6.69573524,-6.923694102,-7.068018853,-7.485975702,-7.614620076,-7.781329784,-8.107426962,-8.499630591,-8.765782157,-8.939888608,-9.042231982,-9.379232026,-9.732285896,-9.996716434,-10.26783575,-10.4258114,-10.7477264,-10.96424737,-11.10634226,-11.50565685,-11.7304243,-11.87007563,-12.08858066,-11.45118787,-11.04726983,-12.33492978,-13.22056836,-13.47196296,-13.87692431,-14.00083748,-14.25483084,-14.51520031,-14.48339287,-14.88648716,-15.18262534,-15.24392463,-15.71813264,-16.06307439,-16.15379214,-16.38358874,-16.67629759,-16.83612246,-17.15138377,-17.49507202,-17.70702064,-18.07959812,-18.36029094,-18.58509917,-18.77521707,-19.07010952,-19.2968394,-19.62345494,-19.84035001,-20.2214706,-20.621746,-20.84512501,-21.01192363,-21.29708634,-21.61644775,-22.05054333,-22.59393357,-22.91562862,-23.21264947,-23.78244735,-24.02808894,-24.45952528,-24.61503642,-25.23746458,-25.57419332,-26.01661384,-26.19800489,-26.52790658,-26.75294746,-26.94918592,-27.2005198,-27.4483827,-27.71581327,-28.06414093,3,level-3
2.122541108,4.850155461,5.696750633,5.318175144,4.678739005,4.267959775,3.876276238,3.571865711,3.204235605,2.923563654,2.800691283,2.565785758,2.438148648,2.3350167,2.279040035,2.133841787,1.921417517,1.815766141,1.670316676,1.57642481,1.566553066,1.357217501,1.197398394,1.250712468,4.756113786,5.7730155,4.148814469,0.059417366,-0.793830564,-1.328754159,-1.715620347,-1.941297247,-2.078826213,-2.103351228,-2.27362243,-2.317362799,-2.394095744,-2.549778438,-2.763098085,-3.037790349,-3.203936214,-3.493836772,-3.724258489,-3.720597758,-4.060756544,-4.446217373,-4.621885629,-4.812074069,-4.940586322,-5.139689422,-5.400231106,-5.702039924,-5.817309646,-6.036993756,-6.404426105,-6.696002378,-6.959893753,-7.103050096,-7.387817806,-7.632057542,-7.897307164,-8.224406921,-8.38440565,-8.686149634,-8.816784689,-9.007253821,-9.392921976,-9.53724737,-9.755175232,-10.06728966,-10.32110333,-10.60388775,-10.83584101,-10.98210575,-9.864429973,-9.457393873,-10.82559993,-11.85040848,-12.29489923,-12.60164206,-12.99858006,-13.15587852,-13.36373137,-13.5697366,-13.79781406,-14.16041457,-14.50848434,-14.68414414,-14.81945463,-14.97971596,-15.26621778,-15.64724537,-15.79309846,-16.24217967,-16.57824548,-16.90349518,-16.97057492,-17.31166441,-17.58705608,-17.91508804,-18.22928359,-18.36566651,-18.61014513,-18.99036063,-19.36635826,-19.67642276,-20.01300304,-20.2222858,-20.46915955,-20.94754132,-21.23065417,-21.50935109,-21.96738477,-22.27289509,-22.68555091,-23.21018732,-23.41721708,-23.86886936,-24.03169778,-24.44033753,-24.77608434,-24.99400303,-25.17357408,-25.38478386,-25.64243702,-25.75869627,-26.00583495,-26.24323664,-26.49996592,2,level-1
-0.248188118,2.668892229,3.832665597,3.56527047,3.31518478,3.12098663,2.622532143,2.300079463,2.080390901,1.943977809,1.892607656,1.675676564,1.451181582,1.425900875,1.341288923,1.227010088,0.995774756,0.896679576,0.831859181,0.797779436,0.664122641,0.43667466,0.424444359,0.294007772,0.297787176,0.52393666,-0.278512539,-0.888846088,-1.345044077,-1.87512312,-2.36181008,-2.338766621,-2.405182379,-2.460564337,-2.423832876,-2.571691007,-2.908036625,-2.93012017,-3.074857486,-3.398666411,-3.535260167,-3.826527093,-4.042128956,-4.424104631,-4.464498192,-4.655935801,-4.969544783,-5.105804305,-5.414598593,-5.587402097,-6.014027814,-6.284229704,-6.430186462,-6.577723718,-6.911185402,-7.29389895,-7.486877743,-7.593637361,-7.759966728,-7.966179683,-8.382504906,-8.579573867,-8.799836684,-9.052839851,-9.238980306,-9.455208597,-9.818839342,-10.07921869,-10.3468783,-10.51097822,-10.79002801,-11.1449211,-11.24536549,-11.24858234,-11.5802705,-11.86806532,-12.01806309,-12.43386707,-12.7753356,-12.77393711,-13.04710393,-13.28968381,-13.63484203,-13.76704555,-14.10869736,-14.35149294,-14.63666011,-14.95401516,-15.28299685,-15.49022692,-15.59395733,-15.84679888,-16.20493908,-16.45588302,-16.74178882,-17.04789338,-17.34040177,-17.55699359,-17.88922801,-18.20907731,-18.49144513,-18.77681527,-19.08852429,-19.45449465,-19.73939294,-19.94721281,-20.20233852,-20.57355604,-21.04139045,-21.27032195,-21.65349896,-22.16198819,-22.47396869,-22.98759926,-23.26866409,-23.71650956,-24.25868528,-24.75691839,-25.18853978,-25.74911754,-26.27092634,-26.66004987,-27.13043412,-27.46185355,-27.73143065,-28.04639607,-28.21730061,-28.46836396,-28.69377827,1,level-1
-0.926024454,2.148101544,3.019485232,2.917304097,2.680919494,2.343402366,2.094939703,1.644113875,1.727382747,1.534236899,1.460424719,1.228842094,1.197952865,1.265879403,1.18314567,1.261772621,1.12978852,1.093065882,0.966145269,0.782866923,0.722784256,0.578551039,0.459302907,0.500840538,3.699433199,4.675787316,2.932104202,-0.701070016,-1.160947811,-1.802876822,-2.012503954,-2.27241193,-2.498850064,-2.593055044,-2.634180397,-2.51506454,-2.789526878,-3.118230822,-3.281849046,-3.421907762,-3.541392723,-3.861236367,-4.075534254,-4.287149422,-4.483278217,-4.786832926,-4.937655139,-5.09178682,-5.449559042,-5.680214448,-5.98298426,-6.341144766,-6.53845723,-7.009376389,-7.015465453,-7.421259633,-7.775858051,-8.029511941,-8.187079193,-8.363223879,-8.869477096,-9.095680536,-9.434053059,-9.745714458,-9.930237482,-10.09201852,-10.17765321,-10.53854591,-10.89586917,-11.07044284,-11.31349103,-11.56904658,-11.83950559,-11.90458821,-10.96730421,-10.81010933,-12.29393422,-12.96194208,-13.30399807,-13.49465769,-13.55845684,-13.92984773,-14.06799807,-14.52636414,-14.74290712,-14.91181239,-15.18110305,-15.41894454,-15.67006776,-15.77485377,-16.09485106,-16.46068359,-16.67046967,-17.0106224,-17.17139492,-17.33195393,-17.5817126,-17.91537415,-18.25741549,-18.41942968,-18.71517815,-19.02681934,-19.2848895,-19.57756611,-19.95252359,-20.27419835,-20.51488357,-20.84303306,-21.07270178,-21.52434875,-21.9046936,-22.15589423,-22.68322084,-23.12986169,-23.43449419,-23.7903408,-24.38195005,-24.71088937,-25.23976216,-25.69398442,-25.83529887,-26.31732217,-26.44876434,-26.64580196,-26.90759395,-26.97643388,-27.14597897,-27.27274422,-27.41522978,3,level-3
2.210142431,5.040386554,5.879614834,5.547660945,4.848057732,4.066731736,3.541938475,2.976788909,2.493073363,2.085553597,1.978039627,1.692720526,1.433133001,1.366205342,0.931162292,0.980025492,0.989650499,0.916750076,0.839398503,0.672038796,0.481226255,0.582569891,0.429151582,0.700378322,5.224493104,6.292059631,4.584119065,-0.34014406,-0.907650653,-1.441338437,-1.787485615,-2.129399207,-2.181379849,-2.45362462,-2.699279167,-3.066696961,-3.218488539,-3.653064373,-3.874746602,-4.107152705,-4.335908671,-4.496470077,-4.585374667,-5.021471002,-5.068267443,-5.28869379,-5.700986968,-6.029678857,-6.265484399,-6.412594237,-6.683760397,-6.875217382,-7.172097263,-7.350792263,-7.652286252,-7.913394757,-8.151596444,-8.577292127,-8.77409636,-9.010269801,-9.325639725,-9.367641213,-9.515121081,-9.873028787,-10.19216734,-10.15067437,-10.49089443,-10.83644366,-10.97497913,-11.25072965,-11.58707384,-11.59118092,-11.81609491,-12.20107715,-10.99508004,-10.55924043,-11.99095091,-13.13788649,-13.41672017,-13.73981559,-14.08552349,-14.1099884,-14.22222472,-14.48892085,-14.90437697,-15.11746209,-15.2707858,-15.42279457,-15.62672065,-16.05869782,-16.25671666,-16.51742866,-16.63043211,-17.00276634,-17.30096633,-17.47111311,-17.61764027,-17.83525582,-17.96445844,-18.43705859,-18.65547857,-19.06070808,-19.32112206,-19.61738921,-19.83753711,-20.20785491,-20.22184184,-20.55513461,-20.93690769,-21.27616134,-21.60020282,-21.97838106,-22.22591272,-22.45138675,-22.99926284,-23.27920266,-23.60958527,-24.07509847,-24.15797539,-24.48192678,-24.68592814,-24.95676179,-25.16140419,-25.35751544,-25.53862044,-25.74092442,-25.96788263,-26.21427007,-26.47565334,3,level-3
1.799477443,4.575128891,5.435606047,5.312698518,4.906297617,4.747941503,4.503541024,4.202082312,4.047247739,3.875286503,3.670156012,3.735054239,3.435454781,3.214381468,3.245872715,3.095699585,2.911320539,2.828411607,2.784398927,2.492283446,2.455366175,2.157065386,1.919533564,1.711938113,2.957632745,3.911076884,2.292606586,-0.092606645,-0.639036303,-1.503696969,-2.059937724,-1.845862595,-1.643021847,-1.504297777,-1.550443036,-1.64902343,-1.698021832,-2.064542579,-2.402044819,-2.659637438,-2.670199542,-2.888691847,-3.122588391,-3.431598657,-3.676982984,-3.745602477,-4.171619474,-4.408872821,-4.680236457,-4.748368093,-4.992262168,-5.339074263,-5.530658482,-5.792307709,-6.131042443,-6.430234899,-6.634052576,-6.789029135,-7.03675342,-7.330749853,-7.59403736,-7.880700126,-8.243943907,-8.393922448,-8.653985714,-8.786526781,-9.060653163,-9.318223711,-9.56691734,-9.719264392,-10.00685686,-10.28227652,-10.76409872,-10.88166595,-10.94731881,-11.09913156,-11.61631732,-11.9134502,-12.19958852,-12.44039498,-12.65805328,-12.95119484,-13.31678867,-13.42699542,-13.67597153,-13.9863738,-14.27362095,-14.48030299,-14.83410413,-15.04487812,-15.27517478,-15.54485409,-15.76282116,-16.13105887,-16.39354577,-16.5879424,-16.78694734,-17.09869488,-17.39901213,-17.77009947,-18.01158952,-18.39223723,-18.78666526,-19.00686203,-19.40065525,-19.61727296,-19.81004835,-20.35157414,-20.59172743,-20.94480969,-21.44057853,-21.64338899,-22.08102672,-22.5766753,-23.02666558,-23.37000386,-23.80641925,-24.08937552,-24.51557587,-24.81995394,-25.14326523,-25.38180679,-25.61848825,-25.80024465,-25.98478684,-26.1707928,-26.35203531,-26.55534386,-26.72432523,3,level-3
1.917316114,4.704756141,5.737050465,5.591937537,5.376537438,5.037153148,5.022951033,4.781110139,4.495601568,4.267821142,4.056376219,4.004477503,3.877956244,3.766237864,3.627408229,3.363695998,3.273974909,3.205434946,3.041881819,2.93060586,2.749212792,2.310600312,2.27720042,1.97709439,3.646663667,4.665484207,2.921000882,0.438745214,-0.225275328,-1.025210381,-1.908018204,-1.852116577,-1.558587337,-1.391438856,-1.324033024,-1.467287308,-1.75987144,-1.812183441,-2.084937882,-2.354211259,-2.566308093,-2.955252061,-3.111475503,-3.309669191,-3.572324488,-4.001982899,-4.11779566,-4.381287029,-4.701204576,-5.117137528,-5.304285393,-5.531149847,-5.751720566,-5.745842059,-6.083799121,-6.386169298,-6.672708234,-7.089220089,-7.166585201,-7.500199793,-7.679796523,-7.940150866,-8.337480995,-8.496042757,-8.872342426,-9.083933138,-9.300163014,-9.574056687,-10.0508621,-10.28017542,-10.37882559,-10.66927811,-10.92832332,-11.13043511,-10.72671136,-10.64104754,-11.73575025,-12.14915963,-12.41013503,-12.7992461,-13.14207558,-13.37132476,-13.58588446,-13.87591589,-14.04653562,-14.24346851,-14.50061073,-14.78114036,-15.02598429,-15.274328,-15.66166028,-15.92097775,-16.0595537,-16.22285872,-16.60555464,-16.75121871,-17.22871404,-17.35249964,-17.73415307,-18.07846707,-18.40951693,-18.63617713,-18.83639217,-19.2249866,-19.53443864,-19.90977592,-20.18429623,-20.46995985,-20.90221406,-21.22873029,-21.50870973,-21.93467011,-22.22732895,-22.55237325,-23.0196309,-23.24118547,-23.51756279,-24.14584176,-24.28081041,-24.6732539,-24.87914505,-24.97085886,-25.28366931,-25.4562627,-25.67648819,-25.8816219,-26.07521943,-26.30214111,-26.48902579,3,level-3
1.524323814,4.347151709,5.19240262,4.924185679,4.209641236,3.727551344,3.191365974,2.828660983,2.473914743,2.42470395,2.159308972,2.146864549,1.983571651,2.140734194,1.966198278,1.918967774,1.958469477,1.698193857,1.688652147,1.607511202,1.508701078,1.264898047,1.095935152,0.995397154,3.957786792,4.910916956,3.140010852,-0.124462845,-0.909742936,-1.468441295,-2.016408498,-1.981457691,-2.016127811,-1.912503359,-1.89711928,-2.002290812,-2.210305302,-2.44031546,-2.658206724,-2.630045101,-2.811621779,-3.127230366,-3.23777632,-3.404909178,-3.688390073,-3.900223925,-4.205111664,-4.340225439,-4.463211168,-4.636260701,-4.895585984,-5.345788355,-5.570443575,-5.696708592,-5.835874764,-6.093939987,-6.291063398,-6.50490213,-6.799458263,-7.03263468,-7.117436885,-7.431293124,-7.646152558,-7.966714624,-8.282260425,-8.483977044,-8.682908511,-8.812443051,-9.192695505,-9.26389507,-9.611668505,-9.734679494,-9.994449532,-10.23737579,-10.68183124,-10.8693056,-10.99066431,-11.31517618,-11.57994833,-11.92247993,-12.03879877,-12.24585206,-12.47236425,-12.74621146,-12.92363984,-13.20947956,-13.4546408,-13.61216557,-13.99191244,-14.14910998,-14.39760628,-14.80211885,-14.9568478,-15.33705114,-15.58763019,-15.86859795,-16.14613742,-16.40828259,-16.59937036,-16.94508029,-17.31854455,-17.70752408,-18.02459332,-18.3009108,-18.55197285,-18.82609413,-19.15434799,-19.59895534,-19.93075358,-20.33955358,-20.7308225,-21.1729177,-21.58710003,-22.09642325,-22.42543158,-22.838749,-23.20097569,-23.70194606,-24.20399454,-24.72686368,-25.04322124,-25.33803173,-25.68512243,-26.0202433,-26.15532062,-26.37571887,-26.61552583,-26.86617858,-27.08386831,3,level-3
1.183739822,4.334214123,5.347242976,5.517036757,5.275868626,5.137967244,4.864615216,4.539314376,4.277615374,4.111583686,4.128522791,3.783582162,3.725691329,3.539038567,3.505687893,3.501835352,3.276662856,3.134727503,3.046402012,2.939094625,2.641237593,2.499377974,2.347259868,2.291847056,5.892334046,6.796018065,4.897477457,1.087258011,0.146138294,-0.936788195,-1.620501379,-1.429386843,-1.269333986,-1.318102883,-1.216470872,-1.267935085,-1.375178524,-1.677108074,-1.890857143,-2.130892612,-2.244444597,-2.458837627,-2.816149068,-3.084487079,-3.257897072,-3.389965591,-3.54984634,-3.706317113,-4.081224786,-4.496904914,-4.628379656,-5.007200652,-5.196752892,-5.537932257,-5.756607398,-6.047088504,-6.055953533,-6.322512547,-6.778580946,-7.002363229,-7.224341906,-7.452559097,-7.661337837,-7.997558934,-8.29124566,-8.459224969,-8.818710797,-9.025209966,-9.310112792,-9.564385043,-9.800131509,-9.937792287,-10.22277092,-10.19718937,-8.621761328,-8.609721466,-10.481418,-11.51868662,-11.59938303,-12.02039088,-12.32803356,-12.5395827,-12.89134689,-13.04184201,-13.29984545,-13.59955369,-13.8930376,-14.11286148,-14.53229727,-14.66042722,-14.88667825,-15.08873936,-15.29556147,-15.81846855,-16.05093982,-16.12541438,-16.54073956,-16.75000654,-17.08095191,-17.3283105,-17.61408647,-18.15259207,-18.43494786,-18.68695408,-19.054369,-19.23988294,-19.42413596,-19.79812292,-20.2012304,-20.67542009,-20.99908772,-21.31508352,-21.63359918,-22.11785968,-22.40029486,-22.66735548,-23.07457876,-23.31861333,-23.58893673,-23.97485382,-23.94226827,-24.22884011,-24.34901326,-24.49848442,-24.61456816,-24.7242123,-24.87121307,-25.01007523,-25.14073708,2,level-2
3.071763698,5.626487474,6.381351622,5.83503943,5.196319358,4.657669868,3.929214154,3.181338066,2.76702964,2.451599038,2.148001612,1.99541356,1.860927505,1.758002928,1.735396194,1.782470274,1.535063899,1.412712294,1.246957918,1.101396466,0.956899933,0.864032226,0.80475285,0.919780516,4.513578564,5.433220036,3.585775154,-0.333884812,-0.864757717,-1.359361927,-1.928686987,-2.152767765,-2.287283027,-2.162314887,-2.106418533,-2.553731136,-2.706725612,-2.89337498,-3.067709263,-3.172620065,-3.4734615,-3.78741548,-3.899569389,-4.091494073,-4.361007651,-4.586616452,-4.741853193,-4.968714498,-5.163320009,-5.433012423,-5.705790806,-5.988379159,-6.206361905,-6.274518335,-6.609375736,-6.833425969,-7.036722854,-7.357842833,-7.590233741,-7.933519465,-8.157688304,-8.214637557,-8.489386366,-8.758606296,-8.941839499,-9.21888342,-9.364198041,-9.621366736,-9.932268575,-10.11322253,-10.51082136,-10.709315,-10.96428694,-11.05289008,-11.03141184,-11.18733196,-11.79013845,-11.95816424,-12.3211213,-12.62279371,-12.73491925,-13.05371649,-13.28341935,-13.53576502,-13.92305324,-14.1002311,-14.17227441,-14.52727234,-14.70392144,-14.97421461,-15.29012122,-15.60427047,-15.69842843,-15.99088578,-16.12339178,-16.47261187,-16.72868914,-17.08886586,-17.38883861,-17.64756724,-17.92253182,-18.11705984,-18.46755985,-18.91466436,-19.13568753,-19.3359306,-19.74408442,-19.99764024,-20.33518311,-20.89448049,-21.25236814,-21.54968555,-21.69877238,-22.34133507,-22.59224124,-22.81272528,-23.15727346,-23.65337904,-23.99602911,-24.3121957,-24.46752427,-24.78163841,-24.96266528,-25.14142926,-25.32544348,-25.5399994,-25.71101355,-25.93382734,-26.15620373,4,level-4
-0.625382136,2.253105393,3.10940297,2.943136844,2.586700437,2.367418888,2.401196687,2.3259635,1.599565719,1.314136219,1.006496389,0.997853495,0.943174939,1.060725672,0.853779205,0.899419755,0.481466916,0.342180981,0.308468537,0.180919753,0.065029811,-0.041993237,-0.071228525,-0.022957152,4.395191541,5.327728354,3.603572623,-0.86617524,-1.411264907,-1.923727318,-2.169839997,-2.553087991,-2.8790984,-3.104614851,-3.335084142,-3.494003195,-3.729706477,-4.00447664,-4.21232874,-4.383008915,-4.523023079,-4.856408218,-5.102932988,-5.372866343,-5.730127803,-5.832643236,-5.949295137,-6.240360869,-6.756743688,-6.928869069,-7.078985441,-7.433760115,-7.653550042,-7.914007766,-8.237605633,-8.40763566,-8.799655982,-9.008299443,-9.303870334,-9.511718178,-9.804207672,-10.05913698,-10.23328295,-10.24456456,-10.62140326,-10.9311837,-11.18812748,-11.39073036,-11.64005564,-11.86098645,-12.04066851,-12.43152091,-12.58275263,-12.66941877,-11.30173171,-11.06603641,-12.68741164,-13.70475381,-13.97078608,-14.07663724,-14.31869506,-14.54929513,-14.91955775,-15.19826865,-15.41690982,-15.52814799,-15.68336752,-15.88265548,-16.03627304,-16.29811018,-16.73304638,-16.95341367,-17.13314276,-17.41737366,-17.80000551,-17.99225286,-18.20030169,-18.333476,-18.59230744,-18.75935202,-19.09650184,-19.45825125,-19.76891259,-20.0996575,-20.36761858,-20.67445171,-20.75600749,-21.11968625,-21.54628321,-21.68204024,-22.2327939,-22.71927751,-22.9859914,-23.14315153,-23.63228157,-24.04701478,-24.36560263,-24.93461345,-25.12570722,-25.64877874,-25.8334085,-25.88219949,-26.18857399,-26.36160948,-26.52383439,-26.65227606,-26.81474276,-26.97484626,-27.17142811,3,level-3
-0.289241328,2.375829546,3.363446174,2.939078411,2.577261418,2.332998183,2.399278199,2.338515639,1.765152962,1.507429693,1.405997979,1.437325162,1.398057414,1.366818676,1.30315902,1.024682895,0.787711335,0.673216954,0.549193741,0.436547104,0.357511409,0.152411589,-0.023846275,-0.236554496,2.905466595,4.106925826,2.59807752,-1.09111207,-1.559747488,-1.957087427,-2.235361169,-2.412167125,-2.619323187,-2.901389414,-3.033619825,-3.203004236,-3.47579737,-3.846172624,-3.998587292,-4.106962355,-4.459009279,-4.613821444,-4.71533917,-5.007805789,-5.449618694,-5.506273142,-5.570683763,-5.904299663,-6.282675924,-6.589691395,-6.71210629,-6.796837933,-7.227873447,-7.789509481,-8.059173729,-8.20198882,-8.284068501,-8.572590811,-8.692339891,-8.905585177,-9.082215005,-9.422561028,-9.740871796,-10.05031851,-10.24614553,-10.44894243,-10.79092497,-10.91887109,-11.11325827,-11.21383151,-11.80251737,-11.91949135,-12.24012528,-12.39578616,-12.31884732,-12.16705478,-12.98418789,-13.36454498,-13.85803171,-13.86284981,-14.12079215,-14.32392106,-14.71480246,-14.97778631,-15.05163326,-15.21997889,-15.54985859,-15.7173231,-15.99786444,-16.38974759,-16.68401676,-16.92327164,-17.0742468,-17.39639013,-17.62477361,-18.01889529,-18.34316362,-18.33847856,-18.5627845,-18.94653579,-19.16125177,-19.4184189,-19.77664777,-20.13028888,-20.39146287,-20.66898092,-20.96947901,-21.34766082,-21.54827986,-21.96477392,-22.35671317,-22.74745306,-23.05239185,-23.49890876,-23.84575237,-24.42332088,-24.71783816,-25.20113512,-25.5399737,-26.04251949,-26.50085938,-26.80916172,-27.29553615,-27.48755357,-27.66495101,-27.90810135,-28.09899632,-28.32498317,-28.54683641,2,level-2
-0.682383033,2.360595291,3.263567303,2.976263018,2.61284502,2.080295662,2.317682197,2.324945137,1.845849144,1.371159951,1.323895619,1.177144102,1.069019684,0.830208247,0.761469325,0.69322776,0.606299713,0.413085701,0.161272353,0.161522471,-0.030230312,-0.102508635,-0.283532702,-0.300010596,2.625709452,3.751931061,2.109107658,-1.293066289,-1.622770086,-1.954142922,-2.145071391,-2.477322948,-2.688880966,-2.914278655,-3.298281751,-3.38899997,-3.512998339,-3.782404986,-4.145731023,-4.281779349,-4.545643965,-4.780709397,-5.048245414,-5.409310336,-5.412640775,-5.634207796,-6.024260873,-6.320489033,-6.581695241,-6.79853032,-7.049023756,-7.360343857,-7.507722821,-7.594457142,-7.84313053,-8.197448745,-8.431101652,-8.850411432,-9.007835921,-9.353322665,-9.439470412,-9.892523375,-10.04505219,-10.24854073,-10.52225474,-10.74017977,-11.00653011,-11.10093619,-11.31125968,-11.6701206,-11.97204683,-12.23305916,-12.43198766,-12.68534736,-12.55535287,-12.33690245,-13.06619528,-13.63447685,-13.87530516,-13.96506493,-14.14780995,-14.49767342,-14.72083066,-14.95701067,-15.17284079,-15.48071994,-15.65615307,-15.83307992,-16.12787381,-16.5285946,-16.601505,-16.8189171,-17.11443937,-17.41051545,-17.63504926,-17.84970646,-18.06695302,-18.38639361,-18.61838534,-18.88642387,-19.05888121,-19.4065163,-19.74045879,-20.05496749,-20.34866321,-20.68184275,-20.96613198,-21.33495772,-21.52412405,-21.78459412,-22.29439835,-22.57458004,-23.00966473,-23.28307568,-23.74682566,-24.25108977,-24.70267505,-25.2048548,-25.68746169,-25.97205218,-26.43192166,-26.908747,-27.3206591,-27.59913377,-27.92596218,-28.14553221,-28.3926487,-28.65739442,-28.92125211,4,level-4
